Min	25 percentile	Median	75 percentile	Max	Mean	NAs
fold-change (log2)	-0.999735094907824	0.0616396491795187	0.4867895762901	0.829934247517011	1.45587281065904	0.43210500712115	0
crRNA MFE	-31.79	-20.3	-18.6	-16.8	-12.8	-18.7934085213033	0
% A in Guide	0	3	4	5	8	3.81704260651629	0
% C in Guide	2	6	7	9	14	7.54636591478697	0
% G in Guide	5	8	9	11	15	9.21804511278195	0
% U in Guide	1	5	6	8	12	6.41854636591479	0
% A/U in Guide	5	9	10	12	16	10.2355889724311	0
% G/C in Guide	11	15	17	18	22	16.7644110275689	0
% AA in Guide	0	0	0	1	2	0.443609022556391	0
% AC in Guide	0	0	1	1	4	1.03508771929825	0
% AG in Guide	0	1	2	2	4	1.49122807017544	0
% AU in Guide	0	0	1	1	3	0.706766917293233	0
% CA in Guide	0	1	1	2	4	1.48872180451128	0
% CC in Guide	0	1	1	2	7	1.74937343358396	0
% CG in Guide	0	1	2	3	5	2.21553884711779	0
% CU in Guide	0	1	2	2	4	1.79197994987469	0
% GA in Guide	0	1	1	2	4	1.31578947368421	0
% GC in Guide	0	2	2	3	5	2.52882205513784	0
% GG in Guide	0	1	2	4	9	2.69674185463659	0
% GU in Guide	0	1	2	3	6	2.34085213032581	0
% UA in Guide	0	0	0	1	3	0.446115288220551	0
% UC in Guide	0	1	2	3	5	1.97994987468672	0
% UG in Guide	0	2	2	3	5	2.43609022556391	0
% UU in Guide	0	0	1	2	5	1.33333333333333	0
A1 context (proportion)	0	0.142857142857143	0.285714285714286	0.285714285714286	0.571428571428571	0.235230934479055	0
A2 context (proportion)	0.0606060606060606	0.181818181818182	0.242424242424242	0.303030303030303	0.424242424242424	0.238084166472913	8
A3 context (proportion)	0	0.15	0.25	0.3	0.5	0.23734335839599	0
C context (proportion)	0.181818181818182	0.272727272727273	0.318181818181818	0.409090909090909	0.590909090909091	0.343244474823422	0
G context (proportion)	0.0476190476190476	0.19047619047619	0.285714285714286	0.333333333333333	0.571428571428571	0.279150256593866	0
U context (proportion)	0	0.111111111111111	0.111111111111111	0.166666666666667	0.333333333333333	0.142021720969089	0
upstream U context (proportion)	0.0333333333333333	0.1	0.133333333333333	0.166666666666667	0.266666666666667	0.136271808999082	36
Log10(Unpaired probability 1)	-11.6693717706056	-5.29636913132104	-3.90282532173755	-2.92088089985309	-0.939238719521068	-4.24986109438454	4
Log10(Unpaired probability 2)	-7.34500013876379	-2.67232705651636	-2.03003951080095	-1.39133257631165	-0.0670474056016409	-2.11365490329244	2
hybridization MFE [1:26nt]	-69.6	-62.6	-59.9	-56.8	-49.7	-59.6446115288221	0
hybridization MFE [1:10nt]	-27.5	-23	-21.4	-19.9	-15.9	-21.4318295739348	0
hybridization MFE [19:26nt]	-21.5	-18.4	-16.9	-15.3	-10.4	-16.7578947368421	0
