PCA,stepAIC,regsubsets.fwd.indiv,GCcontent,stepBIC,MARS,Lasso,PLSR,SVM+tuning,RandomForest
0.061443,0.0411,0.081925,0.035954,0.043101,0.147503,0.135835,0.227524,0.202751,0.220464
0.00193,0.011299,0.053576,0.083797,0.178118,0.173707,0.10793,0.215862,0.26286,0.244018
3.2e-05,0.052122,0.095053,0.068995,0.117529,0.104741,0.167543,0.228978,0.260668,0.245368
0.002255,0.041406,0.090677,0.131843,0.069613,0.08997,0.210139,0.091588,0.205765,0.279518
0,0.078669,0.011299,0.035803,0.076369,0.116834,0.063365,0.207912,0.271815,0.202531
0.00051,0.002225,0.05196,0.092445,0.061263,0.049455,0.154853,0.118412,0.158179,0.238123
0.003403,0.087265,0.202576,0.128848,0.059219,0.170987,0.231819,0.233984,0.229172,0.241377
0.009027,0.09063,0.032037,0.046367,0.162747,0.13936,0.218266,0.171,0.167173,0.219435
0.017441,0.038794,0.117817,0.154898,0.023664,0.070018,0.118914,0.200687,0.331184,0.241574
0.010593,0.013701,0.049738,0.093565,0.027801,0.037547,0.20177,0.121751,0.154516,0.266593
0.05588,0.022757,0.080857,0.066254,0.07186,0.191032,0.149621,0.220652,0.267723,0.310414
0.000839,0.074617,0.014163,0.135466,0.072639,0.080054,0.154975,0.21364,0.230541,0.227096
0.002772,0.021787,0.040863,0.073687,0.057235,0.089994,0.098866,0.175084,0.168543,0.213948
0.024883,0.069185,0.053053,0.103596,0.115798,0.169648,0.130557,0.213315,0.228832,0.224637
0.001154,0.086866,0.025223,0.059626,0.141738,0.131451,0.183172,0.209477,0.212687,0.299909
0.011378,0.024084,0.033293,0.112922,0.149128,0.119452,0.213827,0.237185,0.29033,0.298823
0.009224,0.038467,0.014925,0.05377,0.120364,0.128794,0.126447,0.253002,0.255608,0.179155
0.052931,0.054149,0.06438,0.025003,0.117673,0.14693,0.149933,0.240788,0.237587,0.208909
0.003939,0.146158,0.042547,0.1164,0.119255,0.272997,0.268035,0.298803,0.342208,0.396492
0.059263,0.037702,0.072836,0.122747,0.198615,0.100939,0.21472,0.272744,0.290573,0.25451
0.053266,0.114005,0.026271,0.050857,0.166275,0.190333,0.161492,0.270265,0.242499,0.373754
0.023042,0.000591,0.047602,0.06549,0.085812,0.126552,0.129256,0.147779,0.231161,0.274729
0.015978,0.036558,0.030293,0.065526,0.126893,0.070424,0.084217,0.160209,0.242165,0.181904
0.009542,0.003772,0.021784,0.053784,0.073176,0.084928,0.148134,0.118666,0.147976,0.193441
0.024651,0.03572,0.098323,0.045273,0.039227,0.194912,0.052613,0.117273,0.049862,0.093765
0.000266,0.065149,0.142597,0.108396,0.095183,0.115085,0.187336,0.201461,0.197054,0.320629
0.009662,0.038577,0.103997,0.026726,0.076198,0.133488,0.086553,0.192832,0.171898,0.157439
0.06738,0.070848,0.037563,0.00357,0.054405,0.041426,0.030073,0.184768,0.188607,0.166707
0.005398,0.05441,0.058289,0.067185,0.128885,0.143966,0.169354,0.22926,0.177554,0.231951
0.006463,0.00882,0.067131,0.104135,0.127035,0.118995,0.14258,0.139306,0.205029,0.290319
0.020169,0.184482,0.092776,0.116757,0.113318,0.128387,0.222913,0.272181,0.329233,0.326934
0.015769,0.097024,0.056118,0.123382,0.10634,0.14425,0.153556,0.1977,0.211107,0.250298
0.011104,0.026918,0.077401,0.036428,0.061216,0.046643,0.109984,0.170981,0.1697,0.172639
0.011773,0.04089,0.05685,0.060804,0.119505,0.084892,0.081697,0.148578,0.13436,0.175453
0.005991,0.109941,0.12161,0.076722,0.12637,0.162664,0.165838,0.168651,0.23619,0.182445
0.033099,0.080467,0.054778,0.070612,0.170948,0.105844,0.139567,0.269988,0.270036,0.234236
0.048071,0.055875,0.135465,0.127662,0.125939,0.155924,0.132088,0.215948,0.185288,0.275235
1e-06,0.066093,0.074569,0.086254,0.248798,0.185471,0.131268,0.202525,0.168552,0.170167
0.013466,0.122431,0.109671,0.068972,0.199002,0.167506,0.13133,0.203134,0.242288,0.257834
8e-05,0.064969,0.045568,0.010602,0.128821,0.057371,0.037972,0.174791,0.155305,0.111735
0.012049,0.013967,0.000183,0.154403,0.094488,0.135061,0.15761,0.212517,0.251711,0.295773
0.023954,0.009639,0.025437,0.036748,0.122221,0.10216,0.09302,0.175641,0.159573,0.180312
0.011716,0.022098,0.044069,0.049574,0.108714,0.152362,0.094462,0.253798,0.192267,0.199487
0.098476,0.00011,0.046613,0.056488,0.064998,0.177398,0.096904,0.179868,0.149158,0.213704
0.054392,0.133057,0.037732,0.040659,0.151283,0.15545,0.127515,0.215169,0.247094,0.268983
0.014731,0.04309,0.045995,0.03885,0.029165,0.041765,0.063104,0.145649,0.132797,0.132686
3.7e-05,0.042816,0.096464,0.046717,0.067146,0.112524,0.072932,0.169719,0.151169,0.154681
0.002247,0.037168,0.063265,0.095929,0.123069,0.077574,0.220463,0.148905,0.188858,0.269024
0.000133,0.050951,0.012015,0.124857,0.102434,0.118797,0.177338,0.220954,0.254698,0.248158
0.023696,0.068556,0.059497,0.048811,0.263963,0.173831,0.048811,0.308552,0.26264,0.237073
0.050058,0.087085,0.051051,0.112374,0.136096,0.07897,0.103441,0.240417,0.285566,0.268081
2.3e-05,0.120969,0.077755,0.055632,0.132383,0.086194,0.19692,0.200827,0.228297,0.278506
0.009836,0.088534,0.084848,0.151294,0.102883,0.080336,0.22854,0.225755,0.256575,0.338892
0.005096,0.056989,0.033728,0.034643,0.098459,0.103001,0.087798,0.194379,0.230718,0.264017
0.009549,0.079353,0.055248,0.027928,0.068285,0.09156,0.058899,0.089411,0.100488,0.108275
0.015589,0.075395,0.056921,0.118608,0.093442,0.104796,0.184554,0.157036,0.221681,0.252457
0.005996,0.034792,0.010789,0.111764,0.152213,0.175224,0.153223,0.246697,0.205449,0.199666
0.000845,0.051115,0.053214,0.038344,0.11608,0.03629,0.064342,0.135751,0.172877,0.185723
0.002991,0.098644,0.080434,0.14518,0.184493,0.187448,0.225222,0.303335,0.273722,0.333776
0.015912,0.068171,0.053435,0.060354,0.164748,0.11558,0.100183,0.257895,0.263515,0.271804
0.02506,0.053011,0.04939,0.093704,0.162817,0.035276,0.223961,0.150362,0.156566,0.321305
0.008238,0.046477,0.081985,0.100571,0.106466,0.101593,0.164995,0.217734,0.240839,0.299893
0.008363,0.050989,0.044739,0.093993,0.180597,0.142858,0.161359,0.232908,0.231559,0.190081
0.000852,0.152136,0.048163,0.086325,0.12446,0.157394,0.132018,0.182956,0.184394,0.161192
0.014178,0.036895,0.056001,0.049713,0.232735,0.237153,0.165979,0.32476,0.314853,0.229519
0.015565,0.041567,0.011403,0.039237,0.089578,0.161652,0.080137,0.185609,0.220472,0.171745
0.000174,0.173897,0.00824,0.137892,0.162526,0.150904,0.091638,0.203966,0.208503,0.216243
0.012388,0.109078,0.003371,0.019068,0.082154,0.081156,0.10938,0.144942,0.115548,0.16928
0.001104,0.124623,0.074597,0.102874,0.164642,0.145192,0.203092,0.229094,0.28597,0.279717
0.021246,0.024012,0.082267,0.029121,0.140485,0.20221,0.068437,0.2631,0.277966,0.216291
0.002162,0.029194,0.043986,0.01505,0.151332,0.173962,0.07906,0.237524,0.196474,0.155866
0.022298,0.054612,0.115187,0.04985,0.144015,0.098742,0.08504,0.206663,0.159918,0.202098
0.02259,0.057227,0.134495,0.200241,0.138548,0.129737,0.142468,0.27021,0.299919,0.285487
0.020244,0.028778,0.025661,0.093599,0.051375,0.07922,0.116689,0.153641,0.124012,0.216583
0.004904,0.077008,0.036753,0.057368,0.052008,0.06253,0.152682,0.198411,0.143012,0.242213
0.043086,0.050825,0.001186,0.006038,0.062977,0.11161,0.030535,0.172949,0.193749,0.127274
0.001538,0.108829,0.04467,0.047295,0.071514,0.126964,0.124243,0.199826,0.180146,0.178144
0.005074,0.036235,0.015241,0.045142,0.084792,0.089895,0.057812,0.15695,0.187079,0.168799
0.025203,0.090574,0.253403,0.179249,0.20493,0.19126,0.179945,0.336882,0.310234,0.289351
0.003219,0.05804,0.092618,0.08723,0.058702,0.040243,0.176283,0.184404,0.196765,0.270162
0.015758,0.034866,0.026575,0.114702,0.089232,0.088221,0.174228,0.214366,0.250993,0.304633
0.004753,0.050721,0.062145,0.148559,0.111062,0.132409,0.139175,0.212939,0.248957,0.28362
0.016873,0.090453,0.185812,0.136042,0.123169,0.167739,0.279232,0.119845,0.193776,0.354113
0.000111,0.040803,0.023086,0.055746,0.091326,0.158395,0.112794,0.138518,0.153697,0.205541
0.009216,0.036982,0.093639,0.113701,0.206353,0.1928,0.182426,0.295144,0.273451,0.268597
0.013963,0.078085,0.118476,0.064382,0.13922,0.106179,0.183222,0.150591,0.173286,0.242144
2.6e-05,0.042788,0.005033,0.020571,0.118433,0.112563,0.031303,0.173435,0.174077,0.19607
0.01462,0.105255,0.035468,0.122914,0.153857,0.143957,0.182112,0.176965,0.202856,0.282128
0.000312,0.020425,0.073429,0.130772,0.099454,0.073362,0.121734,0.107868,0.154222,0.19889
0.004483,0.136684,0.052692,0.161479,0.119523,0.03617,0.166268,0.147633,0.229185,0.235819
0.000552,0.089408,0.018206,0.05443,0.135574,0.119143,0.181969,0.151098,0.161537,0.200949
0.011876,0.032704,0.036039,0.086512,0.183734,0.209078,0.170606,0.246051,0.262734,0.332501
0.016091,0.055925,0.036738,0.082002,0.041871,0.093109,0.143542,0.18198,0.172169,0.250328
0.026756,0.051039,0.069706,0.086271,0.074022,0.01991,0.140219,0.170175,0.170009,0.185075
0.064587,0.009889,0.057703,0.163408,0.030449,0.155045,0.250262,0.118971,0.21984,0.329545
5e-06,0.034833,0.198448,0.134684,0.135384,0.110195,0.120369,0.181898,0.207485,0.247713
0.014365,0.048608,0.11992,0.06166,0.051267,0.077252,0.10111,0.245036,0.273029,0.252644
0.001502,0.040223,0.101588,0.068352,0.045114,0.045346,0.106526,0.179944,0.138217,0.141473
0.012838,0.009464,0.076392,0.080762,0.128407,0.071716,0.210185,0.199198,0.211257,0.227001
0.002735,0.079472,0.148027,0.074806,0.202412,0.11613,0.140463,0.149876,0.211135,0.256963
0.069266,0.031895,0.100075,0.070667,0.041649,0.094757,0.077928,0.164531,0.200405,0.214833
0.006764,0.017417,0.058952,0.075105,0.093884,0.131715,0.085658,0.205741,0.213216,0.186457
0.012388,0.047203,0.043859,0.072369,0.063613,0.050816,0.116084,0.210082,0.23672,0.185208
0.023609,0.126056,0.056966,0.051801,0.127354,0.263345,0.102536,0.21057,0.23095,0.231719
0.000936,0.101434,0.131083,0.102111,0.137536,0.129437,0.15248,0.194264,0.261893,0.246604
0.000166,0.054676,0.004238,0.071819,0.120165,0.063281,0.140704,0.156216,0.18567,0.228304
0.003431,0.041265,0.023958,0.108634,0.164884,0.208975,0.116795,0.230872,0.254208,0.248374
0.009521,0.061522,0.013569,0.028412,0.073696,0.100795,0.047303,0.267157,0.265977,0.221765
0.00536,0.012589,0.049144,0.074048,0.118044,0.127025,0.117021,0.206127,0.2099,0.291808
0.000353,0.009626,0.000149,0.201934,0.034832,0.062317,0.09655,0.171667,0.184319,0.140604
0.001831,0.083141,0.032301,0.13012,0.198087,0.118746,0.219407,0.156291,0.190463,0.240538
0.002034,0.037671,0.065789,0.038849,0.159417,0.077094,0.079908,0.183069,0.157772,0.132467
8.6e-05,0.134022,0.055283,0.059436,0.122305,0.246346,0.201408,0.243787,0.208169,0.252071
0.002727,0.03012,0.021621,0.060979,0.041998,0.076236,0.105947,0.19171,0.199931,0.139032
0.015299,0.09317,0.150066,0.139908,0.224372,0.167465,0.11876,0.296564,0.260503,0.252312
0.009914,0.092752,0.013129,0.14215,0.107683,0.161079,0.111144,0.163718,0.184143,0.175713
0.002031,0.082545,0.136511,0.069905,0.127511,0.163322,0.045844,0.185665,0.218859,0.128257
0.051266,0.056952,0.019422,0.025349,0.10316,0.108787,0.043308,0.205666,0.199582,0.112029
0.036636,0.028239,0.143694,0.177526,0.128494,0.116721,0.182514,0.268198,0.234897,0.286009
0.010446,0.108006,0.081346,0.064879,0.056998,0.151012,0.108594,0.220236,0.183533,0.22196
0.004408,0.057517,0.051754,0.117621,0.065225,0.09409,0.171125,0.095104,0.125147,0.264932
0.027264,0.060521,0.03637,0.115008,0.079095,0.061692,0.167221,0.22002,0.245343,0.304352
0.019807,0.064508,0.037723,0.055827,0.0902,0.134298,0.23437,0.257619,0.246536,0.242815
3.6e-05,0.029519,0.09298,0.020093,0.052484,0.104748,0.046575,0.164509,0.160949,0.205236
0.007296,0.009467,0.068113,0.075025,0.06714,0.143846,0.088662,0.102087,0.155227,0.188992
0.006105,0.043123,0.07613,0.077006,0.162517,0.160476,0.1293,0.167715,0.139812,0.145805
0.008319,0.11289,0.040634,0.15857,0.159437,0.191619,0.174088,0.340775,0.266681,0.291648
0.024768,0.073375,0.013665,0.089837,0.148261,0.253849,0.150205,0.258825,0.230717,0.32009
0.014419,0.011483,0.071519,0.101667,0.186263,0.134733,0.197908,0.19664,0.212826,0.302052
0.004809,0.046371,0.058703,0.128193,0.100588,0.112321,0.173469,0.199646,0.242862,0.288566
0.048171,0.121076,0.084915,0.127287,0.023186,0.104844,0.187599,0.166524,0.20302,0.278115
0.004015,0.032312,0.088774,0.138755,0.153087,0.122294,0.142358,0.203864,0.180552,0.21684
0.00016,0.034227,0.079807,0.117292,0.11925,0.110961,0.18973,0.213947,0.239138,0.271376
0.00696,0.078671,0.050865,0.076298,0.075462,0.126698,0.168868,0.268052,0.12214,0.303013
0.008432,0.039628,0.000896,0.097372,0.067541,0.11088,0.109857,0.103502,0.138554,0.190239
0.000221,0.054682,0.017596,0.13606,0.146154,0.057875,0.111838,0.135792,0.233155,0.283541
0.004123,0.014303,0.109503,0.208777,0.01462,0.18916,0.070851,0.135742,0.125918,0.180467
0.078573,0.035636,0.136891,0.054195,0.230211,0.218418,0.069364,0.272508,0.340562,0.324693
0.024116,0.028876,0.125042,0.096716,0.092334,0.064641,0.153633,0.208589,0.23841,0.205679
0.040851,0.023265,0.041932,0.078797,0.118559,0.1505,0.144103,0.149368,0.17431,0.289948
0.015508,0.109948,0.06488,0.180644,0.16402,0.070535,0.233651,0.239214,0.28578,0.320797
0.016809,0.043208,0.023248,0.110105,0.202504,0.113249,0.211259,0.246297,0.245789,0.293564
0.017374,0.119073,0.024595,0.044807,0.17103,0.107686,0.08207,0.196472,0.224644,0.224856
0.009844,0.073492,0.102439,0.062488,0.131163,0.148794,0.13276,0.204706,0.21262,0.226117
0.00261,0.046789,0.038098,0.053273,0.106316,0.130037,0.139793,0.090119,0.175075,0.165544
0.025941,0.039833,0.055849,0.047959,0.094484,0.13548,0.093711,0.176529,0.211613,0.155563
0.012706,0.064721,0.023624,0.068693,0.067002,0.085032,0.059626,0.16683,0.188636,0.11363
0.000591,0.005611,0.009272,0.146135,0.066599,0.164446,0.133538,0.104344,0.145894,0.182052
0.009742,0.067414,0.014701,0.044223,0.167919,0.196163,0.140201,0.230932,0.239362,0.292283
0.026565,0.118717,0.101703,0.069677,0.130537,0.064494,0.109467,0.151438,0.180403,0.251301
0.001519,0.055538,0.124124,0.051461,0.159983,0.018435,0.141517,0.251496,0.155184,0.169077
0.009154,0.038535,0.029118,0.031193,0.058805,0.140324,0.08073,0.098617,0.140015,0.133717
0.015365,0.011114,0.006663,0.006514,0.086351,0.041505,0.049649,0.195637,0.125714,0.085591
0.019886,0.126404,0.068879,0.21608,0.136463,0.20256,0.217707,0.232221,0.278265,0.302446
0.002325,0.03599,0.05766,0.076877,0.077801,0.168935,0.152549,0.223671,0.218228,0.194755
0.022636,0.046129,0.115008,0.021381,0.050894,0.056645,0.135741,0.130418,0.150037,0.239686
0.00575,0.151804,0.109212,0.090131,0.112471,0.109554,0.158881,0.221477,0.21715,0.251766
0.023655,0.016575,0.10117,0.089092,0.075177,0.080058,0.074724,0.177053,0.210767,0.253743
0.014167,0.029773,0.029474,0.070611,0.058713,0.038366,0.171726,0.143038,0.240278,0.25583
0.013579,0.073256,0.025178,0.027556,0.103489,0.154024,0.027556,0.220416,0.237701,0.278178
0.022217,0.019357,0.056418,0.042564,0.113315,0.114311,0.16015,0.164677,0.161592,0.168677
0.009388,0.052308,0.060516,0.056788,0.185746,0.118001,0.087808,0.149082,0.201731,0.182529
0.00022,0.043756,0.060427,0.094293,0.159238,0.210826,0.134194,0.21636,0.312433,0.279423
0.018742,0.062747,0.069637,0.174063,0.094219,0.142674,0.249175,0.212213,0.257929,0.275751
0.001746,0.072617,0.103678,0.061485,0.238639,0.139478,0.13347,0.200238,0.171954,0.256882
0.011704,0.055641,0.103304,0.08394,0.117168,0.055368,0.193553,0.235718,0.19364,0.268642
0.057625,0.04063,0.001162,0.035186,0.052471,0.12422,0.069878,0.212113,0.191626,0.121265
0.014622,0.057949,0.041419,0.092944,0.065914,0.112536,0.127638,0.247432,0.279066,0.280864
0.00098,0.11846,0.041333,0.07394,0.148002,0.093907,0.136516,0.246408,0.265654,0.220966
0.020644,0.042538,0.053885,0.160475,0.033432,0.06371,0.165835,0.152435,0.186742,0.276685
0.015918,0.065718,0.103381,0.04484,0.111068,0.099261,0.089245,0.191142,0.175416,0.202277
0.001172,0.045422,0.034442,0.108204,0.123104,0.132497,0.143927,0.190605,0.172452,0.188093
0.014905,0.075075,0.071575,0.069586,0.072044,0.181635,0.147489,0.259747,0.262217,0.309284
0.000906,0.155902,0.061888,0.078495,0.173724,0.195267,0.160016,0.223503,0.222567,0.228961
0.005233,0.098535,0.046122,0.078653,0.29698,0.354108,0.079055,0.315111,0.300655,0.351532
0.010253,0.075218,0.021076,0.09039,0.166436,0.131063,0.113279,0.154525,0.194523,0.203992
0.032878,0.047217,0.110615,0.115883,0.091741,0.148735,0.190026,0.165518,0.248045,0.319804
0.003688,0.045632,0.026538,0.085493,0.07218,0.155165,0.148411,0.163322,0.217981,0.282472
0.004029,0.034217,0.091796,0.075535,0.180013,0.107099,0.150374,0.20228,0.220014,0.237339
0.031978,0.151673,0.124783,0.191493,0.11509,0.156951,0.174614,0.176141,0.243113,0.272024
0.009724,0.056812,0.046886,0.196804,0.046199,0.090725,0.160314,0.155724,0.150285,0.262416
0.001084,0.066985,0.072977,0.087819,0.064016,0.13567,0.149338,0.234095,0.204704,0.179021
0.005974,0.015194,0.066307,0.100514,0.217866,0.12739,0.181178,0.266107,0.242762,0.208832
0.021555,0.031662,0.014287,0.025031,0.077748,0.124151,0.067735,0.19647,0.197895,0.160103
0.022783,0.08797,0.0629,0.114867,0.165126,0.328312,0.232724,0.32551,0.343518,0.373529
0.011841,0.024304,0.00757,0.124159,0.082701,0.129386,0.092724,0.122699,0.152055,0.218597
0.019515,0.09819,0.10349,0.09857,0.211379,0.168452,0.198367,0.242323,0.246597,0.241123
0.022558,0.087871,0.050966,0.085551,0.159361,0.208985,0.198276,0.203523,0.202739,0.257017
0.001963,0.027173,0.067809,0.143507,0.124912,0.131098,0.16138,0.129959,0.153308,0.196554
0.010538,0.112418,0.010175,0.1061,0.144721,0.057623,0.234444,0.196637,0.267464,0.326343
0.002868,0.079248,0.10628,0.046579,0.017237,0.106202,0.095739,0.141767,0.148977,0.133975
0.011736,0.042157,0.048635,0.042985,0.135356,0.116316,0.089739,0.232414,0.161221,0.214588
0.058916,0.028376,0.0844,0.064636,0.07775,0.090483,0.205751,0.238036,0.263838,0.34552
0.003067,0.088615,0.042709,0.035249,0.089122,0.059952,0.211882,0.265416,0.257467,0.205308
0.000268,0.027693,0.021232,0.089595,0.150106,0.141285,0.14958,0.19989,0.188245,0.27651
0.038536,0.023031,0.004485,0.140844,0.019036,0.059912,0.146786,0.140476,0.131266,0.22497
0.003893,0.134812,0.05158,0.154601,0.082318,0.139008,0.221169,0.190758,0.216352,0.286821
0.025613,0.081109,0.054564,0.017367,0.08761,0.246843,0.067815,0.23811,0.185517,0.147127
0.032839,0.036598,0.080017,0.077337,0.139391,0.09167,0.153474,0.161226,0.188644,0.254478
0.000323,0.259695,0.043057,0.098745,0.168153,0.149337,0.115566,0.342231,0.186029,0.216252
0.060509,0.099857,0.08113,0.090317,0.148774,0.134249,0.131812,0.138411,0.154676,0.19301
0.013098,0.018245,0.067522,0.045885,0.081422,0.096348,0.104331,0.148807,0.136122,0.216399
0.005878,0.127755,0.02396,0.12125,0.106275,0.10908,0.110288,0.137218,0.139593,0.187604
0.015821,0.0743,0.077846,0.106493,0.189317,0.19762,0.221645,0.248972,0.243353,0.356149
0.001972,0.094564,0.05617,0.010552,0.158095,0.127112,0.042527,0.228011,0.164761,0.188786
0.000204,0.031609,0.088195,0.12419,0.116995,0.10007,0.160608,0.163204,0.180142,0.186218
0.03161,0.096401,0.042953,0.102438,0.097793,0.08923,0.143242,0.137187,0.167285,0.203696
0.016582,0.087316,0.084873,0.095754,0.157542,0.1254,0.151805,0.190747,0.180781,0.224277
0.063915,0.012769,0.062421,0.070444,0.043661,0.028034,0.077714,0.133322,0.112531,0.160294
0.001953,0.07083,0.041461,0.086074,0.209549,0.185493,0.176542,0.273758,0.146005,0.262069
0.00438,0.044623,0.141309,0.080128,0.120309,0.190082,0.223691,0.214187,0.269138,0.165258
0.024741,0.000678,0.053884,0.061407,0.161304,0.113549,0.170681,0.172536,0.173549,0.229703
0.010164,0.062916,0.034012,0.019363,0.100191,0.098274,0.052569,0.121619,0.133883,0.157717
0.002898,0.053784,0.015332,0.05146,0.0663,0.160793,0.05146,0.176741,0.207761,0.188225
0.02135,0.033937,0.00434,0.048599,0.101114,0.113395,0.100246,0.206488,0.190755,0.191574
0.053411,0.032693,0.062892,0.092656,0.2117,0.278032,0.138928,0.183593,0.187049,0.293685
0.059721,0.035846,0.064434,0.055132,0.13016,0.128379,0.202779,0.156913,0.210328,0.26871
0.04469,0.10486,0.000995,0.051079,0.24296,0.221698,0.123125,0.16302,0.210441,0.189736
0.013098,0.248888,0.057939,0.101418,0.12855,0.139897,0.095295,0.231736,0.25811,0.215118
0.010316,0.116245,0.072165,0.154179,0.194237,0.178245,0.178589,0.172523,0.220678,0.308716
0.007045,0.155202,0.123614,0.13346,0.197783,0.179109,0.18236,0.230584,0.293506,0.340585
0.001011,0.08673,0.096396,0.165974,0.215172,0.162592,0.179203,0.232472,0.193454,0.249646
0.000367,0.050454,0.104537,0.093402,0.18581,0.11781,0.208096,0.206756,0.198784,0.283195
0.026041,0.110199,0.016828,0.15132,0.04116,0.145678,0.153145,0.312193,0.343531,0.320129
0.014363,0.067884,9e-06,0.162352,0.106722,0.178084,0.137202,0.252252,0.268985,0.326719
0.012677,0.016324,0.028011,0.163118,0.072965,0.08213,0.176667,0.11189,0.154487,0.253125
0.018708,0.010928,0.02867,0.027312,0.084473,0.157137,0.12571,0.202557,0.189972,0.12187
0.006786,0.033979,0.078884,0.074288,0.072915,0.10872,0.124522,0.134055,0.168331,0.150349
0.028688,0.062624,0.139503,0.116305,0.129,0.02704,0.174436,0.129341,0.147791,0.289516
0.005216,0.037151,0.031223,0.017234,0.012713,0.042494,0.063826,0.168423,0.200644,0.170692
0.041323,0.014215,0.035612,0.08884,0.180558,0.146188,0.09683,0.212306,0.266387,0.216923
0.013664,0.081406,0.002692,0.074164,0.203577,0.16085,0.133655,0.234244,0.195267,0.265766
0.000391,0.049982,0.094458,0.032868,0.222556,0.067871,0.101,0.187813,0.226045,0.197478
0.001331,0.025593,0.065113,0.103373,0.037652,0.052799,0.075253,0.099326,0.133481,0.137643
0.044663,0.035229,0.031838,0.101053,0.175282,0.093329,0.089642,0.196506,0.211186,0.216234
0.005241,0.036613,0.017735,0.106755,0.146044,0.0728,0.165648,0.224359,0.247041,0.246778
0.005227,0.073963,0.063632,0.052525,0.174389,0.146847,0.136797,0.200714,0.187346,0.169187
0.00586,0.063107,0.066963,0.085513,0.112111,0.095578,0.154494,0.262754,0.231554,0.233932
0.008732,0.060375,0.131311,0.062875,0.132036,0.125731,0.14683,0.142388,0.132414,0.181479
0.000387,0.082016,0.040809,0.078802,0.068836,0.087561,0.145855,0.072768,0.114073,0.201174
0.047094,0.035456,0.070355,0.02236,0.082301,0.098726,0.087399,0.141905,0.227684,0.227565
0.002362,0.013913,0.051942,0.073918,0.128326,0.189552,0.195343,0.167007,0.215011,0.294096
0.012329,0.101318,0.068067,0.119767,0.071799,0.126446,0.183371,0.161507,0.214553,0.215285
0.018006,0.035959,0.053632,0.113643,0.164709,0.091385,0.120722,0.194643,0.245248,0.246145
0.021106,0.068884,0.003159,0.127265,0.043772,0.010148,0.153206,0.121078,0.188016,0.347518
0.013678,0.020718,0.014676,0.035188,0.091874,0.061826,0.033205,0.15168,0.155055,0.135659
0.006883,0.111529,0.105713,0.060846,0.188315,0.183814,0.136252,0.179994,0.158784,0.248338
0.012788,0.052565,0.080027,0.094109,0.102018,0.10563,0.097389,0.18502,0.205814,0.265023
0.000107,0.0482,0.04936,0.103314,0.03263,0.130368,0.130176,0.272326,0.309058,0.252045
0.017296,0.060626,0.105004,0.085736,0.109771,0.120169,0.206645,0.207357,0.178968,0.251306
0.000693,0.154486,0.070983,0.106646,0.202002,0.200059,0.110482,0.273263,0.261876,0.277615
0.007508,0.064466,0.157225,0.143802,0.193843,0.152883,0.069948,0.275778,0.2578,0.27489
0.029405,0.033034,0.005436,0.070205,0.038769,0.072694,0.088462,0.183941,0.172482,0.176853
0.000629,0.115862,0.009817,0.098696,0.061208,0.095022,0.129889,0.191538,0.241366,0.19855
0.058116,0.01607,0.077757,0.093327,0.06005,0.070178,0.171924,0.150057,0.173805,0.322724
0.002942,0.078994,0.045498,0.103321,0.158536,0.246691,0.170304,0.197409,0.231732,0.231445
0.003019,0.150075,0.053595,0.063053,0.116725,0.191978,0.107149,0.25588,0.272737,0.212172
0.015841,0.060361,0.014598,0.17653,0.050696,0.132253,0.130949,0.180531,0.2765,0.273544
0.001553,0.21744,0.102417,0.076305,0.150746,0.219596,0.140318,0.391048,0.369869,0.31728
0.003143,0.035463,0.097335,0.062341,0.036442,0.119452,0.129996,0.197974,0.226178,0.182727
0.003671,0.090657,0.073099,0.041606,0.077148,0.173449,0.039736,0.13919,0.181878,0.089727
0.021576,0.010919,0.087038,0.074629,0.088312,0.055596,0.102865,0.134154,0.156157,0.204077
0.00622,0.075424,0.098666,0.004082,0.076084,0.13567,0.060708,0.134114,0.181745,0.139415
0.041362,0.082055,0.064543,0.231629,0.129837,0.094217,0.226035,0.198981,0.257804,0.238711
0.000306,0.058576,0.016466,0.0844,0.088795,0.066046,0.131474,0.223366,0.210232,0.209557
0.006195,0.040086,0.103966,0.1088,0.113791,0.270274,0.244021,0.234867,0.248809,0.353265
0.063612,0.038668,0.068339,0.04743,0.069322,0.130521,0.148685,0.091507,0.173636,0.17062
0.012829,0.15848,0.022339,0.112282,0.134041,0.117867,0.188988,0.184714,0.233917,0.239197
0.001428,0.033378,0.054913,0.15532,0.082177,0.052772,0.059792,0.168513,0.200855,0.246591
0.002223,0.139238,0.040094,0.103638,0.190901,0.158973,0.13992,0.224073,0.222869,0.207362
0.014096,0.040298,0.089421,0.033514,0.173065,0.143998,0.095069,0.247257,0.119254,0.225138
0.006239,0.048866,0.059562,0.055847,0.229539,0.163677,0.097519,0.2003,0.197094,0.29002
0.000232,0.083569,0.063295,0.062543,0.134481,0.186542,0.119881,0.271852,0.114741,0.228613
0.036064,0.023092,0.035427,0.123981,0.02116,0.066179,0.081663,0.184994,0.150207,0.25751
0.010277,0.116753,0.054226,0.184289,0.128553,0.143557,0.182243,0.155275,0.127926,0.224108
0.000225,0.096653,0.117003,0.081358,0.092689,0.163046,0.140792,0.296177,0.29866,0.351999
0.019507,0.098095,0.069027,0.086137,0.144151,0.193355,0.145822,0.144319,0.153809,0.19828
0.005909,0.00672,0.037311,0.036465,0.10678,0.184229,0.058786,0.143413,0.168984,0.224945
0.001138,0.074366,0.02441,0.026325,0.131662,0.125233,0.145312,0.175348,0.127384,0.142937
0.002451,0.082302,0.035264,0.051366,0.068791,0.121909,0.088459,0.220101,0.131642,0.142011
0.001796,0.075949,0.031173,0.035108,0.066976,0.108859,0.083385,0.236687,0.196787,0.192992
0.017587,0.036234,0.034681,0.083147,0.094903,0.089757,0.166539,0.195392,0.204907,0.300478
0.003198,0.177588,0.058309,0.096075,0.148823,0.18881,0.112527,0.218502,0.205048,0.226165
0.007628,0.143723,0.154662,0.108197,0.152646,0.094855,0.262267,0.259223,0.288239,0.335872
0.012959,0.106951,0.0404,0.097376,0.12712,0.181157,0.231494,0.26382,0.257228,0.290907
0.005608,0.117643,0.033936,0.145011,0.149827,0.213854,0.186132,0.265896,0.257214,0.280552
0.015707,0.039775,0.034949,0.075034,0.113132,0.131853,0.119429,0.12239,0.207728,0.26589
0.001435,0.029834,0.096261,0.077557,0.085396,0.152448,0.082721,0.177504,0.174369,0.216571
0.008526,0.036387,0.053392,0.107459,0.082317,0.117429,0.146824,0.111472,0.175999,0.172669
0.005881,0.102281,0.025612,0.040072,0.185873,0.156233,0.105683,0.211559,0.307221,0.211381
0.003312,0.061165,0.100076,0.134985,0.176677,0.17587,0.228795,0.243895,0.277328,0.355287
0.004876,0.044304,0.00582,0.084081,0.090822,0.076998,0.118425,0.19769,0.178712,0.20369
0.009809,0.087068,0.127538,0.042511,0.112516,0.147273,0.116073,0.226339,0.236938,0.184836
0.022341,0.060523,0.064074,0.055786,0.102782,0.089373,0.130787,0.146962,0.187023,0.259261
0.008447,0.052582,0.085131,0.107984,0.112706,0.235201,0.194575,0.244373,0.299889,0.339212
0.0068,0.068923,0.071322,0.01892,0.041865,0.068968,0.091129,0.12608,0.127478,0.192548
0.029365,0.060898,0.049787,0.151563,0.111572,0.17583,0.097715,0.194585,0.271407,0.220703
7.6e-05,0.107168,0.028152,0.079491,0.124245,0.153213,0.135235,0.219381,0.185255,0.164162
0.000608,0.010893,0.041958,0.094458,0.041949,0.0971,0.139799,0.104232,0.13914,0.16004
0.026727,0.058065,0.025997,0.025945,0.137772,0.166046,0.119356,0.163954,0.149162,0.192661
0.021866,0.016585,0.108265,0.078692,0.051432,0.05122,0.167404,0.200023,0.182067,0.265946
2.5e-05,0.064951,0.024853,0.04385,0.151339,0.18228,0.14541,0.301969,0.269235,0.296076
0.071073,0.030266,0.092434,0.062524,0.104723,0.181899,0.131331,0.366677,0.307153,0.292916
0.001584,0.023297,0.069929,0.100043,0.088361,0.098164,0.080488,0.194082,0.229742,0.193012
0.007503,0.051708,0.092551,0.05809,0.082891,0.135873,0.201583,0.184651,0.162981,0.253822
0.02289,0.059302,0.119577,0.068491,0.115425,0.106791,0.147936,0.218811,0.246478,0.260556
0.01257,0.088648,0.118499,0.136559,0.217098,0.194678,0.167624,0.258901,0.308184,0.280488
0.059073,0.021885,0.083739,0.022906,0.079256,0.083176,0.110532,0.246384,0.172919,0.205367
0.00673,0.038228,0.098959,0.143799,0.124964,0.083087,0.128235,0.267669,0.300395,0.315932
0.007143,0.081606,0.084297,0.197936,0.057215,0.128581,0.024062,0.164627,0.1966,0.113131
0.001715,0.166872,0.025757,0.193217,0.175724,0.24731,0.262055,0.223756,0.252052,0.322083
0.007861,0.176751,0.067695,0.083192,0.129427,0.151625,0.167448,0.222212,0.262805,0.275113
8.6e-05,0.062025,0.016144,0.172649,0.099006,0.116232,0.126205,0.233799,0.233149,0.240844
0.003486,0.036603,0.091479,0.053879,0.041951,0.124181,0.119685,0.194098,0.205695,0.13872
0.026564,0.093899,0.039356,0.026227,0.211411,0.222817,0.071125,0.212886,0.214092,0.238725
0.004913,0.074215,0.036799,0.028612,0.192727,0.202897,0.030631,0.248942,0.230546,0.209068
0.007959,0.043494,0.060293,0.074123,0.118388,0.223259,0.096957,0.185607,0.223262,0.250822
0.051645,0.087124,0.068132,0.069901,0.058674,0.074854,0.153225,0.218813,0.178403,0.325973
0.004212,0.08545,0.057539,0.0866,0.089586,0.169014,0.133928,0.167624,0.19927,0.206427
0.003664,0.098687,0.099216,0.04057,0.122351,0.133756,0.154903,0.264696,0.220169,0.226071
0.032768,0.059723,0.041542,0.030029,0.143661,0.116496,0.114901,0.229413,0.184935,0.220184
0.020086,0.034555,0.093689,0.010304,0.058956,0.113575,0.069401,0.152566,0.126094,0.125482
0.031497,0.078442,0.044229,0.129802,0.145623,0.080635,0.213226,0.231139,0.282295,0.331017
0.002028,0.067743,0.097521,0.071074,0.116562,0.13832,0.152123,0.187435,0.178046,0.181797
0.000894,0.083537,0.007068,0.073271,0.051,0.240625,0.141518,0.262094,0.26397,0.256608
0.008591,0.056336,0.050532,0.051218,0.153825,0.087318,0.070513,0.15241,0.153202,0.161406
0.014059,0.064273,0.035374,0.154202,0.163017,0.201801,0.227776,0.247926,0.234573,0.250005
0.000809,0.059639,0.01057,0.122159,0.09853,0.076254,0.051861,0.173437,0.17242,0.158796
0.01744,0.114852,0.049302,0.059493,0.142307,0.071566,0.149392,0.234938,0.244111,0.250992
0.006474,0.007335,0.026995,0.090575,0.010142,0.061016,0.120339,0.168554,0.170622,0.155664
0.000859,0.035013,0.079848,0.10055,0.040265,0.078737,0.138465,0.134211,0.155006,0.255709
0.012085,0.114608,0.134853,0.15994,0.093821,0.091546,0.185488,0.201255,0.239386,0.285809
0.023607,0.100997,0.017631,0.027231,0.093963,0.045228,0.087204,0.182445,0.15771,0.134776
0.134217,0.066693,0.029517,0.062418,0.059012,0.091629,0.08506,0.151968,0.186118,0.166792
0.002984,0.061633,0.036753,0.081778,0.102768,0.154699,0.185762,0.20266,0.267385,0.293014
0.015206,0.038542,0.076922,0.06189,0.079568,0.163344,0.160084,0.177485,0.188533,0.184385
0.045111,0.058118,0.093804,0.116083,0.077194,0.169246,0.198228,0.2098,0.223006,0.301775
0.0161,0.025613,0.0537,0.087389,0.079186,0.07323,0.181649,0.152246,0.194303,0.301562
0.022909,0.013055,0.024155,0.11709,0.148759,0.124917,0.15432,0.183661,0.153851,0.22885
0.021643,0.016384,0.155547,0.092972,0.071151,0.105248,0.154176,0.134925,0.164324,0.26161
0.010002,0.031838,0.02508,0.1101,0.143332,0.075564,0.218725,0.216569,0.226811,0.350847
0.001434,0.031308,0.04967,0.105139,0.112593,0.109792,0.133495,0.176214,0.207057,0.307204
0.022723,0.073892,0.086184,0.043842,0.127935,0.142765,0.168141,0.16972,0.139835,0.20277
0.01722,0.094036,0.030144,0.042118,0.090086,0.107525,0.064477,0.233139,0.216713,0.230051
0.077715,0.071823,0.086694,0.017811,0.165699,0.069732,0.126133,0.250451,0.257746,0.206879
0.011909,0.074345,0.130509,0.029095,0.119508,0.118783,0.103636,0.134191,0.140881,0.144544
0.000268,0.019347,0.066515,0.08803,0.051828,0.092853,0.121318,0.126817,0.119059,0.208379
0.010883,0.037777,0.005654,0.131614,0.115023,0.095518,0.098602,0.169246,0.194131,0.280284
0.015411,0.008569,0.190785,0.080025,0.245841,0.201351,0.086216,0.278611,0.304512,0.358482
0.043176,0.031341,0.013425,0.053709,0.053189,0.053829,0.119659,0.141321,0.150485,0.20346
0.0309,0.065178,0.092218,0.04746,0.143059,0.116015,0.146356,0.164166,0.199013,0.188391
0.009778,0.041456,0.062957,0.052441,0.078085,0.137111,0.135244,0.286815,0.244513,0.209342
3.9e-05,0.057029,0.190505,0.073576,0.065685,0.150887,0.143473,0.191034,0.191495,0.211772
0.00184,0.108075,0.105535,0.138135,0.209135,0.19832,0.221367,0.206507,0.282976,0.330308
0.018169,0.078836,0.145742,0.042747,0.16103,0.141525,0.128517,0.292871,0.30523,0.328054
1e-06,0.115173,0.011989,0.166951,0.103299,0.116986,0.203296,0.158435,0.242742,0.364313
0.007412,0.056684,0.08919,0.071809,0.107656,0.070747,0.139134,0.178596,0.254236,0.302494
0.016603,0.068481,0.052763,0.110397,0.111862,0.071547,0.146786,0.224529,0.234764,0.242419
0.00068,0.000506,0.03266,0.025006,0.094176,0.139992,0.083117,0.194829,0.168672,0.206625
0.000215,0.033495,0.052338,0.086058,0.107217,0.097724,0.116567,0.125088,0.186082,0.178195
0.024275,0.082102,0.048966,0.087735,0.110914,0.145805,0.08808,0.172914,0.164434,0.223524
0.009818,0.007628,0.07318,0.020058,0.059104,0.133822,0.068494,0.130622,0.11908,0.118382
0.028636,0.010499,0.050825,0.022202,0.097685,0.093732,0.052601,0.177193,0.210981,0.170368
0.003873,0.029195,0.092794,0.061275,0.086986,0.061009,0.203603,0.169328,0.204623,0.246575
0.000885,0.033166,0.077716,0.078496,0.156214,0.179684,0.178888,0.274233,0.253769,0.228657
0.006385,0.0287,0.023946,0.046306,0.160578,0.048055,0.117066,0.150635,0.183614,0.166641
0.034216,0.033677,0.162271,0.075738,0.04993,0.103488,0.202946,0.193198,0.191506,0.250611
0.001966,0.019314,0.004089,0.113694,0.065058,0.043913,0.090016,0.099156,0.123206,0.136337
0.053062,0.082963,0.08294,0.031934,0.129849,0.160189,0.070109,0.276089,0.31354,0.223909
0.003033,0.074342,0.086156,0.05639,0.07392,0.120933,0.161288,0.169803,0.272748,0.234771
0.043499,0.127921,0.105181,0.028213,0.10121,0.204254,0.06486,0.240668,0.277916,0.224327
0.011268,0.048392,0.099305,0.089327,0.156189,0.23422,0.175306,0.224968,0.268105,0.243347
0.001889,0.03108,0.06864,0.070849,0.089673,0.127232,0.15327,0.18231,0.184196,0.228028
0.000458,0.083031,0.021209,0.046151,0.102973,0.121738,0.082061,0.144956,0.166322,0.145122
0.00399,0.022221,0.034012,0.033979,0.086182,0.120101,0.066027,0.078014,0.114274,0.088369
0,0.018275,0.078568,0.077329,0.06762,0.108602,0.061774,0.21488,0.212412,0.149995
0.025621,0.10173,0.068665,0.126355,0.136279,0.088664,0.222544,0.248974,0.245721,0.278634
0.028231,0.024293,0.036071,0.043036,0.133044,0.114394,0.196211,0.153657,0.189116,0.230798
2.6e-05,0.044639,0.040604,0.053351,0.068396,0.135503,0.143024,0.185584,0.204264,0.208108
0.015258,0.052428,0.117213,0.078333,0.114798,0.052121,0.097439,0.105838,0.149472,0.189769
0.024791,0.047849,0.121608,0.137823,0.12811,0.133445,0.153743,0.226043,0.229532,0.264958
0.015992,0.022466,0.022213,0.056193,0.16225,0.051076,0.092469,0.145666,0.150823,0.11806
0.032789,0.123266,0.023411,0.081687,0.096361,0.13401,0.169485,0.177166,0.209097,0.245344
0.010473,0.055647,0.030821,0.107362,0.045387,0.082918,0.191688,0.166019,0.163919,0.286909
0.011741,0.053715,0.004445,0.130851,0.052699,0.206437,0.169058,0.23203,0.214686,0.201051
0.005113,0.098801,0.11388,0.125743,0.131917,0.161446,0.170624,0.280715,0.238167,0.262832
0.007762,0.012558,0.088622,0.094946,0.097054,0.187977,0.189773,0.18252,0.22241,0.273984
0.029089,2.9e-05,0.170592,0.028622,0.022874,0.149989,0.053628,0.154154,0.117299,0.174544
0.018817,0.090007,0.040127,0.04824,0.183465,0.077043,0.103375,0.207742,0.290285,0.255552
0.017241,0.059876,0.100996,0.09549,0.093925,0.182037,0.237885,0.267832,0.280527,0.275385
0.005389,0.04581,0.104657,0.108117,0.025422,0.022933,0.166991,0.074604,0.173762,0.26829
0.02627,0.107303,0.016293,0.148032,0.097995,0.133682,0.239695,0.198917,0.270412,0.290747
0.01593,0.107293,0.053762,0.116893,0.17213,0.13151,0.185563,0.204665,0.195519,0.265068
0.001218,0.053439,0.007382,0.129843,0.214473,0.185758,0.094822,0.286732,0.340654,0.291534
0.044344,0.109018,0.009978,0.125941,0.155268,0.240777,0.106242,0.206227,0.243692,0.269056
0.014184,0.051363,0.198376,0.1151,0.141599,0.135911,0.204147,0.244591,0.324829,0.237901
0.001133,0.000339,0.060626,0.063451,0.12486,0.047695,0.133586,0.22795,0.188432,0.183084
0.013919,0.087835,0.031657,0.066367,0.180329,0.084724,0.126485,0.228507,0.267479,0.276458
0.007806,0.023121,0.064957,0.031383,0.065123,0.0316,0.080211,0.096055,0.11739,0.123648
0.017002,0.088807,0.090512,0.077591,0.181721,0.095228,0.158423,0.201956,0.214283,0.248093
0.001891,0.062477,0.042986,0.047723,0.126112,0.104467,0.16021,0.24573,0.242638,0.226869
0.000616,0.118051,0.02112,0.06244,0.166317,0.097864,0.107389,0.179394,0.225387,0.230535
0.021065,0.005597,0.084027,0.090432,0.114614,0.195049,0.12746,0.171008,0.244731,0.25655
0.015908,0.035944,0.062209,0.231302,0.150064,0.162745,0.228688,0.188158,0.250479,0.31065
0.030829,0.060996,0.000242,0.093381,0.089704,0.108982,0.112033,0.198567,0.240916,0.142651
0.002942,0.027432,0.001768,0.093268,0.153394,0.117687,0.093845,0.083641,0.138359,0.20407
0.022075,0.070852,0.168454,0.142856,0.088876,0.119349,0.066917,0.121071,0.194883,0.207484
0.001284,0.047529,0.197587,0.089213,0.182419,0.10689,0.212294,0.207552,0.174751,0.187638
0.004122,0.015593,0.094477,0.077679,0.117986,0.223747,0.105002,0.166157,0.155437,0.213897
0.022967,0.0016,0.075589,0.067252,0.087703,0.080853,0.164922,0.143205,0.152445,0.231149
0.023235,0.038796,0.089237,0.104585,0.152413,0.133571,0.136698,0.194909,0.182658,0.227407
0.017974,0.003238,0.114469,0.080171,0.114811,0.099929,0.173999,0.156361,0.162775,0.222289
0.003667,0.03826,0.022816,0.079897,0.010376,0.072962,0.063214,0.123932,0.167549,0.179409
0.075858,0.040544,0.079288,0.120108,0.194547,0.145109,0.184706,0.286098,0.248265,0.305715
0.003583,0.150947,0.075158,0.162492,0.186388,0.15071,0.186699,0.227871,0.284766,0.288817
0.038884,0.052122,0.056394,0.03125,0.07333,0.044756,0.053736,0.152777,0.143963,0.141365
4.8e-05,0.079649,0.010873,0.098752,0.169521,0.229275,0.086515,0.236205,0.227865,0.214079
0.000916,0.140761,0.054201,0.111969,0.290618,0.188842,0.110167,0.354775,0.359428,0.337652
0.024934,0.088112,0.030639,0.190321,0.153085,0.078172,0.174724,0.17815,0.237394,0.272396
0.00037,0.007972,0.069687,0.079298,0.084245,0.085398,0.154848,0.194176,0.174314,0.220618
0.006077,0.029863,0.051255,0.03262,0.052414,0.109625,0.105962,0.203045,0.21971,0.215015
0.020663,0.034251,0.056161,0.128952,0.098547,0.102593,0.183655,0.220306,0.212118,0.247832
0.063931,0.063833,0.13371,0.047297,0.095424,0.163739,0.068186,0.178105,0.219369,0.215866
0.018256,0.064442,0.08614,0.058903,0.060532,0.136478,0.085184,0.185328,0.250367,0.228961
0.03658,0.080452,0.031155,0.150272,0.163286,0.048269,0.223989,0.178006,0.197913,0.240168
0.001108,0.091152,0.028167,0.103109,0.148144,0.121844,0.107321,0.161334,0.178775,0.230955
0.017789,0.016107,0.061961,0.032434,0.135787,0.1729,0.063637,0.128525,0.167686,0.225999
0.006615,0.042084,0.068392,0.122732,0.096437,0.217536,0.123432,0.199735,0.229191,0.255606
0.004193,0.002518,0.051853,0.087862,0.062993,0.105492,0.080441,0.122998,0.131816,0.203952
0.020704,0.02216,0.098393,0.142521,0.178348,0.03539,0.148006,0.195744,0.190724,0.273093
0.029675,0.108689,0.088926,0.067934,0.161212,0.205371,0.10756,0.282522,0.317493,0.328602
0.009952,0.03912,0.031393,0.010569,0.128643,0.109087,0.121597,0.192004,0.191713,0.21499
0.015767,0.06391,0.068042,0.116728,0.105425,0.141033,0.202435,0.191491,0.183623,0.241237
0.005535,0.023307,0.030496,0.071303,0.13684,0.140119,0.101732,0.206914,0.171002,0.150663
0.002276,0.091794,0.086124,0.130635,0.160901,0.158965,0.130865,0.13513,0.224185,0.281753
0.002609,0.062016,0.042954,0.209323,0.084912,0.085033,0.088714,0.156224,0.18291,0.219329
0.02491,0.117135,0.043283,0.024476,0.16421,0.223193,0.051217,0.28243,0.256128,0.244535
0.00036,0.051381,0.051068,0.093881,0.110592,0.046452,0.128978,0.192704,0.252466,0.236178
0.022413,0.037506,0.021003,0.066203,0.146251,0.140263,0.162778,0.250868,0.217608,0.299967
0.039362,0.070106,0.102763,0.051859,0.100692,0.081767,0.18422,0.177354,0.235326,0.265411
0.006604,0.063323,0.083239,0.106331,0.101609,0.151483,0.153902,0.172214,0.222285,0.258015
0.01109,0.044084,0.020533,0.068042,0.100951,0.028915,0.035155,0.14307,0.141449,0.130402
0.007859,0.053922,0.052774,0.063781,0.141184,0.095549,0.110124,0.174678,0.186758,0.220326
0.025,0.025885,0.088728,0.172672,0.033045,0.156495,0.156885,0.107675,0.152659,0.248713
0.005503,0.0488,0.071291,0.092208,0.118689,0.111091,0.168431,0.172815,0.191117,0.21959
0.00263,0.042458,0.180481,0.137394,0.139668,0.108841,0.258891,0.226418,0.250662,0.313302
0.067127,0.004973,0.065844,0.079058,0.024405,0.19042,0.142763,0.112305,0.166929,0.224379
0.020354,0.139216,0.070376,0.040239,0.069471,0.136594,0.093175,0.187423,0.186733,0.148804
0.005485,0.018838,0.020521,0.147407,0.11496,0.131434,0.194588,0.273119,0.254325,0.256787
0.005582,0.043297,7e-06,0.069932,0.094699,0.122586,0.117008,0.134547,0.104855,0.203855
0.059517,0.054351,0.037367,0.084775,0.024866,0.098948,0.153469,0.165107,0.158119,0.201439
0.018959,0.071903,0.088963,0.064712,0.115887,0.098496,0.101825,0.236815,0.258811,0.265675
0.012328,0.060794,0.093177,0.052553,0.096284,0.141575,0.167321,0.134591,0.145759,0.201016
0.009619,0.06483,0.014109,0.097458,0.053108,0.107984,0.168759,0.147621,0.178453,0.162576
0.002608,0.152172,0.032475,0.113264,0.192432,0.170903,0.16364,0.202494,0.207859,0.197891
0.028383,0.004491,0.046667,0.042028,0.105203,0.041643,0.154573,0.172192,0.187178,0.228704
0.001336,0.066237,0.091865,0.062049,0.071895,0.020113,0.157138,0.137097,0.156,0.233499
0.003804,0.125371,0.016268,0.110547,0.150705,0.163374,0.198727,0.197422,0.250034,0.317558
0.036241,0.095603,0.057994,0.114931,0.109656,0.048605,0.09987,0.181918,0.189691,0.171632
0.09195,0.030309,0.023307,0.053076,0.134206,0.126141,0.140972,0.211983,0.243696,0.238015
0.013969,0.028905,0.137991,0.094824,0.075895,0.180517,0.206084,0.246396,0.245388,0.304408
0.002638,0.028825,0.07484,0.121849,0.123699,0.112092,0.198915,0.208671,0.144207,0.217642
0.008704,0.052942,0.034784,0.110155,0.069666,0.037185,0.183007,0.156124,0.156912,0.278143
0.007069,0.01864,0.054176,0.066139,0.032463,0.115037,0.079417,0.17016,0.152244,0.246485
0.000357,0.035318,0.09796,0.103669,0.062537,0.042347,0.13329,0.200644,0.19098,0.226484
0.02644,0.052543,0.048796,0.085778,0.094275,0.114626,0.150787,0.21118,0.210012,0.252854
0.001293,0.126919,0.140361,0.066859,0.201259,0.145625,0.122477,0.229339,0.242077,0.200532
0.015093,0.018113,0.073035,0.119798,0.067382,0.129937,0.156098,0.214777,0.229258,0.25166
0.004844,0.048783,0.030846,0.102751,0.173916,0.213638,0.174772,0.224754,0.212526,0.230931
0.01371,0.040553,0.10215,0.097011,0.099159,0.152807,0.154574,0.137056,0.156365,0.236886
0.012678,0.109899,0.021437,0.12363,0.091627,0.142797,0.135872,0.199903,0.230716,0.18814
0.004458,0.026813,0.008096,0.078964,0.067837,0.095866,0.055816,0.158795,0.141406,0.166527
0.01417,0.015283,0.025488,0.102432,0.074454,0.066176,0.164754,0.200394,0.246542,0.226118
0.003563,0.076531,0.180209,0.092376,0.087731,0.14685,0.211443,0.158305,0.182737,0.319925
0.020718,0.126525,0.044435,0.038416,0.159018,0.080367,0.131632,0.220917,0.230332,0.200913
0.046086,0.141872,0.080301,0.101801,0.184255,0.15516,0.159275,0.329219,0.277661,0.299019
0.009151,0.007319,0.027924,0.040334,0.033799,0.131536,0.120451,0.229669,0.209096,0.236404
0.019602,0.063374,0.013129,0.025658,0.154124,0.171204,0.050028,0.214215,0.217551,0.213932
0.01799,0.103991,0.029943,0.087005,0.038188,0.064237,0.163689,0.196795,0.20238,0.244572
0.010784,0.037179,0.016781,0.093674,0.026698,0.138873,0.074902,0.167751,0.252395,0.254667
0.071209,0.056172,0.051037,0.091334,0.167823,0.075133,0.232264,0.187931,0.23034,0.312549
0.000417,0.116328,0.064483,0.076904,0.103797,0.093355,0.159014,0.166238,0.205952,0.230993
0.00127,0.063645,0.095757,0.030733,0.112677,0.081055,0.072925,0.160847,0.137213,0.147901
0.003994,0.052083,0.082333,0.061914,0.104401,0.126766,0.143427,0.161873,0.127496,0.202591
0.001299,0.090381,0.062358,0.008288,0.036171,0.173146,0.027078,0.180336,0.129434,0.115876
0.032101,0.048808,0.139829,0.08828,0.067724,0.025204,0.166693,0.113638,0.185308,0.267242
0.003253,0.015979,0.000473,0.047718,0.055429,0.093763,0.07427,0.141024,0.208937,0.18152
0.060829,0.021553,0.024601,0.074853,0.081173,0.26072,0.141107,0.23342,0.293864,0.297674
0.007651,0.146147,0.053464,0.165971,0.112246,0.141161,0.236121,0.213056,0.225414,0.287273
0.000742,0.081073,0.054236,0.083595,0.108073,0.159242,0.134281,0.283007,0.226987,0.209145
0.005941,0.145006,0.104332,0.186095,0.177609,0.121608,0.218735,0.258354,0.235221,0.304521
0.001326,0.006071,0.058572,0.087055,0.146426,0.181382,0.167207,0.169285,0.239401,0.20087
0.01436,0.015635,0.105282,0.098671,0.148617,0.180507,0.209963,0.211581,0.248185,0.234544
0.001654,0.122822,0.021289,0.090516,0.17076,0.206057,0.193998,0.23818,0.232556,0.297146
0.039037,0.095812,0.098226,0.043665,0.178313,0.093934,0.178174,0.120131,0.148714,0.214838
0.032228,0.048178,0.080497,0.068097,0.043975,0.137464,0.121988,0.12388,0.178689,0.198034
0.014974,0.060483,0.033265,0.055252,0.126504,0.089148,0.060566,0.150666,0.11916,0.158797
0.007434,0.101802,0.023229,0.123048,0.095252,0.060335,0.169539,0.174091,0.204552,0.211152
0.024913,0.115428,0.038614,0.122928,0.130001,0.114166,0.171143,0.147939,0.217049,0.216831
0.02041,0.038953,0.011588,0.058701,0.060646,0.038753,0.177125,0.194666,0.195651,0.217568
0.019431,0.044454,0.06991,0.107239,0.123229,0.22282,0.214925,0.175366,0.235445,0.24818
0.054724,0.114187,0.14658,0.124774,0.198966,0.226888,0.13792,0.252071,0.29456,0.308966
0.003185,0.055961,0.072294,0.075697,0.147875,0.132178,0.09539,0.2171,0.214858,0.244964
0.031949,0.084827,0.065821,0.042266,0.110719,0.148924,0.146217,0.187618,0.222691,0.197442
0.074804,0.055207,0.114923,0.069746,0.10348,0.082655,0.175581,0.178664,0.225433,0.236917
0.036624,0.040414,0.00567,0.170128,0.077498,0.138287,0.01386,0.190244,0.136406,0.208827
0.008514,0.080911,0.00964,0.108452,0.10983,0.227892,0.178503,0.30344,0.275432,0.273371
0.030909,0.012004,0.013832,0.02119,0.086396,0.127374,0.128623,0.217899,0.213662,0.178354
0.009938,0.060829,0.061424,0.132871,0.118228,0.113303,0.213032,0.143327,0.16415,0.210445
0.001886,0.068629,0.069904,0.009513,0.040065,0.110455,0.035308,0.166048,0.157923,0.111044
0.020776,0.015873,0.101377,0.090369,0.059939,0.046562,0.095929,0.190755,0.247544,0.281451
0.020168,0.083111,0.059227,0.053291,0.094017,0.072334,0.093109,0.189594,0.183492,0.234171
0.050885,0.04231,0.095984,0.033789,0.170997,0.217879,0.038903,0.237729,0.19376,0.204156
0.002246,0.126989,0.029131,0.059668,0.211468,0.113736,0.1136,0.260629,0.228449,0.259962
0.000147,0.118755,0.115658,0.09594,0.104515,0.139337,0.124273,0.228701,0.255925,0.282184
3.8e-05,0.133093,0.065142,0.04367,0.13603,0.078768,0.097566,0.21329,0.261225,0.22293
0.001928,0.090552,0.002456,0.137278,0.168444,0.17557,0.103647,0.258981,0.224841,0.241318
0.022874,0.048944,0.080684,0.058452,0.077391,0.066698,0.150031,0.217547,0.221708,0.222199
0.000818,0.135311,0.11401,0.090058,0.152826,0.216025,0.180868,0.293532,0.253291,0.283707
0.028569,0.090084,0.060592,0.03925,0.092896,0.065027,0.076339,0.199602,0.214128,0.191558
0.002601,0.078272,0.059064,0.026216,0.038566,0.09881,0.061841,0.111159,0.120408,0.140217
0.008423,0.070696,0.123228,0.064619,0.210212,0.114658,0.14877,0.281335,0.269772,0.263718
0.004167,0.066438,0.095494,0.086629,0.136776,0.189213,0.119838,0.187901,0.162608,0.240431
0.002372,0.104517,0.085925,0.066667,0.26995,0.224657,0.135338,0.254405,0.265976,0.20615
0.026878,0.079272,0.132593,0.112026,0.150799,0.062456,0.151103,0.2106,0.227042,0.246685
0.003065,0.057346,0.060533,0.222682,0.060802,0.089042,0.054758,0.200664,0.208338,0.274898
0.008551,0.151072,0.078234,0.113777,0.176886,0.274033,0.115196,0.173678,0.239667,0.241017
0.005225,0.066682,0.02986,0.099686,0.17001,0.119494,0.076929,0.176954,0.212782,0.19169
0.022333,0.174886,0.077923,0.066701,0.10002,0.167114,0.16289,0.316201,0.265185,0.258329
0.027343,0.077414,0.136879,0.092562,0.136434,0.23758,0.191646,0.242183,0.280381,0.331658
0.040843,0.082294,0.001064,0.115211,0.188713,0.131933,0.17875,0.256162,0.290759,0.297881
0.047713,0.190704,0.065319,0.074655,0.179827,0.12239,0.178098,0.206621,0.241706,0.257536
0.000298,0.033752,0.019264,0.062168,0.099749,0.045234,0.181048,0.175837,0.212839,0.19921
0.008568,0.127736,0.102195,0.06874,0.204221,0.162962,0.18115,0.254263,0.259503,0.293977
0.038496,0.040092,0.036429,0.146557,0.069043,0.076652,0.142479,0.155595,0.25681,0.234154
0.00715,0.017324,0.00371,0.072315,0.159641,0.230424,0.120511,0.155097,0.156851,0.16458
0.004515,0.051622,0.043917,0.011107,0.113869,0.12755,0.056552,0.138013,0.148336,0.072721
0.064885,0.074117,0.063359,0.024799,0.118603,0.13417,0.077743,0.172559,0.22997,0.148867
0.023577,0.046618,0.051453,0.125372,0.104974,0.151448,0.143281,0.189792,0.163137,0.178704
0.033331,0.001357,0.075206,0.170038,0.140745,0.06576,0.139799,0.142078,0.234835,0.31239
0.014518,0.038516,0.046192,0.083346,0.154286,0.149369,0.164766,0.149427,0.186046,0.221059
0.010613,0.027886,0.024054,0.04941,0.074585,0.146439,0.095351,0.103245,0.126296,0.177199
0.025176,0.071997,0.047248,0.075984,0.152437,0.196122,0.131476,0.232804,0.257995,0.246713
0.007113,0.001141,0.103473,0.064247,0.054967,0.089962,0.15767,0.156145,0.227512,0.282179
0.01908,0.118803,0.037596,0.025711,0.087337,0.126171,0.114361,0.218791,0.158297,0.150627
0.004297,0.095401,0.110624,0.16003,0.221734,0.122136,0.192162,0.199188,0.224632,0.227451
0.007992,0.101576,0.058441,0.062931,0.104875,0.050756,0.131655,0.191027,0.167251,0.18059
0.003167,0.079364,0.049452,0.058581,0.15709,0.109083,0.193888,0.28024,0.276127,0.327098
0.004934,0.068758,0.007263,0.104281,0.120211,0.086351,0.192112,0.238115,0.179965,0.19416
0.009861,0.088928,0.049404,0.066714,0.080776,0.086775,0.144558,0.158927,0.191955,0.174253
0.014073,0.07282,0.060688,0.10906,0.184683,0.142402,0.117806,0.263533,0.225992,0.273071
0.000174,0.090771,0.06314,0.037721,0.119364,0.165028,0.115384,0.188257,0.179334,0.22823
0.00022,0.058076,0.087106,0.113814,0.165337,0.195026,0.162736,0.166426,0.22815,0.228322
0.009358,0.02406,0.062503,0.027439,0.095676,0.11182,0.115932,0.165649,0.157835,0.241127
1e-06,0.141298,0.007747,0.072553,0.115306,0.093309,0.094819,0.134405,0.133807,0.196911
0.006808,0.019345,0.059797,0.090562,0.198886,0.196135,0.153842,0.215419,0.290288,0.264794
0.00723,0.07698,0.143364,0.144201,0.143278,0.143892,0.174876,0.254251,0.202382,0.293297
0.02237,0.034674,0.06137,0.034913,0.14142,0.089609,0.190683,0.203949,0.230766,0.245806
0.002107,0.008824,0.098539,0.188539,0.089596,0.120759,0.061133,0.214857,0.244677,0.259939
0.000298,0.03628,0.103861,0.121648,0.152237,0.152005,0.135634,0.22358,0.204306,0.302012
0.006572,0.053098,0.05556,0.104675,0.134501,0.090086,0.126289,0.236836,0.292917,0.319445
0.03905,0.092633,0.034843,0.025066,0.139144,0.154511,0.067705,0.206606,0.192541,0.236726
0.008819,0.120336,1.3e-05,0.047556,0.141236,0.098384,0.108699,0.17006,0.179296,0.164905
0.018193,0.031952,0.184802,0.082625,0.167273,0.139318,0.140615,0.134356,0.203785,0.286661
0.030956,0.078129,0.111071,0.073259,0.075999,0.145389,0.118221,0.184472,0.248224,0.254827
0.011742,0.02494,0.134112,0.085114,0.094732,0.115963,0.172533,0.213316,0.265777,0.24221
0.004679,0.053753,0.008524,0.067797,0.152202,0.112143,0.098121,0.183498,0.191733,0.240508
0.012854,0.059139,0.100323,0.168979,0.114721,0.168566,0.148563,0.196175,0.22744,0.315929
0.00026,0.135331,0.150326,0.106068,0.193919,0.146438,0.174759,0.281609,0.304794,0.355796
0.121549,0.106311,0.098511,0.068295,0.135189,0.162485,0.136051,0.214392,0.236784,0.281993
0.031195,0.113864,0.040296,0.041743,0.091247,0.071837,0.061925,0.16542,0.179598,0.15399
0.028406,0.096296,0.118663,0.081774,0.123057,0.224228,0.183602,0.244126,0.234844,0.288614
0.001062,0.080442,0.139993,0.11393,0.16262,0.171748,0.17477,0.316134,0.263932,0.29199
0.024483,0.071602,0.099417,0.040741,0.11062,0.157654,0.100872,0.199994,0.156099,0.167654
0.00083,0.039695,0.133026,0.19401,0.075812,0.143421,0.230236,0.180213,0.270549,0.312526
0.032984,0.007121,0.026094,0.105272,0.070248,0.064049,0.168253,0.171226,0.19418,0.272454
0.022135,0.042953,0.163225,0.064885,0.065054,0.086014,0.126856,0.220077,0.198599,0.241506
0.003143,0.053515,0.022898,0.022013,0.05857,0.111105,0.051011,0.17912,0.144323,0.143956
0.001499,0.093867,0.059338,0.094269,0.128872,0.1379,0.115695,0.245932,0.217784,0.163808
0.001605,0.002929,0.024148,0.040788,0.040719,0.072254,0.073077,0.104546,0.161777,0.140978
0,0.028639,0.030259,0.144216,0.137027,0.10202,0.231835,0.123409,0.158929,0.222286
0.002349,0.057441,0.038678,0.02039,0.145623,0.08522,0.0455,0.182841,0.170184,0.167218
0.065507,0.048051,0.002267,0.077277,0.031938,0.095742,0.232251,0.242537,0.224259,0.244331
0.015088,0.083781,0.06356,0.011679,0.155823,0.080467,0.077189,0.16437,0.179387,0.171906
0.029315,0.038597,0.016448,0.055042,0.096842,0.05891,0.103201,0.161531,0.196545,0.242333
0.002256,0.119061,0.097993,0.058626,0.15723,0.193636,0.157669,0.22711,0.268741,0.247863
0.058228,0.102339,0.090968,0.112549,0.247755,0.193011,0.286204,0.229039,0.341965,0.347327
0.043094,0.045085,0.037566,0.064098,0.082766,0.049566,0.096,0.164893,0.196122,0.174009
0.029236,0.019939,0.022491,0.031707,0.09892,0.047122,0.076799,0.122522,0.102966,0.111437
0.019446,0.084685,0.097914,0.058672,0.06189,0.09726,0.133145,0.173428,0.150416,0.204638
0.001876,0.066614,0.047462,0.057487,0.162668,0.21313,0.102314,0.19873,0.215677,0.190447
0.019793,0.064007,0.082126,0.099693,0.093647,0.129676,0.197187,0.182238,0.235842,0.301095
0.004168,0.124678,0.04651,0.086838,0.082785,0.147738,0.149941,0.183653,0.189517,0.157565
0.019635,0.081398,0.028274,0.092935,0.120081,0.127445,0.156152,0.201879,0.243423,0.267972
0.002134,0.044138,0.042364,0.049359,0.089977,0.142676,0.115169,0.157476,0.153803,0.209126
0.038529,0.063646,0.074898,0.110743,0.116415,0.069183,0.072016,0.260827,0.239292,0.156897
0.023574,0.099714,0.041848,0.067966,0.120652,0.171104,0.17545,0.20521,0.200083,0.243767
0.024978,0.075612,0.102261,0.09637,0.100056,0.089903,0.212102,0.190915,0.246341,0.291478
0.010691,0.103909,0.041072,0.11726,0.097721,0.127298,0.242528,0.176343,0.162195,0.303371
0.009008,0.083407,0.066442,0.095681,0.124832,0.193894,0.154254,0.15854,0.180851,0.22671
0.010821,0.017009,0.086696,0.120669,0.08244,0.058205,0.144476,0.160727,0.189112,0.241897
0.019576,0.083298,0.030806,0.078401,0.202813,0.094125,0.17463,0.173221,0.19717,0.240453
0.002779,0.122213,0.020107,0.024542,0.07751,0.100505,0.072555,0.143743,0.122493,0.124325
8.3e-05,0.038814,0.016524,0.084356,0.106762,0.161945,0.128035,0.137353,0.118085,0.18759
0.021953,0.04234,0.022324,0.098451,0.084485,0.099508,0.066453,0.146467,0.160345,0.150754
0.00788,0.083956,0.009091,0.054568,0.120597,0.20146,0.109794,0.259485,0.257416,0.279802
0.023298,0.050338,0.043092,0.063206,0.157648,0.087045,0.156457,0.163903,0.265788,0.246053
5e-04,0.100606,0.14832,0.015977,0.073203,0.164833,0.076864,0.159821,0.164829,0.171924
0.000637,0.113914,0.053462,0.107857,0.103234,0.163378,0.081893,0.216756,0.210641,0.182024
0.014236,0.033181,0.150542,0.097445,0.146492,0.162261,0.182601,0.208415,0.197452,0.235708
0.013077,0.07623,0.022864,0.064368,0.143149,0.181277,0.200431,0.275257,0.222758,0.270522
1.9e-05,0.107588,0.09353,0.047089,0.174164,0.144269,0.105902,0.157577,0.134511,0.119707
0.012583,0.042937,0.054658,0.14864,0.129806,0.123228,0.115624,0.216937,0.26058,0.218222
0.020542,0.020521,0.069801,0.1042,0.147672,0.23399,0.164829,0.211079,0.261857,0.24614
0.046325,0.119229,0.067521,0.059829,0.085371,0.167831,0.188451,0.185839,0.176832,0.250053
0.014633,0.011492,0.083204,0.057801,0.103223,0.139894,0.106029,0.243683,0.276621,0.1994
0.000847,0.059185,0.061876,0.137478,0.094768,0.139279,0.151177,0.205478,0.282971,0.358587
0.014201,0.246679,0.058107,0.069152,0.218997,0.166119,0.194145,0.343271,0.220199,0.279892
0.003632,0.050461,0.077662,0.050581,0.11442,0.082584,0.091468,0.253505,0.227261,0.270711
0.01697,0.112387,0.119377,0.07667,0.077937,0.162674,0.222147,0.253591,0.266369,0.332306
0.023425,0.044951,0.018368,0.132604,0.116994,0.087011,0.09531,0.209238,0.190825,0.232238
0.009594,0.029972,0.038705,0.04547,0.03402,0.036433,0.094939,0.226971,0.192635,0.186748
0.081032,0.022226,0.022916,0.170799,0.086564,0.131122,0.12143,0.158346,0.181334,0.233269
2.5e-05,0.066339,0.092851,0.116409,0.06645,0.134765,0.111843,0.216893,0.27845,0.256889
0.016953,0.028137,0.11939,0.076067,0.058418,0.037858,0.097302,0.138766,0.225933,0.24093
0.000158,0.143755,0.085578,0.085673,0.254025,0.243907,0.124406,0.252597,0.23779,0.218413
0.005622,0.038034,0.022946,0.08133,0.094389,0.040904,0.159556,0.164473,0.170358,0.268929
0.006501,0.045581,0.105817,0.049819,0.142514,0.029002,0.105269,0.122374,0.121407,0.213467
0.026197,0.00146,0.031832,0.03605,0.091704,0.079462,0.06527,0.139773,0.160822,0.112823
0.000833,0.064148,0.026163,0.10823,0.03941,0.130421,0.093146,0.1332,0.144643,0.220435
0.008688,0.077869,0.106653,0.119,0.227195,0.173842,0.193696,0.279006,0.180705,0.345795
0.059267,0.09473,0.193053,0.119987,0.118976,0.103504,0.142174,0.179721,0.233469,0.237834
0.009292,0.022362,0.03924,0.018103,0.072604,0.109869,0.095244,0.172597,0.172454,0.148228
0.009535,0.096311,0.07377,0.105972,0.110476,0.192902,0.172881,0.257125,0.315422,0.263178
2e-06,0.037852,0.062381,0.078353,0.061716,0.056444,0.160851,0.112317,0.188441,0.154445
0.005311,0.035632,0.065946,0.031013,0.126776,0.083609,0.059548,0.234533,0.237632,0.187632
0.035526,0.02478,0.090587,0.110965,0.039057,0.107875,0.148848,0.157181,0.178607,0.189523
0.004838,0.109802,0.063622,0.116169,0.21367,0.2236,0.175783,0.263668,0.244197,0.289747
0.000369,0.072752,0.1186,0.106452,0.144855,0.053571,0.119104,0.202837,0.192137,0.255244
0.004168,0.004133,0.023915,0.054001,0.049787,0.082654,0.099927,0.11887,0.156062,0.17278
0.00914,0.013891,0.022909,0.108793,0.160973,0.069558,0.141822,0.137915,0.127078,0.223441
0.014554,0.151224,0.071304,0.052113,0.13965,0.193104,0.114169,0.221398,0.155033,0.184968
0.011185,0.081997,0.109737,0.044256,0.153084,0.079011,0.085554,0.206398,0.212725,0.199038
0.001803,0.054134,0.091144,0.107334,0.126123,0.128538,0.1905,0.299119,0.298013,0.27427
0.000196,0.123798,0.086172,0.126631,0.068023,0.103384,0.237403,0.201539,0.182873,0.241119
0.001028,0.087219,0.188826,0.117957,0.165827,0.255224,0.195068,0.276294,0.317901,0.323962
0.021062,0.009561,0.001662,0.158965,0.036806,0.036189,0.199042,0.185327,0.183889,0.319102
2e-06,0.054052,0.053197,0.030086,0.132047,0.124233,0.085207,0.227814,0.247855,0.193136
0.009827,0.053145,0.161215,0.096083,0.240326,0.152422,0.188145,0.235475,0.262121,0.273068
0.000276,0.062124,0.017647,0.037227,0.09519,0.086458,0.111356,0.1786,0.159869,0.174547
0.034584,0.097978,0.038646,0.071958,0.146752,0.169246,0.133515,0.157242,0.166264,0.255358
0.000263,0.043171,0.117342,0.069288,0.070491,0.189186,0.170476,0.173081,0.17628,0.244929
0.000298,0.046549,0.122516,0.115278,0.028965,0.074266,0.130967,0.098054,0.133965,0.169897
0.007834,0.053173,0.007267,0.03799,0.062504,0.128975,0.118095,0.152233,0.155213,0.136581
0.006835,0.029767,0.024961,0.02844,0.110441,0.125059,0.127158,0.181315,0.195768,0.205375
0.002742,0.071979,0.050101,0.046847,0.080586,0.052416,0.145386,0.108879,0.15493,0.258535
0.024118,0.125319,0.021679,0.027061,0.117731,0.111864,0.081769,0.267461,0.26408,0.21349
0.011984,0.067532,0.017218,0.030442,0.128807,0.041143,0.091733,0.16347,0.146354,0.181517
0.000931,0.04692,0.051328,0.034815,0.118836,0.12234,0.070493,0.191851,0.190613,0.216295
0.003091,0.070013,0.03513,0.047806,0.039898,0.070202,0.110358,0.159634,0.159082,0.163296
0.005697,0.120815,0.127124,0.13686,0.141078,0.145644,0.232326,0.193162,0.252695,0.401242
7e-06,0.006877,0.043385,0.075243,0.113083,0.034368,0.155356,0.13456,0.228965,0.241153
0.026074,0.092008,0.141035,0.060915,0.105064,0.117377,0.118663,0.19924,0.195761,0.265122
0.000838,0.043323,0.131595,0.152515,0.142886,0.101506,0.119812,0.173694,0.195347,0.247015
0.007344,0.124178,0.063652,0.15708,0.121896,0.116488,0.160585,0.238922,0.22998,0.261036
0.015069,0.017397,0.034638,0.030667,0.1259,0.135701,0.063291,0.237291,0.251533,0.190737
0.003008,0.044778,0.116352,0.09622,0.138081,0.188751,0.232409,0.218145,0.232819,0.300411
0.000889,0.08049,0.037164,0.076578,0.239411,0.109296,0.148678,0.201957,0.165763,0.222785
0.000288,0.186005,0.062491,0.058606,0.161893,0.183422,0.141316,0.178409,0.211742,0.280043
0.039496,0.04612,0.019067,0.069352,0.110836,0.136154,0.10309,0.171718,0.24504,0.248463
0.015232,0.030259,0.024418,0.018307,0.112661,0.119668,0.051052,0.160699,0.163431,0.095558
0.040369,0.088247,0.051305,0.121365,0.107826,0.161557,0.157336,0.258911,0.245865,0.276521
0.025896,0.027591,0.038478,0.016705,0.132239,0.059749,0.090724,0.204106,0.196511,0.187618
0.001127,0.008562,0.120088,0.054168,0.07933,0.090328,0.114546,0.151315,0.129797,0.20406
0.002575,0.08013,0.030618,0.091903,0.103209,0.075403,0.157491,0.184514,0.204452,0.274035
0.012057,0.062472,0.037117,0.00749,0.048554,0.146125,0.057708,0.162702,0.132099,0.077264
0.003175,0.059003,0.197286,0.131358,0.138557,0.175452,0.128094,0.163801,0.223815,0.228094
0.023941,0.07433,0.080981,0.093211,0.244592,0.194913,0.183111,0.235463,0.258509,0.242303
0.001249,0.058452,0.039169,0.073713,0.109897,0.116922,0.08371,0.209007,0.21645,0.20437
0.017657,0.031653,0.029995,0.179321,0.147945,0.062656,0.119057,0.118427,0.157809,0.180541
0.007125,0.186302,9e-05,0.221347,0.118468,0.217675,0.075726,0.151612,0.180988,0.19491
0.002989,0.097932,0.101227,0.125054,0.106156,0.115054,0.11436,0.155854,0.147963,0.212136
0.016723,0.057763,0.077227,0.049911,0.107036,0.01475,0.084852,0.160065,0.178089,0.205794
0.003653,0.04703,0.048809,0.137385,0.186044,0.242865,0.143538,0.238352,0.30791,0.367721
0.025121,0.161191,0.075146,0.119963,0.213538,0.085171,0.273683,0.249342,0.223589,0.331911
0.00346,0.04743,0.018248,0.004288,0.103918,0.087123,0.067841,0.215874,0.148056,0.135358
0.003504,0.135746,0.068902,0.114459,0.262675,0.26467,0.281239,0.191608,0.2005,0.30173
0.000342,0.098242,0.005742,0.065635,0.116741,0.126198,0.143678,0.224384,0.228561,0.221831
0.025517,0.036559,0.018868,0.09722,0.117014,0.132136,0.144528,0.139707,0.207696,0.280817
0.0039,0.062543,0.006973,0.103174,0.067105,0.098206,0.124726,0.179463,0.179178,0.245814
0.014313,0.027256,0.028232,0.045478,0.087792,0.0499,0.093825,0.148376,0.171084,0.159057
0.003841,0.012491,0.047092,0.102954,0.059342,0.128632,0.186741,0.105332,0.164699,0.227017
0.025142,0.098801,0.013284,0.189182,0.114956,0.224332,0.191479,0.286437,0.377783,0.323568
0.016408,0.071843,0.095977,0.072339,0.087083,0.067933,0.04666,0.140576,0.146108,0.110434
0.002462,0.108647,0.022869,0.133013,0.212227,0.174317,0.171451,0.137602,0.214148,0.247157
0.013141,0.034626,0.11227,0.126516,0.110974,0.160048,0.251017,0.158147,0.160861,0.302395
0.007353,0.039355,0.047957,0.044771,0.113193,0.074529,0.131868,0.137718,0.209758,0.149128
0.009525,0.038978,0.039839,0.10505,0.146188,0.099027,0.15895,0.219407,0.186202,0.234278
0.025736,0.066456,0.052438,0.032957,0.142496,0.065868,0.156815,0.182565,0.202938,0.248779
0.019771,0.019958,0.105147,0.212726,0.184098,0.109362,0.045,0.223185,0.22562,0.290379
0.001327,0.076398,0.048905,0.035222,0.078352,0.105572,0.128089,0.256405,0.197333,0.192969
0.00219,0.084239,0.063551,0.086642,0.087821,0.099455,0.124196,0.222805,0.221241,0.240568
0.002742,0.084712,0.081749,0.13292,0.149966,0.116704,0.087589,0.206399,0.232808,0.167131
0.041339,0.043045,0.098618,0.103715,0.125988,0.174467,0.159805,0.174598,0.173836,0.208221
0.001609,0.075949,0.085222,0.082699,0.137084,0.181593,0.177363,0.254243,0.216082,0.230459
0.020804,0.029406,0.023057,0.09388,0.074652,0.022082,0.110837,0.106124,0.159986,0.184092
0.038922,0.040976,0.0683,0.071573,0.202296,0.04879,0.119252,0.23216,0.166914,0.285248
5.1e-05,0.0253,0.089202,0.083837,0.152277,0.171143,0.221923,0.188656,0.275588,0.298495
0.013989,0.078032,6.7e-05,0.068323,0.132106,0.04675,0.139942,0.147997,0.129646,0.185693
0.003429,0.029869,0.048822,0.101897,0.036359,0.127204,0.124063,0.210429,0.19517,0.272784
0.023511,0.029675,0.20598,0.196265,0.096309,0.142094,0.202991,0.289519,0.303259,0.367218
0.011108,0.037703,0.172986,0.142894,0.032518,0.039727,0.098666,0.15534,0.213465,0.305963
0.038312,0.112616,0.165214,0.088198,0.095044,0.086019,0.144454,0.235763,0.240312,0.264181
0.031358,0.051878,0.056513,0.047546,0.153551,0.117265,0.153765,0.199638,0.206276,0.249667
0.001347,0.076501,0.140302,0.113991,0.09168,0.137618,0.096803,0.193312,0.18939,0.190919
0.044116,0.029344,0.113483,0.031504,0.041663,0.190292,0.047626,0.172729,0.186696,0.210975
0.007908,0.136153,0.099331,0.111286,0.104683,0.189399,0.227177,0.195242,0.202451,0.423234
0.027003,0.030209,0.16751,0.130656,0.117699,0.207718,0.201741,0.206701,0.305248,0.307861
0.014992,0.009655,0.038737,0.045031,0.109099,0.062211,0.15563,0.203502,0.183843,0.253212
0.000897,0.075504,0.044094,0.063683,0.14742,0.111777,0.149198,0.256398,0.216422,0.245986
0.013358,0.05233,0.080396,0.101757,0.17374,0.195823,0.168512,0.218188,0.241568,0.243711
0.05849,0.054541,0.063456,0.039238,0.045377,0.121448,0.097881,0.178557,0.150674,0.18226
0.000419,0.085997,0.086725,0.090401,0.226482,0.189411,0.151017,0.28594,0.24192,0.245862
0.031796,0.044993,0.056217,0.160636,0.101825,0.152901,0.211482,0.144052,0.253516,0.275808
0.000215,0.05317,0.075921,0.099815,0.10082,0.10077,0.127134,0.186095,0.263186,0.238394
0.001241,0.052383,0.052507,0.07022,0.11096,0.170209,0.059309,0.166838,0.120915,0.138162
0.025784,0.05351,0.068011,0.01309,0.101602,0.128618,0.064209,0.198037,0.152026,0.229072
0.002454,0.023968,0.103481,0.047873,0.166567,0.089366,0.10462,0.189779,0.211658,0.200408
0.000269,0.061518,8.2e-05,0.090435,0.041654,0.212886,0.188865,0.20469,0.195419,0.255189
0.025572,0.137981,0.082908,0.019936,0.111535,0.148402,0.104923,0.250986,0.248814,0.179869
2e-05,0.10562,0.018671,0.10692,0.079314,0.108421,0.118186,0.176932,0.231401,0.276199
0.000597,0.112655,0.053851,0.092278,0.196564,0.130995,0.17655,0.153236,0.179184,0.226261
0.01381,0.023329,0.127419,0.088028,0.087779,0.076416,0.112813,0.168819,0.198867,0.217575
0.020669,0.048492,0.13394,0.047518,0.163921,0.198207,0.124356,0.203773,0.234756,0.244248
0.00326,0.072737,0.125244,0.087955,0.035288,0.080959,0.084679,0.215296,0.197782,0.226776
0.021549,0.073287,0.023664,0.018627,0.138627,0.159622,0.142254,0.153478,0.187345,0.158257
0.028495,0.061581,0.068184,0.066876,0.145218,0.128571,0.156058,0.134063,0.156169,0.2528
0.001972,0.095831,0.020829,0.086822,0.023902,0.098626,0.18558,0.139855,0.147793,0.228039
0.001069,0.038516,0.028399,0.113213,0.085411,0.113865,0.167515,0.262884,0.250522,0.253915
0.009292,0.029875,0.10685,0.093647,0.147568,0.196826,0.222187,0.272913,0.241173,0.237314
0.090413,0.019293,0.094188,0.074901,0.178853,0.117919,0.197569,0.207794,0.266618,0.300481
0.040194,0.10747,0.005893,0.015238,0.140497,0.175349,0.074147,0.194016,0.203908,0.17561
0.027697,0.079387,0.018873,0.062719,0.172337,0.132885,0.175614,0.272505,0.259909,0.250787
0.003153,0.086793,0.089993,0.038487,0.058652,0.053251,0.154325,0.120372,0.144883,0.288369
0.019908,0.063495,0.062564,0.06128,0.132203,0.066369,0.16737,0.143032,0.175194,0.216159
0.001095,0.017972,0.047628,0.185332,0.201009,0.176169,0.146525,0.140034,0.175925,0.237276
0.010247,0.023724,0.091873,0.049521,0.090766,0.112917,0.141854,0.191805,0.190932,0.207645
0.001742,0.149412,0.069962,0.09954,0.101276,0.139003,0.125037,0.170558,0.209218,0.150522
0.000277,0.116521,0.048285,0.030995,0.095467,0.124781,0.095909,0.175712,0.184171,0.114412
0.017962,0.002521,0.075155,0.068076,0.085357,0.03314,0.122715,0.225984,0.179457,0.274679
0.002602,0.049353,0.026299,0.046064,0.103617,0.157018,0.109401,0.135167,0.21227,0.21404
0.000341,0.067501,0.168878,0.099798,0.147418,0.161921,0.197742,0.194585,0.257392,0.246055
0.002324,0.018869,0.122472,0.05568,0.148834,0.140027,0.190679,0.153653,0.198222,0.199206
0.00478,0.064821,0.061821,0.059939,0.108527,0.107209,0.164382,0.142458,0.163272,0.187706
0.039184,0.041954,0.023182,0.011677,0.039059,0.133446,0.029102,0.166357,0.133115,0.139296
0.006718,0.042855,0.120061,0.036284,0.115971,0.110073,0.195764,0.221442,0.198826,0.258466
0.019409,0.175177,0.103396,0.138828,0.101568,0.111664,0.169568,0.244303,0.215259,0.24656
0.016329,0.055076,0.143114,0.08593,0.150994,0.093102,0.24022,0.127339,0.124441,0.25015
0.003015,0.033013,0.120763,0.04093,0.091206,0.139105,0.136556,0.196544,0.19108,0.179733
0.010131,0.052311,0.076625,0.086254,0.105423,0.138447,0.209968,0.275203,0.267807,0.304199
0.00921,0.127148,0.113573,0.174684,0.130059,0.200456,0.030798,0.242814,0.277858,0.383742
0.017074,0.073925,0.045691,0.008847,0.104389,0.117098,0.033737,0.193524,0.189794,0.144558
0.002312,0.038458,0.085559,0.031322,0.073505,0.093996,0.094178,0.180594,0.189557,0.235905
0.014242,0.124669,0.053074,0.141618,0.090172,0.182735,0.243408,0.203123,0.286625,0.303029
0.003509,0.091109,0.051452,0.202407,0.120997,0.096425,0.087889,0.138171,0.167325,0.198625
0.025393,0.074835,0.029412,0.042335,0.085503,0.133632,0.053602,0.191605,0.22797,0.185132
0.001454,0.045405,0.041166,0.061565,0.092411,0.094146,0.128038,0.188648,0.199418,0.176657
0.004803,0.042522,0.039627,0.078189,0.006351,0.120716,0.133448,0.1507,0.220575,0.201754
0.054032,0.012325,0.151175,0.086125,0.160783,0.10851,0.140056,0.172766,0.178131,0.227093
0.000478,0.012238,0.085664,0.050597,0.057899,0.0953,0.045079,0.133883,0.097159,0.123407
0.010245,0.116766,0.080955,0.065763,0.119271,0.069588,0.13601,0.220562,0.203134,0.235969
0.02674,0.044232,0.111646,0.156626,0.049114,0.108586,0.181322,0.181645,0.222064,0.25108
0,0.0258,0.055144,0.053307,0.030705,0.083835,0.075417,0.218227,0.187296,0.242448
0.01585,0.016823,0.077874,0.075203,0.062706,0.062116,0.084414,0.116078,0.192211,0.197303
0.000398,0.054383,0.087965,0.010189,0.078839,0.153616,0.059955,0.200395,0.185133,0.138557
1e-06,0.042389,0.024574,0.106705,0.098841,0.188464,0.056259,0.17571,0.202853,0.176294
0.019848,0.087563,0.036055,0.069415,0.197925,0.186623,0.235133,0.284784,0.318369,0.303026
0.042523,0.17511,0.075989,0.130277,0.120704,0.133778,0.174676,0.215958,0.246966,0.278963
6.5e-05,0.076819,0.044534,0.087628,0.065694,0.065974,0.14998,0.183619,0.213735,0.265664
0.003749,0.072094,0.035506,0.092189,0.12374,0.147744,0.131902,0.177995,0.169716,0.254578
0.00868,0.020322,0.152485,0.119599,0.117165,0.074226,0.158523,0.187928,0.167232,0.283734
0.018357,0.057405,0.088028,0.018847,0.14265,0.185167,0.073621,0.237064,0.199369,0.202446
0.001583,0.076081,0.028867,0.073966,0.03826,0.137537,0.157044,0.175225,0.221967,0.228688
0.012856,0.112745,0.037143,0.076826,0.079983,0.032649,0.159225,0.139472,0.157627,0.220999
0.031782,0.100711,0.077627,0.163266,0.231367,0.190221,0.333082,0.278133,0.358679,0.355749
0.015976,0.02814,0.059324,0.067391,0.184744,0.123338,0.18673,0.186895,0.15452,0.259861
0.046889,0.097013,0.082896,0.066413,0.131504,0.144971,0.11956,0.250191,0.216159,0.269993
0.000469,0.074895,0.03238,0.039759,0.136245,0.088284,0.074584,0.174634,0.158587,0.147371
0.011728,0.079971,0.049336,0.10577,0.081117,0.191454,0.142266,0.156668,0.164272,0.209574
0.048063,0.152032,0.116223,0.093441,0.242575,0.235777,0.184942,0.266744,0.255311,0.268754
0.00079,0.069831,0.028368,0.1217,0.061119,0.143232,0.156665,0.271505,0.277317,0.257074
0.003656,0.051185,0.067679,0.075126,0.111582,0.097048,0.174674,0.196775,0.224913,0.269827
0.014561,0.123899,0.06584,0.07455,0.119744,0.155432,0.123286,0.202303,0.270443,0.244923
0.014076,0.119919,0.098158,0.106576,0.133156,0.147819,0.137428,0.23644,0.287216,0.3248
0.016649,0.090938,0.040057,0.094073,0.171449,0.155611,0.109332,0.35251,0.211757,0.237256
0.010662,0.029903,0.178226,0.069545,0.136234,0.216873,0.248119,0.249733,0.240077,0.323356
0.01772,0.170188,0.04842,0.095274,0.232576,0.203499,0.18858,0.38565,0.357695,0.385118
0.057488,0.105717,0.007424,0.022242,0.07366,0.113948,0.040422,0.12243,0.133887,0.168405
0.000443,0.106993,0.095822,0.127689,0.127931,0.131233,0.177216,0.163259,0.196526,0.22667
0.001755,0.054568,0.083155,0.051413,0.078763,0.102738,0.168598,0.113961,0.156958,0.213501
0.003989,0.019406,0.002648,0.098703,0.118452,0.113638,0.207645,0.22651,0.217687,0.248942
0.020965,0.100299,0.137119,0.084602,0.125632,0.234633,0.160295,0.222617,0.301309,0.323853
0.072207,0.09804,0.028393,0.016572,0.104234,0.087327,0.05889,0.173072,0.165795,0.197753
0.014311,0.025683,0.032513,0.101205,0.065005,0.060869,0.116087,0.119212,0.12258,0.163891
0.001396,0.113885,0.104933,0.078269,0.202014,0.253878,0.069042,0.218189,0.199998,0.22058
0.026868,0.144294,0.116216,0.10602,0.128238,0.211765,0.151581,0.174187,0.205991,0.23355
0.025444,0.0817,0.10465,0.101901,0.103902,0.110945,0.203006,0.251094,0.272219,0.286247
0.035513,0.139908,0.0211,0.098973,0.120716,0.094396,0.249996,0.212131,0.247465,0.340558
0.013046,0.117389,0.033989,0.0843,0.11471,0.115426,0.148878,0.184894,0.213988,0.196314
0.027278,0.020195,0.000738,0.03149,0.031228,0.045752,0.100986,0.148699,0.217795,0.169827
7.5e-05,0.074405,0.14024,0.07011,0.12691,0.161843,0.161209,0.240789,0.26323,0.24176
0.009151,0.06832,0.137809,0.12819,0.209151,0.19741,0.26116,0.248569,0.260026,0.324939
4.4e-05,0.054046,0.086031,0.1494,0.159642,0.13872,0.195269,0.225531,0.271523,0.273227
0.03687,0.07045,0.003732,0.106787,0.121771,0.176819,0.135921,0.306226,0.267591,0.260724
0.004171,0.024227,0.016976,0.06344,0.060855,0.129095,0.167836,0.185552,0.208521,0.263652
0.011855,0.081513,0.055324,0.114211,0.213728,0.143202,0.135383,0.260611,0.227444,0.241119
0.014739,0.050173,0.052162,0.140886,0.099271,0.057013,0.203974,0.133134,0.196465,0.305408
0.006621,0.049157,0.039226,0.068216,0.116088,0.107054,0.120101,0.153983,0.13163,0.191953
0.002634,0.066361,0.033784,0.055671,0.153836,0.124863,0.099378,0.236255,0.182346,0.212251
0.000509,0.081105,0.081884,0.041131,0.109059,0.190284,0.130072,0.243518,0.264709,0.209649
0.000286,0.023871,0.128935,0.05773,0.07694,0.123089,0.08308,0.220629,0.252624,0.234113
0.000123,0.031062,0.151569,0.146322,0.170785,0.137617,0.190007,0.254538,0.315022,0.280294
0.014457,0.029406,0.034885,0.121094,0.054987,0.081735,0.127967,0.11924,0.167326,0.215443
0.005203,0.036356,0.130788,0.073739,0.103477,0.174676,0.150829,0.246013,0.162758,0.260088
0.023216,0.051737,0.055175,0.091472,0.132018,0.077402,0.14349,0.20766,0.148567,0.287908
0.028402,0.090765,0.048176,0.058849,0.166011,0.195063,0.24644,0.163329,0.243562,0.317674
0.007567,0.090757,0.031015,0.196074,0.100798,0.104947,0.274671,0.267753,0.225663,0.309919
0.012377,0.051882,0.078593,0.06555,0.127659,0.166951,0.135236,0.163253,0.234801,0.276651
0.015074,0.089539,0.021188,0.112823,0.102336,0.03272,0.13136,0.187214,0.178053,0.236731
0.003476,0.065912,0.241999,0.175862,0.06836,0.074356,0.287529,0.195611,0.217676,0.362465
0.011353,0.166274,0.046715,0.085776,0.241383,0.140495,0.174338,0.292509,0.311542,0.349313
4.9e-05,0.094028,0.0706,0.041761,0.129627,0.173772,0.141163,0.162509,0.130987,0.165238
0.041149,0.055077,0.057421,0.111918,0.19131,0.167918,0.18025,0.213088,0.286719,0.21381
0.000775,0.106158,0.057995,0.137486,0.104975,0.165043,0.141092,0.138408,0.173358,0.208639
0.049823,0.041616,0.126629,0.060102,0.145078,0.138556,0.108117,0.235129,0.245849,0.258334
0.001345,0.081276,0.060354,0.088227,0.073713,0.0465,0.180778,0.166506,0.214948,0.279639
0.030388,0.011216,0.139435,0.068168,0.030251,0.087216,0.117853,0.201249,0.188802,0.231958
0.000322,0.029579,0.030714,0.05965,0.068009,0.097655,0.133134,0.157932,0.180262,0.22127
0.058303,0.0137,0.029384,0.003986,0.025984,0.016527,0.087674,0.116581,0.13532,0.15052
0.001247,0.027579,0.001749,0.181172,0.111457,0.093782,0.108646,0.251127,0.228534,0.287623
4.7e-05,0.085887,0.192572,0.142951,0.097479,0.20751,0.203173,0.226702,0.261005,0.307647
0.014969,0.047534,0.059017,0.182717,0.113367,0.142411,0.328063,0.212366,0.163549,0.351526
0.024514,0.014999,0.028136,0.063905,0.133916,0.129639,0.128585,0.192245,0.181011,0.278979
0.000938,0.000175,0.031132,0.028786,0.094636,0.103925,0.035326,0.106003,0.079409,0.0863
0.014036,0.113489,0.05576,0.058981,0.139738,0.089098,0.158219,0.187915,0.209796,0.249322
0.006016,0.108743,0.010814,0.071283,0.139936,0.148698,0.151118,0.22183,0.217412,0.208324
0.004,0.011762,0.08895,0.043054,0.085874,0.13491,0.127613,0.113889,0.141343,0.202032
0.001279,0.057162,0.078577,0.079057,0.136406,0.169564,0.141388,0.253804,0.239027,0.223238
0.003547,0.086272,0.022209,0.061724,0.076239,0.162623,0.105975,0.182525,0.159342,0.162549
0.053621,0.038248,0.000385,0.0622,0.06348,0.06997,0.167003,0.184403,0.196808,0.2241
0.016732,0.055631,0.035417,0.062293,0.057482,0.05148,0.086164,0.20937,0.203913,0.245357
0.034995,0.027582,0.104744,0.063227,0.07197,0.114086,0.063227,0.201718,0.229742,0.224955
0.000209,0.080471,0.080754,0.156731,0.13487,0.11569,0.150512,0.247176,0.2716,0.241919
0.028134,0.094199,0.009279,0.065215,0.11838,0.044822,0.145552,0.174311,0.196415,0.237801
0.014722,0.104819,0.065599,0.103988,0.116609,0.117116,0.105896,0.196908,0.21327,0.20168
0.01722,0.058295,0.00513,0.074945,0.06853,0.099607,0.103564,0.18961,0.193191,0.192481
4.5e-05,0.025165,0.021217,0.052795,0.099263,0.061551,0.100915,0.154738,0.140768,0.174132
0.00563,0.014728,0.009478,0.158618,0.042442,0.070301,0.095532,0.160514,0.17398,0.119234
0.010784,0.068273,0.027216,0.088047,0.11816,0.18501,0.178319,0.18869,0.171722,0.216841
0.026178,0.078899,0.065567,0.056715,0.094844,0.206009,0.111876,0.17339,0.16803,0.191387
0.001738,0.055524,0.108675,0.128527,0.155923,0.104366,0.24756,0.169426,0.224965,0.24802
0.040968,0.142386,0.095744,0.093398,0.098767,0.1496,0.221057,0.279488,0.272711,0.275035
0.004951,0.041275,0.000943,0.171869,0.123572,0.150216,0.134979,0.173275,0.215708,0.199227
0.014204,0.051876,0.115675,0.111876,0.136895,0.099405,0.251817,0.12648,0.175037,0.262005
0.000168,0.056216,0.057045,0.05655,0.069351,0.034457,0.138863,0.196737,0.201799,0.22604
0.013034,0.08468,0.035158,0.14791,0.051827,0.08037,0.177426,0.160655,0.226537,0.273076
0.027834,0.106823,0.039064,0.057205,0.125982,0.077069,0.051581,0.136506,0.153946,0.183323
0.001072,0.025624,0.009134,0.080178,0.070505,0.177247,0.104554,0.212653,0.18262,0.235775
0.015262,0.115061,0.038727,0.069021,0.097305,0.115552,0.138281,0.171246,0.196947,0.130206
3.8e-05,0.1184,0.055283,0.079442,0.149114,0.185122,0.111531,0.187942,0.166448,0.219966
0.094123,0.031034,0.0753,0.096781,0.177857,0.199467,0.077049,0.239842,0.201,0.29542
0.000471,0.024713,0.084486,0.109676,0.062034,0.080022,0.155595,0.137742,0.196627,0.19966
0.025184,0.043257,0.060013,0.061376,0.120345,0.154994,0.148127,0.258862,0.284187,0.243893
0.033844,0.030727,0.023828,0.077294,0.091834,0.018573,0.07865,0.160293,0.198118,0.211765
0.00629,0.08323,0.021714,0.1978,0.170566,0.240012,0.142777,0.258664,0.272938,0.225459
0.004149,0.005563,0.009279,0.073827,0.069999,0.074517,0.142581,0.208342,0.210559,0.212769
0.039531,0.054733,0.112687,0.057884,0.18487,0.086233,0.094776,0.244267,0.179809,0.184881
0.016412,0.042444,0.019832,0.085243,0.130958,0.177539,0.114989,0.277143,0.289104,0.270979
0.005974,0.042426,0.014772,0.126736,0.110285,0.119341,0.086689,0.15421,0.178619,0.172616
0.052747,0.078739,0.075379,0.036914,0.097633,0.044974,0.064561,0.201327,0.251579,0.234291
0.027961,0.043725,0.072506,0.097861,0.007235,0.094463,0.152067,0.127983,0.181274,0.243097
0.022919,0.012757,0.09046,0.004849,0.143808,0.118462,0.059634,0.152246,0.08919,0.115699
0.00513,0.010461,0.024335,0.067408,0.028232,0.03036,0.087513,0.158298,0.172888,0.242532
0.041728,0.010729,0.052277,0.055574,0.01446,0.0917,0.077432,0.187784,0.201435,0.15492
1e-06,0.015562,0.02281,0.139081,0.064435,0.090673,0.267488,0.16968,0.171058,0.265047
0.008682,0.115396,0.017609,0.076853,0.053813,0.171334,0.131154,0.250447,0.265072,0.255048
0.008532,0.067289,0.031236,0.111769,0.021946,0.167689,0.143999,0.154539,0.17725,0.253299
0.029086,0.06618,0.064755,0.016382,0.105726,0.136793,0.06959,0.179516,0.15719,0.148288
0.024984,0.027465,0.013665,0.067965,0.014456,0.072509,0.105007,0.173988,0.185706,0.214521
0.019597,0.010116,0.051389,0.019997,0.0322,0.189674,0.030008,0.283245,0.256248,0.208213
0.013522,0.05838,0.082207,0.092113,0.143881,0.125887,0.123887,0.222703,0.248265,0.334607
0.053527,0.009255,0.080503,0.045374,0.082202,0.08205,0.134115,0.173038,0.219576,0.225791
0.043398,0.138381,0.095712,0.012919,0.05634,0.072549,0.097094,0.147621,0.169476,0.197163
0.008653,0.037197,0.011989,0.055654,0.045702,0.145997,0.118755,0.225045,0.225162,0.22851
0.008518,0.145233,0.032565,0.137856,0.139886,0.168039,0.18857,0.187101,0.242942,0.291254
0.030182,0.042505,0.038521,0.110212,0.107482,0.140801,0.076487,0.199373,0.260939,0.282907
0.004477,0.030003,0.015082,0.057944,0.075406,0.117303,0.068263,0.143559,0.136793,0.133527
0.022344,0.01899,0.178969,0.054693,0.114032,0.151491,0.093125,0.294394,0.259285,0.34945
0.054586,0.08285,0.026776,0.081194,0.141367,0.116982,0.251614,0.219328,0.228073,0.359259
0.037315,0.06381,0.173406,0.067446,0.114927,0.128344,0.186265,0.188078,0.201252,0.230593
0.007636,0.050035,0.05031,0.041508,0.094161,0.130834,0.130963,0.233485,0.210143,0.235283
0.004165,0.128825,0.047462,0.073456,0.229083,0.131017,0.130612,0.28809,0.254405,0.345204
0.026074,0.050039,0.014722,0.039553,0.031469,0.038832,0.11437,0.147687,0.16707,0.232683
0.000166,0.074176,0.018816,0.112926,0.106124,0.21564,0.212797,0.236261,0.257175,0.302923
0.042095,0.019155,0.0292,0.06801,0.117591,0.17113,0.131732,0.191193,0.221052,0.170255
0.026884,0.076502,0.036295,0.043708,0.070139,0.227027,0.116241,0.206542,0.241655,0.204194
0.005958,0.03082,0.092468,0.037376,0.146363,0.167849,0.139932,0.223067,0.234846,0.194876
0.05629,0.051281,0.126062,0.193276,0.169555,0.095595,0.260555,0.301446,0.314071,0.353065
5.1e-05,0.109867,0.166394,0.170274,0.037043,0.186715,0.142459,0.269446,0.276995,0.309588
0.033491,0.058848,0.005283,0.109337,0.075584,0.078558,0.085988,0.123519,0.165437,0.19378
0.026966,0.061818,0.094021,0.110431,0.120233,0.099435,0.18336,0.166248,0.218649,0.284648
0.006539,0.103398,0.04028,0.17544,0.038542,0.123622,0.19344,0.179464,0.199174,0.275811
0.017778,0.081969,0.020648,0.102583,0.052517,0.134779,0.121909,0.132332,0.186314,0.239543
0.090893,0.038953,0.12719,0.108255,0.200646,0.164152,0.134272,0.240116,0.301226,0.321209
0.016821,0.047006,0.164821,0.105155,0.254786,0.28123,0.171656,0.27148,0.346459,0.341945
2.7e-05,0.17523,0.171852,0.078104,0.162773,0.114038,0.175881,0.245412,0.262446,0.342385
0.016752,0.157264,0.072417,0.095884,0.108027,0.144819,0.170007,0.199047,0.169983,0.333401
0.024865,0.094974,0.118147,0.059389,0.128777,0.211111,0.124071,0.259398,0.239646,0.260643
0.035345,0.026181,0.021591,0.080031,0.053932,0.113412,0.118524,0.14651,0.184618,0.154598
0.000967,0.078245,0.046989,0.151156,0.062665,0.124897,0.095621,0.183176,0.230989,0.238211
0.006396,0.011315,0.129538,0.154917,0.035371,0.102524,0.224759,0.151246,0.194243,0.289225
0.018457,0.139627,0.084913,0.052539,0.126528,0.129689,0.115642,0.217234,0.200354,0.193962
0.007647,0.035038,0.088764,0.011291,0.046533,0.096267,0.054369,0.180381,0.172427,0.11074
0.002886,0.051918,0.005446,0.113199,0.125992,0.13474,0.163342,0.143413,0.151944,0.314499
0.002298,0.018699,0.211639,0.121579,0.148061,0.100794,0.20335,0.164377,0.185183,0.276205
0.005225,0.08761,0.024078,0.159731,0.106085,0.089638,0.101867,0.154042,0.19043,0.223007
0.038765,0.026313,0.054334,0.081342,0.030469,0.07974,0.14157,0.179127,0.224509,0.27476
0.010646,0.070738,0.079976,0.067086,0.134867,0.118255,0.146315,0.205477,0.082095,0.257107
0.018328,0.098702,0.141669,0.132381,0.051199,0.076439,0.205388,0.145497,0.188657,0.318662
0.00678,0.080873,0.092775,0.116344,0.109949,0.127707,0.199299,0.281778,0.284613,0.285916
0.030911,0.026526,0.040558,0.028972,0.029844,0.04636,0.029824,0.11589,0.152845,0.16534
0.005111,0.026623,0.021494,0.060853,0.149065,0.163244,0.127696,0.163914,0.143507,0.197219
0.006329,0.002726,0.06758,0.067368,0.083635,0.070296,0.093255,0.183099,0.178605,0.213188
0.002331,0.036035,0.029814,0.101933,0.101471,0.209944,0.098357,0.146463,0.251275,0.218893
0.008141,0.061351,0.019196,0.097774,0.139552,0.137498,0.163556,0.151534,0.201932,0.214367
0.046281,0.038025,0.125529,0.107737,0.097639,0.106982,0.144913,0.135932,0.150734,0.235843
0.039078,0.067962,0.129394,0.081771,0.076519,0.144092,0.210833,0.184469,0.195113,0.240439
0.005984,0.115154,0.082491,0.095695,0.145938,0.090703,0.192716,0.184124,0.168089,0.207931
0.013112,0.062362,0.054974,0.062302,0.100083,0.14466,0.141294,0.142533,0.180055,0.247406
0.022686,0.063717,0.042211,0.14188,0.110981,0.160965,0.163522,0.117293,0.170026,0.235396
0.009492,0.145862,0.057351,0.042484,0.147355,0.15024,0.101491,0.244661,0.210306,0.226839
0.017924,0.051245,0.102856,0.121607,0.121089,0.238494,0.19074,0.262504,0.212552,0.238528
0.005975,0.144368,0.027121,0.110522,0.181228,0.135,0.183235,0.218584,0.239626,0.236277
0.007439,0.053837,0.072845,0.088028,0.209554,0.159683,0.182244,0.221285,0.246832,0.287782
0.000238,0.108945,0.022851,0.077354,0.202835,0.157606,0.181745,0.16623,0.198176,0.313114
0.038416,0.133161,0.069701,0.073362,0.143196,0.153734,0.147029,0.26008,0.258285,0.224155
0.016034,0.010832,0.092988,0.086762,0.076745,0.128668,0.138439,0.138541,0.199254,0.246178
0.01104,0.026815,0.055073,0.133363,0.041866,0.135805,0.150284,0.234582,0.251415,0.240611
0.016271,0.144458,0.060065,0.104139,0.100735,0.215784,0.141627,0.192666,0.252243,0.251312
6e-06,0.061071,0.066533,0.053964,0.114595,0.164665,0.106044,0.245398,0.217335,0.211552
1e-05,0.036351,0.076118,0.078617,0.051294,0.108682,0.040551,0.160444,0.165385,0.143151
