PCA,stepBIC,regsubsetss.fwd.indiv,stepAIC,PLSR,MARS,SVM.default,RandomForest,Lasso
0.026764,0.039204,0.039204,0.046744,0.048461,0.107666,0.107767,0.192707,NA
0.030271,0.040067,0.040067,0.038471,0.039244,0.073446,0.092057,0.15122,0.010161
0.038375,0.040652,0.052234,0.048535,0.049632,0.089352,0.114168,0.163417,0.028164
0.029184,0.04531,0.04531,0.054398,0.054379,0.081771,0.107499,0.194848,0.021376
0.036796,0.043899,0.043899,0.060261,0.061659,0.080045,0.104714,0.143173,0.026631
0.027839,0.032127,0.032127,0.044716,0.046351,0.099294,0.110557,0.184373,0.015042
0.030103,0.03749,0.03749,0.035936,0.036953,0.066749,0.079257,0.141164,0.04262
0.040762,0.055852,0.055852,0.055852,0.056491,0.076944,0.078599,0.145332,0.022786
0.049569,0.056666,0.056666,0.056666,0.058273,0.089563,0.088777,0.175748,0.061789
0.043999,0.052492,0.052492,0.052492,0.054307,0.083353,0.085026,0.154795,NA
0.021875,0.031509,0.047505,0.047505,0.05015,0.094126,0.116505,0.163561,0.017846
0.033054,0.05006,0.05006,0.049088,0.049308,0.090051,0.09345,0.154105,0.04595
0.037326,0.035897,0.035897,0.031912,0.032007,0.068593,0.065488,0.146604,0.044227
0.035477,0.039097,0.039097,0.048764,0.051064,0.104866,0.105297,0.18762,0.021867
0.024258,0.032691,0.032691,0.032691,0.034735,0.077271,0.089997,0.186851,0.029567
0.032229,0.049031,0.049031,0.057175,0.057431,0.084627,0.093582,0.156714,0.039259
0.026427,0.032461,0.032461,0.032461,0.033317,0.057521,0.070699,0.144825,0.036836
0.032236,0.045641,0.045641,0.045641,0.046454,0.069727,0.09245,0.170126,0.048441
0.025795,0.040441,0.040441,0.046375,0.045912,0.092521,0.108526,0.178227,0.032318
0.02757,0.032915,0.032915,0.032646,0.033432,0.065907,0.065353,0.10042,0.031663
0.047087,0.059494,0.066891,0.066891,0.067943,0.094699,0.094182,0.155801,NA
0.027994,0.03736,0.054606,0.054606,0.05678,0.108638,0.099029,0.173828,0.032745
0.021878,0.022907,0.022907,0.032944,0.034348,0.05903,0.07267,0.13472,0.01346
0.028463,0.04259,0.04259,0.048088,0.0494,0.091971,0.085022,0.160608,0.043365
0.028287,0.035219,0.035219,0.047472,0.047494,0.081554,0.108384,0.153748,NA
0.048297,0.05162,0.05162,0.066832,0.067894,0.103304,0.11487,0.165731,0.052854
0.025811,0.038873,0.038873,0.036786,0.037747,0.082571,0.089433,0.180894,0.027423
0.030212,0.041129,0.041129,0.041129,0.042287,0.072819,0.083653,0.159354,0.016221
0.013595,0.024362,0.024362,0.024362,0.02537,0.057313,0.061298,0.118037,0.019346
0.036437,0.054313,0.054313,0.056625,0.056805,0.089848,0.089307,0.156764,0.057984
0.032163,0.033597,0.039571,0.039571,0.040022,0.087275,0.098117,0.157433,0.035015
0.031413,0.043351,0.043351,0.050332,0.052598,0.104521,0.103206,0.18476,0.043085
0.010513,0.021491,0.021491,0.021491,0.022194,0.06072,0.062681,0.140641,0.020631
0.038356,0.045866,0.045866,0.044224,0.045183,0.079049,0.093228,0.116016,0.019629
0.038433,0.050329,0.050329,0.055451,0.05667,0.084621,0.114157,0.168048,NA
0.034166,0.03219,0.03219,0.03219,0.033084,0.063913,0.086595,0.143184,NA
0.027158,0.038102,0.038102,0.038102,0.038681,0.078694,0.086893,0.184614,0.027008
0.028502,0.048721,0.048721,0.048227,0.048636,0.099173,0.094616,0.141525,0.026373
0.019192,0.034573,0.034573,0.034168,0.034308,0.076173,0.062799,0.152468,0.03201
0.031002,0.045717,0.045717,0.045717,0.047937,0.09903,0.105706,0.176607,0.041069
0.034222,0.039517,0.052372,0.052372,0.054672,0.108965,0.115247,0.165379,NA
0.031432,0.032079,0.041024,0.039214,0.038837,0.088159,0.084006,0.151706,0.032676
0.022459,0.034085,0.048016,0.048016,0.049671,0.080482,0.093638,0.169417,0.023702
0.063395,0.071552,0.071552,0.069001,0.069883,0.113028,0.127494,0.165384,NA
0.031087,0.038024,0.038024,0.054376,0.056514,0.078231,0.104261,0.191773,0.028346
0.02167,0.043408,0.043408,0.038185,0.039364,0.102875,0.094132,0.200194,0.035215
0.031046,0.038195,0.038195,0.051051,0.051639,0.076142,0.100984,0.154234,0.030021
0.026695,0.035157,0.035157,0.041354,0.042844,0.071627,0.079754,0.13749,0.037483
0.028423,0.039016,0.039016,0.039016,0.040431,0.106191,0.088498,0.163755,0.031356
0.031617,0.0344,0.042005,0.042005,0.043325,0.08891,0.090874,0.137438,0.015634
0.035403,0.044682,0.044682,0.037728,0.038495,0.090103,0.091065,0.164702,0.040691
0.016814,0.03139,0.03139,0.03139,0.031803,0.068784,0.067302,0.139707,0.02609
0.041236,0.05097,0.05097,0.064165,0.065937,0.121876,0.122933,0.163152,0.03107
0.028793,0.035491,0.035491,0.047996,0.049406,0.09943,0.091276,0.193219,NA
0.015175,0.026243,0.026243,0.031615,0.032801,0.079896,0.077618,0.158961,0.032347
0.019693,0.030904,0.030904,0.036286,0.036971,0.083177,0.099351,0.151078,0.024018
0.020045,0.031459,0.031459,0.038673,0.039789,0.11006,0.09845,0.170332,0.012564
0.030732,0.033307,0.033307,0.046512,0.047947,0.084606,0.104192,0.120721,0.020834
0.027319,0.033264,0.033264,0.031371,0.031967,0.064788,0.067635,0.150126,0.029666
0.036427,0.050793,0.050793,0.058862,0.059729,0.086415,0.112122,0.175323,0.022067
0.026971,0.038767,0.038767,0.038767,0.040417,0.064572,0.091137,0.142594,0.030154
0.030636,0.033438,0.042145,0.042145,0.043761,0.080053,0.093279,0.201265,NA
0.030795,0.041271,0.041271,0.041271,0.042861,0.076368,0.091235,0.143869,0.014728
0.024295,0.038627,0.038627,0.038627,0.040436,0.072361,0.071903,0.109346,0.012169
0.029086,0.049542,0.049542,0.046419,0.047767,0.088488,0.092812,0.132506,0.03358
0.027146,0.04365,0.04365,0.04365,0.044966,0.085932,0.088837,0.134823,0.026342
0.040187,0.055038,0.055038,0.053918,0.054346,0.096324,0.118852,0.191976,0.042302
0.038161,0.037774,0.045474,0.041595,0.042413,0.080118,0.091627,0.179494,0.018702
0.026767,0.059613,0.059613,0.055849,0.057939,0.091686,0.091975,0.167853,NA
0.03043,0.036713,0.036713,0.048395,0.049414,0.093317,0.094161,0.181957,0.037098
0.026064,0.030158,0.030158,0.041858,0.043534,0.086082,0.090186,0.133623,0.026478
0.030143,0.038317,0.038317,0.038317,0.040193,0.076081,0.080062,0.142925,0.038423
0.043794,0.048429,0.048429,0.064043,0.063609,0.108384,0.125428,0.189003,NA
0.035298,0.048418,0.048418,0.048418,0.050564,0.085845,0.099926,0.130357,0.039589
0.033251,0.042343,0.042343,0.042343,0.043082,0.090879,0.098004,0.153961,0.037529
0.03405,0.044492,0.044492,0.04363,0.044246,0.080804,0.083892,0.163749,0.02149
0.046844,0.054909,0.063409,0.063409,0.065938,0.103604,0.107358,0.180929,0.045205
0.026668,0.042398,0.042398,0.042398,0.043501,0.106649,0.111103,0.19861,0.01881
0.028634,0.04686,0.04686,0.045965,0.045988,0.099244,0.096846,0.19055,0.022887
0.033119,0.056357,0.056357,0.049867,0.051217,0.098464,0.082973,0.175875,0.045375
0.018933,0.023876,0.023876,0.023876,0.025287,0.065657,0.065238,0.153305,0.02419
0.021219,0.031536,0.031536,0.037621,0.039492,0.081707,0.087764,0.179528,0.028876
0.038422,0.05648,0.05648,0.05648,0.058598,0.100124,0.104718,0.143618,0.051791
0.03585,0.041378,0.041378,0.040645,0.041637,0.103959,0.104571,0.16507,0.018328
0.01704,0.026142,0.026142,0.026025,0.02673,0.079578,0.074812,0.125841,0.025349
0.016561,0.0262,0.0262,0.031753,0.032149,0.080147,0.092875,0.156006,0.02322
0.035819,0.054419,0.054419,0.054419,0.053489,0.086215,0.114891,0.169756,0.02092
0.058941,0.073552,0.073552,0.091257,0.090519,0.095278,0.114609,0.178509,NA
0.024741,0.03579,0.03579,0.048128,0.049211,0.076193,0.084381,0.150241,0.013257
0.021599,0.03241,0.03241,0.046346,0.046948,0.092916,0.09914,0.176289,0.011681
0.018111,0.024006,0.024006,0.02377,0.024283,0.056501,0.069405,0.131339,0.021362
0.020108,0.031428,0.031428,0.036317,0.037181,0.079458,0.105257,0.15139,0.016374
0.036879,0.050398,0.050398,0.049507,0.050311,0.09778,0.111479,0.191983,0.023986
0.035047,0.037754,0.037754,0.037368,0.037712,0.095416,0.102681,0.203587,0.029256
0.015894,0.019115,0.019115,0.028729,0.029507,0.074632,0.082967,0.145503,0.02094
0.026582,0.036597,0.055018,0.055018,0.056116,0.081554,0.090807,0.171954,0.038239
0.045704,0.060895,0.060895,0.055367,0.055484,0.097018,0.092258,0.224851,0.031319
0.030351,0.043365,0.043365,0.044967,0.04596,0.089405,0.111276,0.16992,0.027426
0.045362,0.060859,0.060859,0.060859,0.061699,0.092403,0.117992,0.189847,0.053884
0.019444,0.034137,0.034137,0.033217,0.034019,0.05526,0.070295,0.137351,0.01672
0.01721,0.023732,0.03431,0.031289,0.031325,0.060796,0.085435,0.160943,0.024692
0.035232,0.050864,0.050864,0.050864,0.052741,0.099883,0.102192,0.171237,NA
0.036456,0.05701,0.05701,0.05701,0.059057,0.087275,0.095872,0.162942,NA
0.031293,0.047216,0.047216,0.047216,0.048084,0.100291,0.091698,0.190939,NA
0.037968,0.046407,0.046407,0.046407,0.047943,0.086359,0.106639,0.179505,0.027832
0.027615,0.035707,0.035707,0.035707,0.035892,0.065639,0.083493,0.13526,0.032477
0.017074,0.029278,0.029278,0.032943,0.033065,0.080767,0.079105,0.149355,0.007536
0.039794,0.040949,0.052457,0.049748,0.050654,0.087139,0.089864,0.171751,0.04618
0.039679,0.061688,0.061688,0.061688,0.063533,0.098167,0.093665,0.179522,0.051806
0.03289,0.040465,0.040465,0.040465,0.042069,0.072607,0.080822,0.146678,0.032175
0.028314,0.045242,0.045242,0.042384,0.043256,0.100486,0.090029,0.173315,0.035915
0.025288,0.03787,0.03787,0.03787,0.039089,0.053439,0.080802,0.14436,0.027
0.048234,0.035505,0.035505,0.035505,0.035411,0.071838,0.085286,0.158963,0.054665
0.018075,0.021115,0.021115,0.032691,0.033518,0.084819,0.091056,0.152357,0.005084
0.023313,0.035533,0.035533,0.039897,0.040472,0.090765,0.103113,0.180665,0.031042
0.01455,0.026914,0.026914,0.026914,0.028687,0.052269,0.067908,0.12351,0.023165
0.036753,0.050089,0.050089,0.057792,0.058489,0.08747,0.110736,0.155559,0.016216
0.021131,0.030172,0.030172,0.03577,0.036081,0.071385,0.088858,0.164199,0.012643
0.027022,0.04599,0.04599,0.04599,0.047539,0.08229,0.090521,0.155963,0.036361
0.024226,0.025778,0.036143,0.036143,0.037185,0.088115,0.085243,0.174153,0.022147
0.024547,0.038855,0.038855,0.045069,0.046332,0.079259,0.093578,0.169196,NA
0.015987,0.018251,0.018251,0.018251,0.019113,0.056498,0.064081,0.14976,0.01846
0.032078,0.042621,0.042621,0.048755,0.050539,0.095833,0.122295,0.186627,NA
0.019683,0.029072,0.029072,0.028613,0.029614,0.073669,0.080741,0.128391,0.027291
0.016784,0.031819,0.031819,0.031819,0.033298,0.073401,0.071229,0.106261,0.026507
0.027759,0.044753,0.044753,0.038785,0.04002,0.081695,0.087131,0.190523,0.042131
0.027713,0.04019,0.04019,0.040387,0.04049,0.090025,0.091689,0.178819,0.018179
0.024307,0.035032,0.035032,0.039247,0.039309,0.064329,0.077139,0.135624,0.015622
0.015343,0.016715,0.016715,0.026862,0.027971,0.067623,0.070102,0.119639,0.017749
0.029034,0.038713,0.038713,0.038713,0.040084,0.059136,0.080553,0.140406,0.017281
0.02081,0.025822,0.025822,0.025822,0.026859,0.068503,0.076082,0.159753,0.010669
0.031511,0.047421,0.047421,0.047421,0.048143,0.101458,0.11359,0.174587,0.037415
0.024955,0.029885,0.029885,0.029885,0.030305,0.075788,0.085104,0.138793,0.008996
0.040134,0.049819,0.049819,0.047514,0.047571,0.102233,0.098083,0.178521,0.022464
0.029624,0.035365,0.035365,0.035365,0.036865,0.074668,0.087109,0.151102,0.016159
0.028324,0.04642,0.04642,0.05372,0.055186,0.091508,0.093473,0.121765,NA
0.055051,0.067609,0.067609,0.060704,0.060992,0.090755,0.090882,0.165363,NA
0.033175,0.042533,0.042533,0.048384,0.049355,0.087113,0.109209,0.133355,0.01942
0.028651,0.032333,0.040903,0.039054,0.03909,0.084905,0.09613,0.177723,0.023543
0.031501,0.039894,0.039894,0.037754,0.038518,0.083222,0.092545,0.128535,0.031112
0.017436,0.02359,0.02359,0.02359,0.025132,0.061649,0.063622,0.109187,0.02101
0.017855,0.040303,0.040303,0.033522,0.033624,0.074138,0.068488,0.149767,0.025044
0.042889,0.048329,0.061237,0.061237,0.0631,0.111757,0.110606,0.18778,0.048894
0.034448,0.046831,0.046831,0.046476,0.047426,0.106067,0.100177,0.149769,0.035036
0.038611,0.045449,0.045449,0.045449,0.047565,0.074153,0.087903,0.169832,0.022224
0.027492,0.043088,0.043088,0.043088,0.044762,0.077669,0.08072,0.148853,0.019305
0.019447,0.025914,0.025914,0.026067,0.026258,0.071461,0.092961,0.154617,0.009477
0.040669,0.051763,0.051763,0.050742,0.051765,0.08657,0.102292,0.142043,0.020775
0.024886,0.04057,0.04057,0.038972,0.040231,0.065677,0.081267,0.14666,0.036932
0.021613,0.030458,0.030458,0.036259,0.037603,0.074898,0.079727,0.148292,0.028567
0.032073,0.03567,0.03567,0.035521,0.035705,0.070725,0.067644,0.145822,0.022264
0.026826,0.033952,0.033952,0.045515,0.046659,0.095836,0.110803,0.182104,0.016021
0.037371,0.045332,0.045332,0.044113,0.044791,0.09866,0.088556,0.172112,0.035624
0.016169,0.024154,0.024154,0.024154,0.024853,0.072321,0.057931,0.150648,0.014941
0.034094,0.055504,0.055504,0.052247,0.053624,0.077145,0.103216,0.126966,0.01939
0.061172,0.073218,0.073218,0.07989,0.081045,0.106181,0.112248,0.211007,NA
0.048,0.051448,0.058972,0.055434,0.055692,0.08965,0.103517,0.191494,0.052916
0.031433,0.032538,0.042063,0.042063,0.043111,0.095208,0.107793,0.194062,0.026787
0.028407,0.038138,0.038138,0.045272,0.046827,0.064695,0.08104,0.142169,0.040754
0.024184,0.031265,0.031265,0.045216,0.045779,0.087167,0.089812,0.14834,0.017033
0.032826,0.058511,0.058511,0.052022,0.052569,0.098453,0.102751,0.179248,0.0523
0.039274,0.045312,0.045312,0.058642,0.06054,0.094164,0.109326,0.184515,0.044138
0.042858,0.059142,0.059142,0.059142,0.060651,0.090388,0.102625,0.158271,0.043482
0.041695,0.067058,0.067058,0.063009,0.06476,0.097742,0.11369,0.151487,0.047075
0.028343,0.04283,0.04283,0.047995,0.049249,0.08823,0.098352,0.163566,0.020947
0.032943,0.03829,0.03829,0.05178,0.054097,0.055925,0.07029,0.144023,0.03478
0.02935,0.040548,0.040548,0.040548,0.042192,0.088396,0.093132,0.138476,0.034811
0.025585,0.046562,0.046562,0.046562,0.046619,0.090235,0.074303,0.123649,0.044343
0.027532,0.046474,0.046474,0.046474,0.048133,0.072527,0.089246,0.144684,0.038808
0.033349,0.042515,0.042515,0.047636,0.04942,0.083827,0.095057,0.130285,0.02335
0.050328,0.059913,0.059913,0.056679,0.057098,0.111135,0.108274,0.182737,0.025315
0.025668,0.031133,0.031133,0.0454,0.047495,0.093666,0.10245,0.140553,0.023607
0.021699,0.033604,0.033604,0.03984,0.041324,0.098429,0.115387,0.190433,0.015283
0.013834,0.024428,0.024428,0.02173,0.022117,0.052623,0.066098,0.131125,0.024466
0.029566,0.046619,0.046619,0.046619,0.048608,0.073731,0.085597,0.182681,0.035533
0.030073,0.041692,0.041692,0.053191,0.054019,0.061268,0.076545,0.153726,NA
0.016899,0.022345,0.022345,0.022345,0.023966,0.057393,0.059337,0.141914,0.023999
0.048136,0.052608,0.052608,0.047039,0.047917,0.079919,0.096554,0.178958,NA
0.021103,0.031817,0.031817,0.0375,0.038961,0.093165,0.10215,0.132643,0.010844
0.024394,0.044367,0.044367,0.053439,0.054312,0.101685,0.104394,0.16577,0.016313
0.024307,0.037626,0.037626,0.044173,0.045694,0.116645,0.089204,0.199485,0.039641
0.030562,0.042775,0.042775,0.048157,0.04931,0.088541,0.108382,0.19232,0.039933
0.064725,0.07828,0.07828,0.087983,0.088999,0.103588,0.128537,0.211505,NA
0.018161,0.032402,0.032402,0.032386,0.032424,0.067805,0.089697,0.142827,0.005143
0.015406,0.021876,0.021876,0.027226,0.028999,0.074369,0.077762,0.149663,0.012938
0.025639,0.031204,0.031204,0.045755,0.04723,0.075926,0.082014,0.170075,0.025785
0.028686,0.03788,0.03788,0.048364,0.048442,0.08751,0.105712,0.164495,0.038579
0.044454,0.062786,0.062786,0.062786,0.06535,0.099759,0.133191,0.210872,0.042621
0.035438,0.040496,0.040496,0.040496,0.041987,0.073594,0.087648,0.162349,NA
0.024608,0.032973,0.032973,0.037462,0.038497,0.078753,0.09257,0.162428,0.028828
0.047226,0.048789,0.048789,0.046103,0.047285,0.087786,0.093974,0.15202,0.037923
0.035704,0.039068,0.039068,0.050568,0.051004,0.09103,0.092718,0.150426,0.019298
0.048845,0.070073,0.070073,0.070073,0.072781,0.10935,0.116057,0.185983,NA
0.045394,0.065963,0.065963,0.075499,0.075797,0.126423,0.139793,0.243347,NA
0.025275,0.04041,0.04041,0.044685,0.045847,0.102145,0.111277,0.153813,NA
0.019449,0.02716,0.02716,0.040939,0.041939,0.079655,0.106653,0.141647,0.004942
0.040223,0.052264,0.052264,0.052264,0.054144,0.091761,0.083897,0.14486,0.033575
0.035904,0.060166,0.060166,0.05891,0.060504,0.079484,0.103423,0.164431,0.025754
0.026556,0.039713,0.039713,0.046302,0.048009,0.08457,0.09613,0.152572,0.021078
0.035126,0.046488,0.046488,0.046488,0.047265,0.094789,0.106527,0.162235,0.020121
0.039101,0.049143,0.049143,0.049143,0.050515,0.08318,0.089545,0.181048,0.050705
0.028393,0.034988,0.034988,0.034988,0.036424,0.093057,0.079189,0.153408,0.035005
0.039284,0.043832,0.043832,0.043037,0.043863,0.073199,0.084865,0.153424,0.046459
0.028863,0.035399,0.035399,0.034938,0.034939,0.060221,0.08327,0.134785,0.020971
0.042795,0.045495,0.058074,0.052721,0.053762,0.085147,0.097042,0.183458,0.021579
0.022817,0.035071,0.035071,0.04202,0.044049,0.083539,0.096879,0.175101,0.013861
0.023224,0.033558,0.033558,0.033558,0.034899,0.068898,0.081172,0.14819,NA
0.032818,0.041678,0.041678,0.039368,0.039174,0.076043,0.084483,0.161373,0.037664
0.053809,0.073347,0.073347,0.073347,0.075437,0.091067,0.112234,0.170452,NA
0.03573,0.064797,0.064797,0.058451,0.059696,0.084039,0.085118,0.152834,0.049707
0.038761,0.057323,0.057323,0.057323,0.058107,0.099993,0.123015,0.215148,0.016725
0.022058,0.027497,0.027497,0.039673,0.041301,0.096199,0.118355,0.19304,0.013972
0.018643,0.02043,0.02043,0.030153,0.030651,0.074334,0.089352,0.147856,0.020597
0.044085,0.057055,0.057055,0.057383,0.058316,0.09286,0.107548,0.152824,NA
0.04026,0.050301,0.050301,0.058379,0.058606,0.092364,0.1,0.165968,NA
0.027963,0.034446,0.034446,0.040382,0.04168,0.075559,0.086072,0.147802,0.0342
0.019732,0.025381,0.025381,0.038136,0.039277,0.079949,0.088972,0.149419,0.021179
0.039307,0.051052,0.051052,0.058254,0.059851,0.119902,0.128338,0.17878,0.049625
0.027016,0.050148,0.050148,0.049302,0.050522,0.104589,0.102234,0.160216,0.021772
0.03181,0.052964,0.052964,0.04469,0.044773,0.08937,0.091149,0.167419,0.018981
0.040657,0.042297,0.050011,0.050011,0.050709,0.095491,0.109739,0.150555,0.016904
0.050245,0.054417,0.067004,0.067004,0.069663,0.07384,0.088745,0.139879,0.048319
0.038636,0.045557,0.045557,0.045557,0.047097,0.088286,0.087208,0.142106,0.024754
0.016225,0.03362,0.03362,0.029511,0.030346,0.061961,0.067099,0.137664,0.026943
0.021623,0.033548,0.033548,0.032316,0.033191,0.073328,0.075211,0.14469,0.030097
0.023829,0.030213,0.030213,0.035167,0.035972,0.079476,0.085249,0.156243,0.029068
0.041606,0.043425,0.053083,0.052102,0.052585,0.099946,0.117188,0.160558,NA
0.028757,0.040708,0.054199,0.052227,0.052949,0.095964,0.099149,0.150686,0.037035
0.01074,0.021531,0.021531,0.022502,0.027748,0.080979,0.073804,0.137766,0.016007
0.021017,0.036164,0.036164,0.044354,0.046004,0.089967,0.098164,0.152338,0.015777
0.027212,0.040601,0.040601,0.047468,0.048206,0.100871,0.109572,0.159496,0.01565
0.033999,0.045637,0.045637,0.045637,0.046554,0.070651,0.094497,0.148025,0.037659
0.03123,0.040677,0.040677,0.038906,0.040223,0.079774,0.057861,0.146966,0.035286
0.026328,0.032674,0.035112,0.03234,0.032343,0.063517,0.067093,0.142971,0.030277
0.017645,0.020142,0.020142,0.016877,0.017457,0.056453,0.064045,0.142421,0.017152
0.036757,0.048578,0.048578,0.059338,0.060715,0.10237,0.107498,0.185476,0.040513
0.020139,0.03382,0.03382,0.04161,0.041947,0.070052,0.098126,0.16606,0.01079
0.03754,0.042146,0.053541,0.047246,0.046801,0.105915,0.102087,0.171687,0.020919
0.023896,0.029561,0.029561,0.029561,0.030892,0.062603,0.068396,0.168607,0.025709
0.020004,0.025269,0.025269,0.024625,0.024973,0.081719,0.079846,0.158145,0.020184
0.043959,0.064621,0.064621,0.071709,0.073844,0.127996,0.119435,0.197705,NA
0.028615,0.050178,0.050178,0.048097,0.049456,0.095815,0.096302,0.176624,0.032359
0.02374,0.03264,0.03264,0.03264,0.033686,0.082109,0.091702,0.153854,0.029399
0.038437,0.056218,0.056218,0.056218,0.057271,0.109224,0.108026,0.177827,0.018575
0.035403,0.0499,0.0499,0.0499,0.052179,0.111156,0.131967,0.178383,0.02343
0.015283,0.019334,0.019334,0.03042,0.031259,0.069202,0.094476,0.146779,NA
0.03966,0.042158,0.049627,0.049627,0.050685,0.096851,0.108183,0.211964,0.017323
0.02888,0.040603,0.040603,0.040603,0.042096,0.077006,0.086413,0.149732,0.03017
0.022259,0.022629,0.033464,0.029995,0.030984,0.063615,0.075942,0.149512,0.021066
0.020614,0.028651,0.028651,0.028651,0.029586,0.053852,0.060186,0.138222,0.028085
0.033713,0.035059,0.035059,0.032107,0.032705,0.082372,0.084954,0.156066,0.026915
0.026335,0.037883,0.037883,0.037883,0.03836,0.090705,0.090256,0.17951,0.030458
0.025124,0.03297,0.04208,0.039805,0.041088,0.081175,0.063102,0.144983,0.035538
0.022743,0.040357,0.053365,0.04995,0.05177,0.099293,0.10061,0.161082,NA
0.041925,0.04584,0.04584,0.062706,0.063626,0.074204,0.094447,0.138918,0.019663
0.037589,0.053754,0.053754,0.053288,0.054014,0.093035,0.08848,0.155844,0.049179
0.026409,0.040667,0.040667,0.037255,0.037346,0.078999,0.076987,0.152026,0.039856
0.02304,0.036403,0.036403,0.040195,0.040262,0.077767,0.083055,0.124857,0.032057
0.035234,0.051609,0.051609,0.051609,0.053389,0.088238,0.096618,0.174158,0.044323
0.033563,0.040971,0.040971,0.04027,0.040999,0.075281,0.077844,0.174748,0.036231
0.037776,0.056427,0.056427,0.056427,0.05844,0.089569,0.098739,0.160195,0.050561
0.031709,0.034989,0.034989,0.034989,0.036559,0.070766,0.083017,0.14991,0.024205
0.019366,0.029073,0.029073,0.028399,0.029048,0.072112,0.079327,0.147321,0.025208
0.020047,0.029956,0.029956,0.027361,0.027906,0.069668,0.077866,0.150053,NA
0.030113,0.032604,0.035213,0.035213,0.036931,0.08085,0.091462,0.174903,0.030019
0.035149,0.03796,0.03796,0.035066,0.03579,0.070751,0.081546,0.157544,0.031987
0.033647,0.036349,0.049852,0.049852,0.051647,0.086244,0.096812,0.174339,NA
0.030194,0.0494,0.0494,0.047987,0.048642,0.056598,0.087207,0.15178,0.035551
0.024981,0.043601,0.043601,0.043601,0.04466,0.0938,0.114113,0.170466,0.036172
0.040274,0.059041,0.059041,0.059041,0.061573,0.077241,0.102268,0.147163,0.02347
0.039904,0.052837,0.052837,0.06016,0.060668,0.089798,0.104418,0.150368,0.037979
0.052237,0.083998,0.083998,0.065299,0.065492,0.093113,0.091592,0.171533,NA
0.056541,0.078171,0.078171,0.078171,0.077439,0.11986,0.114865,0.154676,NA
0.022254,0.036434,0.036434,0.043763,0.045023,0.092754,0.082243,0.170472,0.02204
0.042408,0.037593,0.042337,0.037556,0.038096,0.065142,0.077239,0.165902,NA
0.027457,0.033798,0.045089,0.045089,0.04728,0.079659,0.096811,0.163197,0.035416
0.026172,0.026517,0.035264,0.035215,0.03569,0.070238,0.091428,0.17925,0.027848
0.029525,0.035296,0.035296,0.0496,0.049023,0.07298,0.091596,0.134279,0.03539
0.032533,0.035128,0.035128,0.035128,0.036125,0.08775,0.087366,0.151475,0.017199
0.035732,0.048668,0.048668,0.05755,0.058458,0.094877,0.107307,0.205802,NA
0.019734,0.03007,0.03007,0.035976,0.037518,0.07931,0.091912,0.129923,0.0178
0.039809,0.040857,0.040857,0.040857,0.042276,0.073026,0.085348,0.168366,0.022791
0.037709,0.051457,0.051457,0.051457,0.053248,0.1027,0.08944,0.151873,0.043722
0.037549,0.053936,0.053936,0.052901,0.05427,0.103542,0.100357,0.169735,0.034012
0.023566,0.042623,0.042623,0.042623,0.042233,0.074518,0.077679,0.167377,0.021717
0.023494,0.033159,0.033159,0.032142,0.032927,0.0778,0.078801,0.139776,0.028106
0.025703,0.030519,0.030519,0.042904,0.04386,0.096416,0.10796,0.141909,NA
0.027349,0.031541,0.03754,0.03675,0.037658,0.087691,0.082923,0.142767,0.033387
0.029193,0.035277,0.035277,0.048029,0.050122,0.108042,0.120668,0.155915,NA
0.048059,0.051554,0.051554,0.062986,0.064505,0.102507,0.092217,0.184217,0.049829
0.024242,0.032048,0.032048,0.032048,0.033151,0.083731,0.087015,0.142908,0.015698
0.034855,0.039354,0.039354,0.05195,0.053027,0.0763,0.090603,0.159289,NA
0.026761,0.04579,0.04579,0.039267,0.039346,0.080505,0.082923,0.148812,0.015674
0.035124,0.05221,0.05221,0.05221,0.052467,0.087611,0.092198,0.153241,0.024333
0.031642,0.048191,0.048191,0.04589,0.047071,0.076996,0.083228,0.165202,0.02859
0.036804,0.040876,0.050555,0.050555,0.050548,0.086371,0.084144,0.167478,0.041796
0.019158,0.028921,0.042066,0.042066,0.043532,0.095605,0.086341,0.164916,0.027601
0.033521,0.038079,0.038079,0.052105,0.053663,0.096277,0.091609,0.14138,NA
0.028757,0.041956,0.041956,0.040916,0.04137,0.079296,0.084549,0.163113,0.019005
0.038419,0.052255,0.052255,0.052255,0.054356,0.104119,0.12076,0.192235,0.029482
0.019788,0.033441,0.033441,0.031457,0.031512,0.074573,0.071688,0.16137,0.025546
0.025546,0.039266,0.039266,0.047054,0.048583,0.064659,0.098652,0.155727,0.010424
0.043198,0.050444,0.062415,0.059692,0.058677,0.10803,0.111333,0.177816,NA
0.036466,0.040822,0.040822,0.05112,0.053207,0.090659,0.112861,0.156085,0.021134
0.021658,0.02383,0.02383,0.023623,0.024005,0.048075,0.064544,0.118797,0.023408
0.019622,0.031112,0.031112,0.031112,0.03235,0.072344,0.076675,0.143568,0.016634
0.037388,0.048314,0.048314,0.048314,0.048939,0.100519,0.105969,0.161748,0.026323
0.027807,0.046502,0.046502,0.053477,0.054898,0.092711,0.114459,0.197107,0.017937
0.031874,0.047109,0.047109,0.047109,0.048439,0.082155,0.095345,0.197137,0.020178
0.031356,0.046035,0.046035,0.046035,0.046279,0.070686,0.06855,0.154614,0.037687
0.068694,0.073475,0.073475,0.07136,0.072403,0.118909,0.122933,0.192051,0.062403
0.049011,0.061165,0.061165,0.051442,0.051313,0.091876,0.105183,0.164385,0.034715
0.036311,0.040472,0.051539,0.044128,0.044484,0.089488,0.101593,0.1592,NA
0.049192,0.068966,0.068966,0.06477,0.064876,0.115676,0.122782,0.198253,0.065422
0.033622,0.043244,0.043244,0.043244,0.044155,0.087516,0.090832,0.137026,0.032058
0.024371,0.032642,0.032642,0.038521,0.039903,0.073742,0.076937,0.158121,0.031104
0.04237,0.048807,0.048807,0.064436,0.065467,0.082089,0.110883,0.164357,0.024495
0.019465,0.028767,0.028767,0.034761,0.036709,0.084307,0.098199,0.174215,0.029759
0.022749,0.031058,0.031058,0.028063,0.028111,0.064909,0.070715,0.139237,0.016047
0.029489,0.040576,0.040576,0.049004,0.04902,0.092764,0.104563,0.163029,0.013685
0.011986,0.015838,0.023843,0.02051,0.020511,0.059476,0.076038,0.134762,0.010243
0.023581,0.034206,0.034206,0.040523,0.041395,0.072514,0.086006,0.167454,0.013282
0.029642,0.03399,0.03399,0.031259,0.031929,0.072455,0.074253,0.146728,0.032818
0.029403,0.040783,0.040783,0.046824,0.046785,0.106609,0.119111,0.173123,0.02342
0.027415,0.032642,0.032642,0.044975,0.045916,0.101476,0.115353,0.200523,NA
0.044399,0.05763,0.05763,0.063686,0.064648,0.103698,0.115344,0.189848,0.026981
0.023578,0.041281,0.041281,0.040412,0.041344,0.083342,0.083521,0.191442,0.012498
0.049161,0.054915,0.054915,0.053151,0.053982,0.0902,0.115222,0.14852,0.03358
0.028087,0.034936,0.034936,0.034936,0.035462,0.068686,0.083312,0.152521,0.032833
0.01964,0.040366,0.040366,0.035575,0.036773,0.087679,0.088665,0.205585,0.020629
0.030224,0.04319,0.04319,0.049606,0.050277,0.074303,0.087895,0.168271,0.037948
0.037598,0.051341,0.051341,0.060159,0.061295,0.079319,0.099659,0.13978,0.028791
0.026641,0.03828,0.03828,0.03828,0.040034,0.088689,0.111601,0.184984,0.015625
0.030269,0.037797,0.049254,0.045373,0.045384,0.078832,0.105057,0.191323,0.012893
0.035161,0.036727,0.047225,0.046983,0.047822,0.081564,0.091277,0.147086,0.032639
0.044274,0.046331,0.058765,0.058765,0.060658,0.095162,0.096536,0.170997,NA
0.03528,0.051978,0.051978,0.050251,0.050873,0.089542,0.103098,0.147806,0.014942
0.037021,0.040095,0.049238,0.049238,0.051352,0.108449,0.099341,0.201673,0.022015
0.044502,0.060465,0.060465,0.060465,0.06143,0.111566,0.121852,0.206419,0.026813
0.032334,0.043718,0.043718,0.043718,0.045476,0.07611,0.097465,0.197366,0.038551
0.037968,0.053436,0.053436,0.053436,0.055659,0.08331,0.112123,0.167273,NA
0.019856,0.035467,0.035467,0.034094,0.034126,0.078047,0.077103,0.163899,0.023045
0.027547,0.039359,0.039359,0.039359,0.040566,0.090648,0.082592,0.131975,0.022869
0.034761,0.033011,0.037428,0.036164,0.036975,0.09964,0.092913,0.180612,0.030047
0.029437,0.040017,0.040017,0.039101,0.039175,0.095895,0.091835,0.160381,0.029678
0.025423,0.03839,0.03839,0.03839,0.040527,0.076868,0.075805,0.139618,0.030629
0.036157,0.050153,0.050153,0.057192,0.058632,0.102759,0.104928,0.141672,0.026782
0.030298,0.043139,0.043139,0.04027,0.041287,0.086003,0.077733,0.152113,NA
0.038293,0.051264,0.054514,0.052235,0.05315,0.114708,0.105981,0.20019,0.037134
0.046222,0.052242,0.052242,0.052242,0.053769,0.098315,0.106569,0.183997,NA
0.0273,0.04594,0.04594,0.053317,0.054444,0.079819,0.08446,0.158365,0.042762
0.040515,0.051475,0.051475,0.049281,0.050206,0.062363,0.093142,0.149226,0.035136
0.012171,0.014811,0.024642,0.021788,0.022151,0.063928,0.072151,0.13607,0.01169
0.017852,0.022888,0.022888,0.033568,0.03353,0.088682,0.105351,0.151546,0.0072
0.025901,0.028314,0.040109,0.040109,0.041216,0.062892,0.083885,0.145543,0.023221
0.024708,0.038203,0.038203,0.041558,0.042655,0.07649,0.081103,0.153733,0.036886
0.045634,0.049603,0.048978,0.048978,0.049665,0.084475,0.090556,0.151762,0.051214
0.018501,0.023075,0.023075,0.034968,0.036157,0.074318,0.098829,0.179818,0.014638
0.028085,0.042084,0.042084,0.042084,0.044115,0.085787,0.106478,0.144562,NA
0.033046,0.041376,0.041376,0.041376,0.042794,0.082992,0.082814,0.164117,0.032861
0.018912,0.031205,0.031205,0.029111,0.030079,0.084583,0.076987,0.166181,0.023074
0.053097,0.06012,0.06012,0.074447,0.074318,0.099051,0.126502,0.175983,NA
0.024901,0.037723,0.037723,0.045588,0.045898,0.110076,0.098372,0.151819,0.039823
0.031049,0.043002,0.043002,0.048647,0.049679,0.08459,0.088423,0.145991,0.044811
0.020656,0.03829,0.03829,0.031381,0.032632,0.068249,0.073022,0.156182,0.038576
0.023053,0.033426,0.033426,0.033426,0.034776,0.062558,0.084996,0.144971,0.026717
0.042461,0.049734,0.049734,0.048798,0.049809,0.084665,0.087471,0.151202,0.044655
0.043821,0.063526,0.063526,0.078723,0.079109,0.110233,0.112147,0.187407,0.057416
0.035222,0.038588,0.045081,0.038721,0.038817,0.067703,0.073196,0.123068,0.0441
0.022242,0.0337,0.0337,0.0337,0.035008,0.05723,0.098468,0.167785,0.020297
0.026854,0.033985,0.033985,0.04927,0.050558,0.0953,0.102441,0.153455,0.013684
0.026233,0.043097,0.043097,0.040824,0.041697,0.067366,0.097482,0.17335,0.026251
0.04643,0.0583,0.0583,0.055971,0.057538,0.079881,0.071925,0.145284,0.070122
0.048243,0.052734,0.052734,0.050297,0.051293,0.086239,0.096965,0.186663,0.039279
0.037675,0.038969,0.046365,0.042392,0.042751,0.077105,0.085103,0.167391,0.021423
0.022622,0.03041,0.03041,0.028647,0.029286,0.076236,0.078689,0.142215,0.027705
0.008986,0.023894,0.023894,0.023894,0.024065,0.075546,0.084762,0.164413,0.003558
0.027873,0.04177,0.04177,0.04177,0.042822,0.096412,0.095298,0.164674,0.026239
0.03034,0.042743,0.042743,0.042743,0.04367,0.069171,0.099044,0.127794,0.016402
0.045059,0.043451,0.043451,0.041938,0.04151,0.073435,0.087414,0.149623,0.027496
0.032367,0.03928,0.03928,0.03928,0.040121,0.064086,0.098582,0.150185,0.034045
0.046186,0.052985,0.05506,0.05506,0.054526,0.080059,0.112157,0.190123,0.023534
0.025263,0.041213,0.041213,0.049078,0.050085,0.089322,0.111926,0.157332,0.024856
0.029817,0.04768,0.04768,0.053765,0.055106,0.110447,0.119292,0.161491,0.017831
0.040187,0.061219,0.061219,0.061219,0.063648,0.109685,0.107687,0.191857,NA
0.022739,0.039555,0.039555,0.045848,0.047277,0.083245,0.085626,0.153878,NA
0.026516,0.040361,0.040361,0.034315,0.0344,0.064672,0.078765,0.159694,0.016873
0.021867,0.043912,0.043912,0.039653,0.040935,0.083009,0.072197,0.168271,0.034385
0.028154,0.03461,0.03461,0.05128,0.051773,0.070209,0.094488,0.16164,NA
0.023984,0.038744,0.038744,0.038744,0.039452,0.078085,0.078998,0.162847,0.026225
0.02598,0.041783,0.041783,0.040445,0.041165,0.079092,0.080332,0.136179,0.04216
0.037722,0.048185,0.048185,0.054187,0.054891,0.094987,0.122522,0.183002,0.023054
0.023825,0.038292,0.038292,0.046787,0.049131,0.078493,0.102223,0.166186,0.026838
0.040112,0.043698,0.05349,0.05349,0.055358,0.099197,0.114938,0.209783,0.025623
0.036707,0.040022,0.048421,0.048421,0.049487,0.071397,0.08563,0.163315,0.037156
0.036385,0.049046,0.049046,0.049046,0.050615,0.100099,0.103501,0.168047,NA
0.021358,0.039323,0.039323,0.038236,0.046181,0.078414,0.093945,0.138746,0.012236
0.018963,0.031752,0.031752,0.031752,0.031977,0.07115,0.084485,0.179963,0.021831
0.027329,0.034783,0.034783,0.033937,0.034849,0.05864,0.077332,0.140821,0.030955
0.033191,0.041763,0.041763,0.04737,0.048543,0.102827,0.124268,0.175241,0.040409
0.039715,0.054413,0.054413,0.053951,0.05469,0.083837,0.085844,0.142389,0.052661
0.024462,0.040586,0.040586,0.035347,0.036066,0.077862,0.073125,0.152003,0.032359
0.028733,0.035963,0.035963,0.048538,0.048931,0.076162,0.070285,0.139994,NA
0.033965,0.044444,0.044444,0.044444,0.045341,0.08693,0.105316,0.161518,0.021469
0.031519,0.036522,0.036522,0.050851,0.051608,0.098798,0.115601,0.177903,0.032928
0.024898,0.034037,0.034037,0.031948,0.032917,0.082085,0.083378,0.148779,0.010715
0.020488,0.033732,0.033732,0.033732,0.034602,0.082987,0.08139,0.150774,0.012613
0.025728,0.040898,0.040898,0.047206,0.047682,0.097724,0.101432,0.167252,0.019239
0.028238,0.04401,0.04401,0.052114,0.053554,0.093629,0.103802,0.167193,0.015938
0.041246,0.048777,0.060309,0.057565,0.057622,0.104147,0.110036,0.199445,0.049406
0.037616,0.0453,0.0453,0.059518,0.060248,0.099939,0.105372,0.164272,0.047032
0.031043,0.042117,0.042117,0.049151,0.050899,0.075488,0.11056,0.147854,0.016628
0.029334,0.031771,0.031771,0.043974,0.045141,0.078272,0.097371,0.164733,0.024726
0.027326,0.033231,0.033231,0.045899,0.046824,0.093091,0.1037,0.176964,NA
0.040857,0.051843,0.051843,0.057193,0.059822,0.08806,0.102456,0.197102,NA
0.025145,0.02838,0.038971,0.038971,0.039641,0.071375,0.089771,0.156152,0.014449
0.023367,0.039587,0.039587,0.039587,0.041019,0.090204,0.103046,0.193903,0.01874
0.013318,0.018604,0.027897,0.027897,0.029892,0.080597,0.079611,0.134745,0.017914
0.026732,0.042759,0.042759,0.042759,0.044704,0.050202,0.078362,0.1136,0.01841
0.038309,0.052098,0.052098,0.052098,0.053714,0.090258,0.09286,0.156572,0.046208
0.023491,0.040219,0.040219,0.032926,0.03302,0.074211,0.087914,0.165673,0.031833
0.047843,0.052887,0.065467,0.064227,0.063604,0.089584,0.104715,0.152244,NA
0.029285,0.042118,0.042118,0.042118,0.043714,0.067771,0.107223,0.138986,0.021525
0.032634,0.045797,0.045797,0.053829,0.05539,0.109821,0.111687,0.184003,0.047934
0.027938,0.044506,0.044506,0.043499,0.043508,0.086732,0.098423,0.184874,NA
0.046885,0.065423,0.065423,0.065423,0.066762,0.100207,0.115892,0.183406,NA
0.020408,0.029959,0.029959,0.035802,0.036506,0.070008,0.084488,0.13779,NA
0.035921,0.037823,0.037823,0.052302,0.052831,0.083505,0.098247,0.150303,NA
0.028732,0.040453,0.040453,0.038486,0.03997,0.078054,0.082326,0.161294,NA
0.019737,0.031519,0.031519,0.038536,0.038939,0.083432,0.099395,0.156468,0.02434
0.022267,0.031141,0.031141,0.036115,0.036729,0.081174,0.098241,0.137319,0.007792
0.022555,0.041345,0.041345,0.036128,0.03735,0.078248,0.081232,0.188172,0.035763
0.043698,0.047147,0.049519,0.049519,0.052032,0.07684,0.079581,0.135319,NA
0.051376,0.066524,0.066524,0.072815,0.074439,0.104928,0.123412,0.180336,0.039898
0.031573,0.043477,0.043477,0.043119,0.04413,0.084443,0.083749,0.150461,0.034733
0.043489,0.05361,0.05361,0.05361,0.055237,0.100901,0.102062,0.174408,NA
0.027944,0.042378,0.042378,0.039952,0.040293,0.080967,0.085701,0.163062,0.033395
0.015963,0.025111,0.025111,0.025111,0.026718,0.075368,0.075969,0.152961,0.019044
0.014008,0.027979,0.027979,0.024708,0.02576,0.057116,0.057465,0.121581,0.021672
0.02579,0.03094,0.043533,0.043533,0.045513,0.071807,0.085569,0.166651,0.014712
0.02513,0.043803,0.043803,0.049956,0.05084,0.105487,0.091374,0.16168,0.027386
0.031062,0.047299,0.047299,0.056259,0.057717,0.085766,0.096612,0.151928,0.037284
0.022262,0.039452,0.039452,0.047048,0.048201,0.101937,0.110268,0.173727,0.031224
0.036493,0.050142,0.050142,0.046577,0.04738,0.078009,0.090287,0.172031,0.026586
0.029729,0.036741,0.036741,0.050212,0.051778,0.07392,0.090544,0.153292,0.018071
0.021142,0.031475,0.031475,0.031475,0.032027,0.076574,0.0757,0.140204,0.029543
0.030259,0.039217,0.039217,0.044238,0.045012,0.086924,0.089152,0.183258,0.036444
0.040216,0.040246,0.047371,0.045616,0.046693,0.085636,0.088771,0.155678,NA
0.03858,0.048165,0.048165,0.044031,0.044798,0.094288,0.098647,0.172158,0.04563
0.03384,0.0482,0.0482,0.0482,0.049066,0.099881,0.112793,0.182049,0.026402
0.017566,0.031799,0.031799,0.039843,0.04179,0.101923,0.098183,0.135155,0.027467
0.036277,0.046246,0.046246,0.052457,0.053618,0.105374,0.113252,0.157175,0.023166
0.018185,0.028968,0.028968,0.03365,0.034599,0.084958,0.092774,0.176264,0.021974
0.047166,0.04769,0.04769,0.045482,0.04646,0.093831,0.102821,0.212863,0.038095
0.034148,0.03894,0.03894,0.03894,0.04062,0.064726,0.084849,0.136384,0.025282
0.019624,0.031695,0.031695,0.031695,0.032618,0.090089,0.094871,0.154494,0.020153
0.0347,0.052821,0.052821,0.052821,0.053814,0.07897,0.074119,0.116064,NA
0.028789,0.028136,0.034969,0.034074,0.034814,0.076396,0.08562,0.146092,0.026878
0.03734,0.060218,0.060218,0.063227,0.063388,0.095516,0.103128,0.167145,NA
0.020598,0.031132,0.031132,0.031132,0.031523,0.061762,0.080896,0.150636,0.026501
0.024567,0.025199,0.025199,0.035647,0.036906,0.075941,0.089578,0.147802,0.017472
0.034864,0.040613,0.040613,0.058237,0.058714,0.081039,0.097562,0.171435,0.043176
0.038505,0.057977,0.057977,0.057977,0.059577,0.090556,0.097109,0.185949,0.023584
0.022696,0.040388,0.040388,0.040388,0.042113,0.093578,0.112954,0.192669,0.015844
0.055234,0.07515,0.07515,0.07515,0.076353,0.109388,0.1129,0.195104,0.055504
0.039929,0.053847,0.053847,0.053847,0.056107,0.091133,0.092671,0.167011,0.049984
0.020922,0.038927,0.038927,0.04247,0.042839,0.101836,0.090456,0.177025,0.039619
0.025058,0.034101,0.034101,0.040711,0.04222,0.101832,0.113332,0.172554,0.027223
0.026873,0.037511,0.037511,0.044046,0.044763,0.091297,0.098796,0.179854,0.034842
0.035648,0.041712,0.041712,0.041712,0.042401,0.073721,0.069366,0.137217,NA
0.02595,0.037734,0.037734,0.037734,0.039219,0.067625,0.080323,0.155068,0.031843
0.020516,0.029462,0.029462,0.029462,0.030181,0.056023,0.064288,0.163181,0.026224
0.012618,0.0226,0.0226,0.027923,0.028948,0.06762,0.073358,0.145522,0.025571
0.01606,0.031453,0.031453,0.031453,0.032716,0.069903,0.056489,0.134355,0.019348
0.026232,0.044053,0.044053,0.044053,0.044567,0.089064,0.096716,0.156178,0.011491
0.034298,0.044079,0.044079,0.06344,0.065396,0.106526,0.102785,0.177657,0.018398
0.016901,0.029416,0.029416,0.029416,0.030312,0.067372,0.069992,0.140444,0.013445
0.023009,0.029617,0.029617,0.043584,0.045249,0.08086,0.082271,0.171343,0.017799
0.053558,0.052443,0.052443,0.050321,0.051478,0.081578,0.087037,0.183644,0.05071
0.024007,0.036088,0.036088,0.043117,0.043025,0.064134,0.096044,0.178197,0.024819
0.035169,0.052478,0.052478,0.051347,0.052033,0.112409,0.101106,0.193297,0.046317
0.030793,0.043328,0.043328,0.043328,0.043844,0.071244,0.085766,0.159516,NA
0.042293,0.051629,0.051629,0.071779,0.071911,0.085004,0.104259,0.177967,NA
0.007992,0.014832,0.014832,0.019253,0.020063,0.067515,0.072625,0.152536,0.004717
0.028583,0.043039,0.043039,0.043039,0.042837,0.09119,0.104443,0.183397,0.029685
0.01288,0.01675,0.01675,0.016686,0.016904,0.064498,0.065925,0.140471,0.017058
0.01908,0.034174,0.034174,0.03237,0.032746,0.091049,0.089045,0.176376,0.015443
0.039863,0.062574,0.062574,0.062574,0.064041,0.105405,0.123464,0.195404,0.021421
0.037654,0.042254,0.042254,0.041046,0.040558,0.069391,0.078238,0.126976,0.031202
0.035203,0.050336,0.050336,0.057439,0.056941,0.101666,0.116241,0.161643,0.031244
0.038575,0.053146,0.053146,0.065491,0.064937,0.101179,0.083816,0.132637,0.043306
0.021301,0.027117,0.027117,0.02578,0.02644,0.062801,0.066573,0.131344,NA
0.040114,0.051597,0.051597,0.051597,0.052434,0.081323,0.092204,0.154782,0.020399
0.030652,0.043215,0.043215,0.043215,0.044529,0.094812,0.101389,0.183755,0.030657
0.022858,0.02655,0.02655,0.039938,0.040582,0.066721,0.074347,0.179326,0.022466
0.027525,0.036005,0.036005,0.036005,0.037873,0.057306,0.066347,0.127555,0.028003
0.023611,0.041825,0.041825,0.049338,0.048334,0.083458,0.089118,0.187093,0.041525
0.039203,0.046451,0.056871,0.056871,0.05661,0.103097,0.098166,0.186621,0.03892
0.019824,0.030828,0.030828,0.036344,0.036494,0.081983,0.080801,0.158193,NA
0.053526,0.059428,0.059428,0.059428,0.060441,0.104166,0.103537,0.180146,NA
0.033432,0.051883,0.051883,0.048458,0.048518,0.10063,0.095574,0.148352,0.02301
0.039236,0.045678,0.045678,0.045678,0.047751,0.098769,0.082374,0.161529,0.051286
0.035603,0.048601,0.048601,0.055213,0.057118,0.110484,0.117074,0.217036,0.046421
0.025749,0.034186,0.034186,0.032298,0.032496,0.074684,0.074562,0.148384,0.031356
0.024298,0.035354,0.035354,0.035354,0.036131,0.081192,0.089151,0.165134,0.021677
0.033972,0.049828,0.049828,0.049828,0.04963,0.096738,0.093479,0.15477,0.046526
0.023273,0.032096,0.032096,0.029142,0.029841,0.066492,0.089666,0.143765,0.024172
0.023907,0.043353,0.043353,0.039354,0.03945,0.104063,0.106355,0.186889,0.012941
0.038796,0.051061,0.051061,0.049915,0.050958,0.098012,0.116004,0.177828,0.022806
0.022374,0.035883,0.035883,0.041926,0.042301,0.089797,0.109752,0.188608,0.008999
0.026015,0.037943,0.037943,0.037943,0.038533,0.069682,0.086486,0.162646,0.034676
0.016676,0.027028,0.027028,0.033981,0.034781,0.075883,0.076044,0.126059,0.023485
0.034164,0.055118,0.055118,0.061951,0.061369,0.083975,0.083176,0.152735,0.025991
0.05193,0.061579,0.072566,0.065792,0.065852,0.099337,0.103875,0.182269,NA
0.028395,0.042798,0.042798,0.042798,0.043376,0.081602,0.078603,0.173715,NA
0.040326,0.046869,0.059218,0.059218,0.060883,0.108014,0.114552,0.154512,NA
0.032463,0.042571,0.042571,0.039888,0.040607,0.084914,0.093434,0.142797,0.039993
0.027357,0.036267,0.036267,0.036267,0.037695,0.090887,0.096137,0.168312,0.031443
0.024351,0.045454,0.045454,0.042081,0.043175,0.090809,0.097394,0.155808,0.034701
0.038995,0.050472,0.050472,0.050472,0.051525,0.093687,0.093569,0.167677,0.020646
0.034576,0.041448,0.041448,0.03525,0.035555,0.085609,0.094803,0.168869,0.035698
0.04309,0.050117,0.050117,0.059311,0.060319,0.088886,0.108885,0.145879,NA
0.026983,0.028775,0.038805,0.038805,0.040077,0.092933,0.107648,0.151237,0.028272
0.024522,0.033317,0.033317,0.038243,0.039023,0.082127,0.101756,0.182284,0.032587
0.042949,0.053019,0.053019,0.053019,0.054513,0.088641,0.101034,0.156876,0.025581
0.033121,0.037006,0.046849,0.046849,0.048041,0.093189,0.117914,0.169127,0.013182
0.023285,0.02907,0.02907,0.02907,0.029808,0.07585,0.083805,0.178559,0.02815
0.019124,0.028249,0.028249,0.033383,0.033987,0.082531,0.084555,0.163514,0.022288
0.042198,0.055634,0.055634,0.053915,0.053925,0.060446,0.094654,0.145165,0.043831
0.022128,0.02708,0.02708,0.02708,0.026913,0.063101,0.074226,0.117784,0.021172
0.020274,0.034257,0.034257,0.041782,0.042497,0.083933,0.083073,0.163627,0.018421
0.022004,0.042145,0.042145,0.039771,0.040828,0.067965,0.07992,0.135025,0.019451
0.040573,0.051539,0.051539,0.051539,0.053065,0.070292,0.093899,0.152413,0.035575
0.015537,0.041225,0.041225,0.038716,0.03505,0.077572,0.081157,0.156902,0.017582
0.028136,0.039713,0.039713,0.046757,0.047882,0.078806,0.077915,0.127622,NA
0.036589,0.039145,0.039145,0.039145,0.040005,0.087498,0.099562,0.151864,0.026542
0.023356,0.039899,0.039899,0.038616,0.039895,0.081777,0.082453,0.157543,NA
0.034738,0.047747,0.047747,0.053263,0.053327,0.086929,0.107699,0.165193,NA
0.028258,0.036898,0.036898,0.055831,0.057364,0.077902,0.111517,0.139204,0.012526
0.022121,0.037095,0.037095,0.037095,0.038934,0.079315,0.091913,0.162407,0.027395
0.028619,0.056566,0.056566,0.054284,0.055724,0.109339,0.081705,0.174757,NA
0.03502,0.038809,0.038809,0.03547,0.036493,0.068049,0.062199,0.158073,0.018721
0.023873,0.037456,0.037456,0.037456,0.03834,0.088088,0.094617,0.181596,0.016902
0.026191,0.03487,0.03487,0.03487,0.03522,0.075682,0.089126,0.163744,0.020557
0.025424,0.031743,0.040097,0.038893,0.039943,0.075363,0.091406,0.164327,0.019859
0.032532,0.043036,0.053699,0.052269,0.053005,0.059307,0.074031,0.126331,0.037166
0.037217,0.051332,0.051332,0.048117,0.048222,0.092081,0.094447,0.177561,0.023877
0.02298,0.027172,0.040174,0.040286,0.040535,0.071013,0.094205,0.151468,0.02712
0.0339,0.052171,0.052171,0.052171,0.054571,0.077301,0.109441,0.157026,0.023709
0.035997,0.05189,0.05189,0.057643,0.058743,0.097237,0.116245,0.172898,0.038117
0.026888,0.04029,0.04029,0.047149,0.049095,0.101953,0.106949,0.173266,0.024124
0.023516,0.030817,0.037999,0.03529,0.035298,0.082339,0.087889,0.154121,0.009299
0.022834,0.034513,0.034513,0.041844,0.043384,0.071017,0.08192,0.160462,0.034065
0.025344,0.046575,0.046575,0.042636,0.043721,0.113838,0.105046,0.166265,NA
0.036676,0.049887,0.049887,0.056554,0.057636,0.1019,0.116196,0.17744,NA
0.015636,0.025104,0.025104,0.025104,0.026457,0.059944,0.069807,0.150272,0.016199
0.032416,0.047239,0.047239,0.047239,0.049121,0.096684,0.111526,0.133664,0.027629
0.024461,0.031762,0.031762,0.044187,0.044882,0.084003,0.090732,0.129321,NA
0.03161,0.057452,0.057452,0.055768,0.054691,0.111892,0.094443,0.153143,0.050254
0.029944,0.04312,0.04312,0.04312,0.044028,0.083303,0.094823,0.145804,0.02778
0.019128,0.026838,0.026838,0.039869,0.03899,0.091559,0.089076,0.16095,0.024227
0.028226,0.037626,0.037626,0.036722,0.037422,0.063334,0.081568,0.151341,0.023019
0.040122,0.05268,0.05268,0.048069,0.048944,0.092297,0.100172,0.173254,0.024396
0.0357,0.045119,0.045119,0.045119,0.0471,0.098918,0.099254,0.187722,0.046054
0.017706,0.027503,0.027503,0.027503,0.028368,0.067228,0.070977,0.141164,0.01851
0.026921,0.025996,0.033737,0.033461,0.033342,0.077106,0.096615,0.161402,0.02451
0.017718,0.030678,0.030678,0.028885,0.029973,0.066891,0.073451,0.158759,0.028326
0.029443,0.04322,0.04322,0.042201,0.042185,0.084486,0.104859,0.167422,0.013355
0.03176,0.049351,0.049351,0.050265,0.050423,0.086956,0.099859,0.187475,0.050437
0.02856,0.039421,0.039421,0.046277,0.048528,0.064463,0.069609,0.117509,0.030809
0.039831,0.053844,0.053844,0.053095,0.054327,0.079556,0.09288,0.183316,NA
0.018652,0.022135,0.022135,0.022135,0.023145,0.05239,0.048689,0.131327,0.023026
0.034585,0.048571,0.048571,0.05763,0.059529,0.089376,0.112103,0.171097,NA
0.053665,0.060287,0.060287,0.051036,0.051157,0.079731,0.095554,0.167679,0.0301
0.023087,0.04628,0.04628,0.04628,0.046136,0.095956,0.113023,0.184033,NA
0.037211,0.045532,0.045532,0.062715,0.06322,0.09241,0.11368,0.189698,NA
0.044917,0.045487,0.04362,0.043419,0.044059,0.089995,0.085833,0.190727,NA
0.027112,0.037212,0.037212,0.04472,0.046011,0.089911,0.09581,0.173487,0.033701
0.02299,0.043358,0.043358,0.041828,0.042072,0.076821,0.079483,0.158623,0.032468
0.036911,0.045585,0.045585,0.056042,0.056932,0.080598,0.098728,0.184233,0.038973
0.036835,0.045329,0.045329,0.045329,0.046312,0.074933,0.072237,0.152904,0.048017
0.029874,0.031421,0.040425,0.040425,0.041605,0.080953,0.092862,0.145385,0.03226
0.026894,0.035206,0.035206,0.041085,0.042049,0.080625,0.088643,0.156562,0.032737
0.029442,0.035828,0.049231,0.049231,0.050958,0.094348,0.112903,0.170048,0.018831
0.022617,0.041381,0.041381,0.041194,0.040987,0.071439,0.074664,0.141902,0.028908
0.022967,0.033484,0.033484,0.041163,0.042004,0.081332,0.074878,0.145803,0.036782
0.044882,0.057931,0.057931,0.048714,0.049562,0.095204,0.090581,0.163669,0.055119
0.043607,0.058354,0.058354,0.052761,0.052928,0.099179,0.106204,0.162645,0.036819
0.034497,0.042603,0.042603,0.05822,0.060311,0.091069,0.084607,0.167249,0.027641
0.021827,0.024927,0.024927,0.035476,0.035389,0.053568,0.102423,0.141818,0.009504
0.031214,0.043225,0.043225,0.04084,0.040889,0.091756,0.092357,0.158186,NA
0.036881,0.044233,0.044233,0.042107,0.043005,0.074259,0.080122,0.155366,0.018199
0.015133,0.029282,0.029282,0.032948,0.034134,0.065481,0.082999,0.117099,0.023665
0.034381,0.05517,0.05517,0.052321,0.052318,0.087864,0.091343,0.14261,NA
0.037544,0.038339,0.046417,0.046417,0.048164,0.092179,0.09136,0.19347,0.039901
0.019725,0.03537,0.03537,0.028895,0.028992,0.083759,0.080385,0.166315,0.012066
0.04116,0.049819,0.049819,0.063158,0.06445,0.102519,0.118149,0.167552,NA
0.034239,0.038135,0.045876,0.045876,0.047156,0.077822,0.097817,0.167306,0.033481
0.020555,0.034247,0.034247,0.037957,0.03923,0.097263,0.098892,0.152968,0.03571
0.038964,0.045339,0.045339,0.044,0.045393,0.097924,0.070843,0.155025,0.047011
0.038211,0.054758,0.054758,0.048841,0.04995,0.089042,0.098962,0.203117,0.044405
0.021096,0.020645,0.020645,0.020452,0.021063,0.082222,0.068671,0.160641,0.021348
0.035568,0.045194,0.045194,0.059966,0.055509,0.084668,0.127519,0.153833,NA
0.032514,0.049564,0.049564,0.056195,0.056714,0.105329,0.115301,0.170729,0.050245
0.034803,0.045086,0.045086,0.047732,0.048657,0.083095,0.099689,0.183733,0.027351
0.032156,0.038782,0.038782,0.049802,0.05102,0.091213,0.087234,0.177256,0.039047
0.030709,0.032949,0.032949,0.042806,0.044491,0.091415,0.109183,0.150067,NA
0.027162,0.042292,0.042292,0.042292,0.043793,0.083053,0.087348,0.147046,0.037991
0.014407,0.020331,0.034659,0.035359,0.035825,0.055402,0.084192,0.131872,0.013324
0.019481,0.029241,0.029241,0.037749,0.038803,0.083557,0.089289,0.148491,NA
0.032189,0.054798,0.054798,0.047868,0.048004,0.091895,0.093535,0.185207,0.037409
0.027398,0.030696,0.030696,0.030511,0.031219,0.073919,0.070313,0.144511,0.022109
0.029226,0.035943,0.035943,0.050819,0.052716,0.105747,0.120045,0.225104,NA
0.034689,0.051176,0.051176,0.050042,0.05142,0.093722,0.079927,0.152471,NA
0.053424,0.060025,0.060025,0.058076,0.059195,0.101032,0.107995,0.188045,0.063823
0.04523,0.047022,0.049682,0.047154,0.047269,0.069929,0.087956,0.128305,0.049581
0.031766,0.044341,0.044341,0.051713,0.053081,0.089232,0.075992,0.147211,0.041693
0.026628,0.038352,0.038352,0.044514,0.044717,0.096903,0.100552,0.152101,0.039886
0.030739,0.046836,0.046836,0.054882,0.056517,0.093665,0.086075,0.169001,0.041557
0.028303,0.030804,0.030804,0.040726,0.04171,0.087384,0.095902,0.165466,0.015877
0.034541,0.047741,0.047741,0.043342,0.044287,0.076036,0.107166,0.16243,0.032277
0.02223,0.030534,0.030534,0.036337,0.038422,0.078727,0.076436,0.167681,0.026055
0.043987,0.051702,0.051702,0.069997,0.070611,0.102436,0.128991,0.164066,NA
0.038566,0.056033,0.056033,0.056033,0.058341,0.090193,0.099707,0.146301,0.023443
0.03488,0.050957,0.050957,0.050242,0.051167,0.087509,0.096098,0.163514,0.017023
0.037097,0.050368,0.050368,0.057688,0.058923,0.115605,0.110752,0.207419,0.049603
0.031121,0.045919,0.045919,0.053465,0.055809,0.092866,0.103158,0.160135,0.044762
0.030893,0.043958,0.043958,0.043958,0.045369,0.061695,0.100393,0.172961,0.037036
0.026529,0.048674,0.048674,0.041009,0.0423,0.081941,0.071943,0.154916,0.046891
0.018157,0.021715,0.032269,0.032269,0.034049,0.081377,0.101008,0.154902,0.006505
0.019306,0.044482,0.044482,0.044482,0.045846,0.091554,0.103145,0.173072,NA
0.026889,0.035577,0.035577,0.048616,0.048684,0.096818,0.101512,0.208296,0.032898
0.027046,0.045609,0.045609,0.044811,0.045868,0.088393,0.080581,0.167503,0.040403
0.026911,0.043197,0.043197,0.049724,0.050868,0.108725,0.100998,0.14667,0.036744
0.018146,0.031211,0.031211,0.030406,0.030964,0.076163,0.08873,0.133076,0.01552
0.033167,0.052038,0.052038,0.044994,0.045129,0.075163,0.08528,0.147461,0.03817
0.007971,0.01291,0.01291,0.016763,0.017832,0.058962,0.076896,0.131456,0.003915
0.024562,0.04354,0.04354,0.042952,0.043087,0.089381,0.083537,0.159829,NA
0.024383,0.036495,0.036495,0.043485,0.045058,0.094131,0.09507,0.184,0.020043
0.041496,0.059837,0.059837,0.057805,0.059084,0.083442,0.083127,0.16444,NA
0.026087,0.033232,0.033232,0.038748,0.039712,0.092243,0.107109,0.133741,0.035069
0.015944,0.025382,0.025382,0.030258,0.03122,0.061796,0.069911,0.134999,0.015665
0.019896,0.03326,0.03326,0.038808,0.040028,0.083753,0.076886,0.155518,NA
0.04767,0.064462,0.064462,0.064462,0.065936,0.117441,0.117966,0.174476,0.024429
0.029145,0.039773,0.039773,0.036466,0.037134,0.071164,0.079365,0.136587,0.033306
0.036018,0.052373,0.052373,0.052373,0.054697,0.094329,0.106918,0.152494,0.02266
0.039789,0.051652,0.051652,0.051652,0.052894,0.085982,0.09209,0.145741,0.029263
0.016252,0.021064,0.021064,0.02522,0.025621,0.075817,0.080204,0.157122,0.018706
0.029045,0.032218,0.032218,0.042702,0.043694,0.081185,0.091101,0.153909,NA
0.051317,0.057021,0.057021,0.07131,0.071633,0.110728,0.126743,0.162391,0.041885
0.020149,0.031339,0.031339,0.031339,0.032113,0.075089,0.080355,0.161968,0.027137
0.022946,0.025004,0.025004,0.035883,0.036774,0.059993,0.069323,0.127799,0.02557
0.019506,0.037,0.037,0.034057,0.035152,0.076475,0.078271,0.161328,0.0307
0.050127,0.062416,0.062416,0.062416,0.063784,0.081828,0.111189,0.156593,NA
0.033379,0.048982,0.048982,0.048982,0.047848,0.095712,0.111292,0.159928,0.014009
0.025475,0.039108,0.039108,0.03866,0.039223,0.102358,0.097992,0.166581,NA
0.021197,0.024965,0.024965,0.039,0.040785,0.076724,0.07167,0.175529,0.026471
0.032426,0.045559,0.045559,0.054255,0.0556,0.106357,0.112398,0.202317,0.045097
0.02872,0.039571,0.039571,0.044869,0.045941,0.099337,0.102103,0.209422,0.033989
0.034868,0.049964,0.049964,0.049964,0.052352,0.061315,0.084883,0.130251,NA
0.036141,0.049757,0.049757,0.056995,0.058187,0.090571,0.104934,0.166997,0.034798
0.030623,0.035989,0.035989,0.051857,0.053623,0.087016,0.088256,0.106433,0.029347
0.022672,0.031968,0.031968,0.036761,0.037709,0.088064,0.097094,0.16109,0.022506
0.020698,0.025395,0.025395,0.035334,0.036605,0.071907,0.071645,0.131095,NA
0.040344,0.057907,0.057907,0.050774,0.050922,0.109814,0.107801,0.18511,NA
0.034604,0.033672,0.033672,0.031505,0.032257,0.073082,0.086913,0.163287,0.035346
0.023297,0.044859,0.044859,0.043562,0.043974,0.0714,0.072169,0.143308,0.031149
0.030957,0.045523,0.045523,0.045523,0.046745,0.088613,0.08655,0.177234,NA
0.030401,0.041829,0.041829,0.041829,0.04379,0.069685,0.075979,0.126747,NA
0.033714,0.04265,0.04265,0.036965,0.037711,0.069027,0.100884,0.157322,0.025902
0.034684,0.036706,0.048284,0.04748,0.048321,0.099541,0.115928,0.204838,0.033599
0.029077,0.04022,0.04022,0.039427,0.03989,0.076307,0.082026,0.148606,0.037975
0.038276,0.040096,0.040096,0.052064,0.052796,0.081283,0.102838,0.1533,NA
0.042559,0.050197,0.050197,0.045348,0.046115,0.079446,0.094135,0.13994,0.039276
0.025035,0.029999,0.039875,0.039875,0.041781,0.07469,0.095089,0.156607,0.032255
0.033442,0.049556,0.049556,0.049556,0.051066,0.089906,0.095639,0.189964,0.044965
0.017631,0.030168,0.030168,0.030185,0.030204,0.061204,0.071436,0.16523,0.023949
0.031222,0.040398,0.052888,0.052888,0.054772,0.087578,0.104571,0.147583,0.03653
0.032402,0.04288,0.04288,0.04288,0.044459,0.076992,0.078863,0.156896,0.040505
0.04187,0.047617,0.059321,0.059321,0.060973,0.102041,0.106173,0.188673,0.018087
0.0302,0.042844,0.042844,0.047819,0.047449,0.077996,0.106199,0.161485,0.014299
0.046378,0.057013,0.057013,0.056546,0.057399,0.10052,0.115807,0.180002,0.042645
0.024761,0.038624,0.038624,0.036621,0.037675,0.068621,0.07473,0.161591,0.024385
0.034567,0.050926,0.050926,0.057876,0.059212,0.101598,0.108204,0.174623,0.031116
0.028596,0.041337,0.041337,0.041337,0.04276,0.086678,0.10381,0.177069,0.02728
0.023,0.030843,0.030843,0.030843,0.03262,0.073626,0.084178,0.154153,NA
0.02512,0.035715,0.035715,0.035715,0.037443,0.07338,0.07535,0.143607,0.028452
0.035117,0.047676,0.047676,0.054604,0.056535,0.091488,0.096134,0.152186,0.041248
0.028589,0.044278,0.044278,0.050141,0.051483,0.087444,0.090898,0.184411,0.046014
0.031082,0.036596,0.036596,0.05271,0.052982,0.062857,0.07733,0.115257,NA
0.067273,0.06327,0.053743,0.051137,0.051648,0.090047,0.116915,0.177407,0.048328
0.052365,0.069207,0.069207,0.075283,0.077419,0.10744,0.116008,0.212773,0.040273
0.035281,0.039477,0.039477,0.055509,0.057925,0.079781,0.091319,0.135984,0.039208
0.049305,0.06059,0.06059,0.06059,0.059863,0.112449,0.103491,0.181067,0.055364
0.031268,0.047104,0.047104,0.047104,0.048388,0.084995,0.106097,0.176274,0.022615
0.028666,0.044604,0.044604,0.053761,0.055782,0.080313,0.099454,0.15645,NA
0.041254,0.046565,0.046565,0.059831,0.062147,0.094304,0.116239,0.151758,NA
0.038907,0.05423,0.05423,0.063788,0.064718,0.106134,0.122938,0.178586,NA
0.01884,0.032946,0.032946,0.034887,0.03583,0.083268,0.093849,0.135227,0.024669
0.033033,0.04113,0.04113,0.052461,0.053683,0.087568,0.105022,0.161315,0.036514
0.031113,0.041062,0.041062,0.051638,0.052865,0.085148,0.083402,0.162875,0.021251
0.03702,0.057062,0.057062,0.057062,0.057636,0.086911,0.08093,0.144079,0.053449
0.029212,0.039425,0.039425,0.04594,0.046048,0.072324,0.094133,0.148618,0.036907
0.036518,0.055372,0.055372,0.05448,0.055451,0.078104,0.096528,0.170658,0.051102
0.038111,0.055022,0.055022,0.055022,0.056071,0.085866,0.088587,0.160708,0.047376
0.037793,0.067531,0.067531,0.065515,0.066139,0.08893,0.118641,0.193924,0.02769
0.031552,0.056211,0.056211,0.054146,0.054336,0.092198,0.102583,0.149278,NA
0.02946,0.041239,0.041239,0.046291,0.047163,0.099641,0.088726,0.171971,0.040985
0.050617,0.069467,0.069467,0.079488,0.082367,0.132701,0.124928,0.213101,NA
0.027913,0.033242,0.033242,0.041196,0.041242,0.077792,0.083828,0.132688,0.029615
0.020387,0.02794,0.02794,0.024831,0.025593,0.061368,0.069461,0.129641,0.023208
0.02726,0.032837,0.045384,0.045384,0.045621,0.087723,0.113095,0.175757,0.011857
0.025937,0.040811,0.040811,0.040811,0.042825,0.084136,0.09516,0.149804,0.016412
0.031987,0.037749,0.037749,0.036403,0.037208,0.071482,0.087376,0.126044,0.028393
0.028704,0.041891,0.041891,0.045046,0.045162,0.092263,0.080033,0.128525,0.034944
0.024473,0.041775,0.041775,0.050381,0.051728,0.103946,0.11264,0.182727,NA
0.029505,0.044728,0.044728,0.052908,0.054218,0.077948,0.089027,0.154873,0.036708
0.032394,0.044049,0.044049,0.042282,0.043243,0.08982,0.099218,0.145207,0.01476
0.034577,0.04836,0.04836,0.04836,0.049629,0.099006,0.098242,0.160464,0.023302
0.030239,0.045766,0.045766,0.045766,0.046313,0.066782,0.08653,0.136876,0.029318
0.024422,0.034443,0.034443,0.040849,0.042782,0.074996,0.098131,0.172501,0.014191
0.031002,0.044169,0.044169,0.051542,0.053564,0.101405,0.107727,0.190473,0.016226
0.035841,0.051293,0.051293,0.055451,0.05527,0.111552,0.115056,0.185816,0.031323
0.038956,0.043529,0.043529,0.03758,0.038315,0.080956,0.080556,0.160927,0.035225
0.032793,0.046621,0.046621,0.045557,0.046424,0.076595,0.08058,0.128821,0.041744
0.027115,0.03571,0.03571,0.034708,0.035427,0.071914,0.083778,0.156027,0.011638
0.041083,0.057549,0.057549,0.057549,0.059224,0.12128,0.128538,0.199042,0.053065
0.028411,0.030211,0.038887,0.037684,0.037489,0.070845,0.084148,0.16209,0.0227
0.034054,0.04026,0.045884,0.043791,0.043808,0.084607,0.09915,0.163758,0.028824
0.036635,0.045463,0.045463,0.045463,0.045942,0.113876,0.106682,0.168003,0.035214
0.037864,0.043178,0.054562,0.050453,0.05007,0.079764,0.094568,0.17201,0.02572
0.045953,0.064385,0.064385,0.064385,0.06551,0.093962,0.070765,0.153099,0.061906
0.024144,0.032455,0.032455,0.037689,0.03971,0.077912,0.094038,0.181707,0.029693
0.037323,0.048252,0.048252,0.048252,0.049466,0.069961,0.080477,0.151043,0.032174
0.021907,0.028583,0.028583,0.042842,0.043452,0.070392,0.088319,0.141418,0.031049
0.011438,0.01852,0.01852,0.017787,0.01815,0.054886,0.063756,0.130178,0.014895
0.038876,0.042529,0.042529,0.042529,0.044492,0.082777,0.087508,0.158665,0.041774
0.028886,0.038219,0.038219,0.038219,0.03931,0.074329,0.077246,0.160978,0.026261
0.048584,0.05693,0.05693,0.05693,0.058516,0.086096,0.096767,0.197387,0.055049
0.034571,0.036751,0.036751,0.036751,0.038394,0.074043,0.086184,0.152634,0.038294
0.029289,0.043204,0.043204,0.049617,0.049795,0.099754,0.098287,0.172508,0.024732
0.033621,0.035523,0.043662,0.043662,0.044376,0.079293,0.088193,0.168657,NA
0.037671,0.041991,0.041991,0.041991,0.043445,0.097298,0.088607,0.149166,NA
0.023476,0.034763,0.034763,0.033705,0.034038,0.084567,0.094027,0.164808,0.024872
0.020784,0.03659,0.03659,0.042957,0.042035,0.089849,0.076527,0.152852,0.038416
0.029226,0.043102,0.043102,0.04854,0.048143,0.089001,0.093963,0.131192,0.016535
0.02342,0.035973,0.035973,0.042535,0.043524,0.093956,0.098722,0.176295,0.035241
0.04794,0.054489,0.054489,0.070675,0.071991,0.09306,0.114744,0.207328,0.055386
0.01924,0.02817,0.02817,0.02294,0.023293,0.057817,0.072517,0.138379,0.023313
0.027302,0.038149,0.038149,0.038149,0.039039,0.084078,0.061434,0.139517,0.034991
0.021467,0.025238,0.025238,0.037797,0.039502,0.078112,0.107459,0.162319,0.010414
0.026513,0.038385,0.038385,0.035895,0.036571,0.06258,0.09193,0.134734,0.00886
0.025993,0.038358,0.038358,0.044969,0.04654,0.098873,0.097149,0.151122,0.017423
0.042198,0.045538,0.054866,0.054866,0.056743,0.093487,0.115712,0.180375,0.019761
0.032966,0.039884,0.039884,0.055443,0.057026,0.096239,0.097792,0.194059,0.023481
0.024557,0.03993,0.03993,0.036496,0.037195,0.092885,0.085118,0.124056,0.030904
0.031924,0.046397,0.046397,0.04296,0.043923,0.095037,0.09787,0.186715,0.043738
0.048101,0.061068,0.061068,0.061068,0.062705,0.110837,0.108699,0.146848,0.033845
0.020012,0.03123,0.03123,0.03123,0.032799,0.080427,0.083056,0.182382,0.027556
0.029898,0.041948,0.041948,0.046404,0.046588,0.124378,0.125236,0.170807,0.040466
0.056594,0.058104,0.055616,0.055616,0.057128,0.085754,0.083414,0.138255,0.043232
0.024245,0.033406,0.033406,0.03883,0.039656,0.087533,0.100123,0.158579,0.013525
0.015081,0.025931,0.025931,0.025931,0.027699,0.080241,0.090866,0.172711,0.017718
0.026722,0.048568,0.048568,0.046867,0.048138,0.092693,0.093044,0.156785,NA
0.036922,0.051937,0.051937,0.050546,0.051274,0.115365,0.116695,0.189557,NA
0.032951,0.04295,0.04295,0.042025,0.041769,0.102953,0.090969,0.162812,0.040413
0.0407,0.055114,0.055114,0.063104,0.065815,0.127439,0.144881,0.185087,NA
0.016242,0.02718,0.02718,0.02718,0.028263,0.06668,0.074221,0.123339,0.008266
0.032616,0.038846,0.044036,0.044036,0.044451,0.077065,0.098376,0.146385,0.03946
0.04258,0.055488,0.055488,0.055488,0.056516,0.100708,0.111894,0.168446,0.026652
0.034393,0.041346,0.041346,0.040404,0.040813,0.068861,0.085355,0.126843,0.034374
0.035365,0.047018,0.047018,0.044097,0.044888,0.092297,0.099277,0.172204,0.041375
0.041174,0.045914,0.045914,0.043614,0.043931,0.081521,0.092948,0.191551,NA
0.039968,0.044722,0.044722,0.044722,0.045658,0.091675,0.098775,0.168841,0.045197
0.010755,0.024636,0.024636,0.022908,0.028671,0.064703,0.075766,0.158323,0.02513
0.015913,0.031299,0.031299,0.03512,0.036177,0.072807,0.07783,0.177599,0.02833
0.025811,0.036127,0.036127,0.042416,0.043224,0.088267,0.127919,0.178884,0.012309
0.017733,0.029148,0.029148,0.027874,0.0288,0.071328,0.076111,0.159843,0.027402
0.038285,0.045339,0.045339,0.044869,0.045628,0.092915,0.093033,0.165046,0.027333
0.019575,0.035692,0.035692,0.03804,0.039113,0.09526,0.091583,0.145215,0.026051
0.02342,0.025993,0.025993,0.025107,0.025797,0.06223,0.066386,0.157033,0.030927
0.029943,0.034742,0.034742,0.045438,0.045964,0.078756,0.112445,0.199536,0.011724
0.027624,0.045488,0.044281,0.044281,0.04362,0.064555,0.077363,0.175681,0.03809
0.021317,0.034445,0.034445,0.031651,0.031718,0.077059,0.078694,0.144274,0.025926
0.018137,0.030131,0.030131,0.028117,0.028165,0.083995,0.094389,0.157281,0.012141
0.042145,0.057054,0.057054,0.062029,0.062111,0.09656,0.114924,0.166851,NA
0.029497,0.04146,0.04146,0.049089,0.050466,0.096994,0.096702,0.160601,0.039758
0.020547,0.040925,0.040925,0.039243,0.040277,0.095355,0.107572,0.179011,0.010526
0.025681,0.038511,0.038511,0.045827,0.04644,0.103457,0.111558,0.175215,0.02354
0.016544,0.025357,0.025357,0.037354,0.038411,0.075957,0.084236,0.138228,0.00752
0.021913,0.036183,0.036183,0.036183,0.034675,0.081331,0.097643,0.153384,0.031706
0.038487,0.04657,0.056869,0.056869,0.058502,0.095664,0.11312,0.179782,0.021741
0.031648,0.040885,0.040885,0.053413,0.053577,0.088044,0.129531,0.172086,NA
0.047356,0.056645,0.056645,0.053725,0.054705,0.086879,0.095494,0.147687,0.046065
0.040752,0.056092,0.056092,0.065542,0.06696,0.080193,0.123513,0.173598,NA
0.025381,0.031786,0.031786,0.045686,0.046999,0.09197,0.084825,0.160282,0.018075
0.042352,0.0471,0.0471,0.060659,0.061039,0.094809,0.117472,0.149429,NA
0.021453,0.042918,0.042918,0.035559,0.035665,0.070803,0.089868,0.155801,0.035015
0.027344,0.040133,0.040133,0.048,0.04999,0.094435,0.093485,0.161234,NA
0.032277,0.046384,0.046384,0.054624,0.055268,0.093246,0.085747,0.173313,0.039906
0.035158,0.043883,0.043883,0.038286,0.038325,0.080961,0.086493,0.172573,0.017499
0.033953,0.05123,0.05123,0.05123,0.053401,0.079515,0.111138,0.174348,0.014598
0.050445,0.068742,0.068742,0.075778,0.078158,0.102674,0.127926,0.155296,NA
0.024222,0.037626,0.037626,0.037626,0.038631,0.079651,0.099581,0.151335,0.010744
0.023133,0.035229,0.035229,0.035229,0.037101,0.076752,0.081862,0.155718,NA
0.036182,0.048448,0.048448,0.044279,0.044388,0.095212,0.102235,0.197479,0.036317
0.02219,0.038932,0.038932,0.038105,0.038756,0.073396,0.075106,0.129183,0.035448
0.023143,0.0313,0.0313,0.031005,0.03134,0.074799,0.079384,0.140433,0.028012
0.028978,0.036445,0.046056,0.046056,0.046829,0.102316,0.104413,0.189992,NA
0.046183,0.04893,0.053603,0.053603,0.054831,0.08862,0.091325,0.186067,NA
0.04795,0.049841,0.053895,0.053895,0.055824,0.085457,0.096161,0.165817,0.048414
0.017666,0.021876,0.021876,0.021876,0.02251,0.057901,0.066414,0.15015,0.01823
0.030451,0.038275,0.038275,0.054355,0.054829,0.106369,0.114856,0.190031,0.026786
0.034159,0.044157,0.044157,0.043774,0.04476,0.077836,0.100735,0.162016,0.020291
0.03769,0.045316,0.048917,0.048917,0.051318,0.083133,0.105787,0.150639,0.014207
0.028719,0.040171,0.040171,0.047926,0.048756,0.086844,0.111208,0.152862,NA
0.036062,0.048898,0.048898,0.043819,0.043979,0.067857,0.088482,0.155967,0.040103
0.020082,0.023553,0.023553,0.032768,0.033027,0.065415,0.071555,0.150657,NA
0.039877,0.046634,0.060135,0.056818,0.056929,0.088759,0.080749,0.157296,0.049129
0.016389,0.023364,0.023364,0.023364,0.02469,0.065474,0.076616,0.141855,0.014361
0.038217,0.038973,0.038973,0.036216,0.037114,0.070536,0.086069,0.166146,NA
0.038221,0.040839,0.046576,0.046576,0.047709,0.078968,0.104869,0.156587,0.039489
0.03047,0.043781,0.043781,0.043781,0.045807,0.082747,0.101344,0.171557,0.030989
0.052614,0.055971,0.055971,0.071903,0.073576,0.084188,0.10279,0.166713,0.038476
0.022211,0.027887,0.027887,0.027887,0.028938,0.05208,0.067487,0.142846,0.017397
0.029363,0.041447,0.041447,0.041061,0.041721,0.076824,0.080392,0.17278,0.032406
0.025478,0.034746,0.046368,0.045305,0.046492,0.085334,0.092102,0.156369,0.031182
0.024745,0.04272,0.04272,0.049351,0.049389,0.098162,0.114063,0.157732,0.021249
0.030195,0.042284,0.042284,0.047637,0.049487,0.097506,0.114185,0.147091,NA
0.028148,0.038077,0.038077,0.043852,0.043734,0.078777,0.098902,0.151825,0.014831
0.024396,0.037761,0.037761,0.042873,0.043298,0.096605,0.105973,0.173189,0.013378
0.02727,0.037703,0.037703,0.048061,0.049115,0.095547,0.095091,0.183366,0.030719
0.029397,0.029582,0.040869,0.038455,0.039402,0.063712,0.091046,0.150674,0.031968
0.033577,0.038763,0.038763,0.038763,0.039386,0.055884,0.07605,0.13554,0.036632
0.037059,0.046497,0.046497,0.062077,0.064595,0.114937,0.131354,0.215818,NA
0.047867,0.056405,0.056405,0.056405,0.056826,0.07738,0.098261,0.146,NA
0.028725,0.042448,0.042448,0.042448,0.044429,0.095665,0.108897,0.183102,0.030135
0.037959,0.042451,0.047954,0.047278,0.047163,0.070018,0.078384,0.180125,0.023891
0.039636,0.046801,0.046801,0.046801,0.048949,0.098011,0.099046,0.193846,0.053334
0.033564,0.049384,0.049384,0.048517,0.049775,0.0976,0.093903,0.197027,0.037083
0.027072,0.042515,0.042515,0.042515,0.043979,0.089369,0.101951,0.183131,NA
0.028379,0.040897,0.040897,0.040897,0.042874,0.072023,0.099187,0.156501,0.016665
0.036895,0.048913,0.048913,0.051954,0.05295,0.081573,0.097695,0.17285,0.044863
0.030815,0.042913,0.042913,0.050774,0.051624,0.085296,0.098383,0.158071,0.039388
0.026389,0.031032,0.031032,0.042981,0.043536,0.087769,0.097926,0.16819,0.024355
0.030491,0.036587,0.044761,0.042444,0.043064,0.095881,0.100983,0.155505,0.018308
0.026835,0.045707,0.045707,0.048995,0.049633,0.098196,0.100063,0.159266,0.037397
0.017998,0.029188,0.029188,0.036029,0.036426,0.080973,0.107388,0.178526,0.011936
0.03057,0.03338,0.03338,0.047,0.048527,0.077411,0.090059,0.164943,0.029986
0.060296,0.06821,0.078551,0.071682,0.07294,0.086127,0.103671,0.162386,NA
0.032488,0.04704,0.04704,0.04704,0.048378,0.06177,0.086378,0.115232,0.012617
0.023521,0.030927,0.030927,0.030267,0.031068,0.07174,0.077379,0.150486,0.020093
0.016708,0.032155,0.032155,0.030543,0.031129,0.059911,0.063468,0.132649,0.028676
0.033879,0.043303,0.043303,0.043303,0.044158,0.095085,0.077831,0.144673,0.043248
0.024998,0.031652,0.041947,0.034458,0.034526,0.059047,0.071467,0.130957,0.018275
0.021506,0.03423,0.03423,0.03423,0.035664,0.081232,0.090119,0.177496,0.024437
0.034297,0.046514,0.046514,0.046514,0.048264,0.097979,0.090273,0.163151,0.044544
0.036398,0.041428,0.041428,0.041428,0.043599,0.083287,0.090816,0.176906,0.040537
0.041095,0.050926,0.050926,0.046326,0.046192,0.091716,0.092663,0.194792,0.02517
0.021076,0.029816,0.029816,0.030354,0.030962,0.093982,0.092599,0.151064,0.010699
0.016581,0.029059,0.029059,0.028927,0.029766,0.062375,0.072833,0.145144,0.020538
0.023404,0.03634,0.03634,0.033892,0.034776,0.082552,0.098861,0.173106,0.020538
0.034643,0.039235,0.05207,0.05207,0.052938,0.099476,0.09665,0.158942,0.042857
0.027176,0.040309,0.040309,0.040309,0.040587,0.055233,0.076406,0.129227,0.037063
0.049002,0.069505,0.069505,0.069505,0.06989,0.088691,0.119682,0.148002,NA
0.029411,0.042651,0.042651,0.048567,0.049638,0.098288,0.095556,0.176681,0.041726
0.012708,0.01929,0.01929,0.023112,0.023976,0.06706,0.074804,0.141392,0.02116
0.026827,0.035343,0.035343,0.035343,0.037417,0.07532,0.068327,0.142605,0.036341
0.04189,0.04576,0.056984,0.056984,0.05763,0.08042,0.115187,0.151576,0.017354
0.038184,0.053069,0.053069,0.061513,0.064089,0.107028,0.121935,0.18047,NA
0.035922,0.050892,0.050892,0.050892,0.053145,0.096687,0.107,0.156689,0.034717
0.028849,0.04541,0.04541,0.053246,0.054166,0.108746,0.104765,0.176364,0.042817
0.019531,0.036163,0.036163,0.036163,0.036969,0.083358,0.085513,0.17421,0.027634
0.036215,0.039588,0.051231,0.051231,0.053033,0.090894,0.089096,0.170675,0.044724
0.040182,0.036434,0.036434,0.036434,0.037986,0.063758,0.073573,0.142583,0.044887
0.019566,0.028141,0.028141,0.027581,0.027672,0.058507,0.06723,0.146382,0.014793
0.042147,0.048759,0.060245,0.060245,0.062298,0.067301,0.095422,0.149586,0.032737
0.033023,0.043951,0.043951,0.043951,0.045224,0.09279,0.093926,0.206969,NA
0.032485,0.035636,0.045611,0.042933,0.043323,0.077545,0.093554,0.154972,NA
0.040908,0.051931,0.051931,0.05967,0.060895,0.072173,0.094041,0.164278,0.030435
0.038537,0.059401,0.059401,0.054214,0.054315,0.092457,0.116685,0.161363,0.048563
0.033671,0.046146,0.046146,0.059117,0.060417,0.11062,0.118294,0.197925,0.019997
0.035336,0.042795,0.042795,0.054479,0.055428,0.100858,0.088537,0.160274,NA
0.050997,0.049349,0.056909,0.054119,0.05529,0.071434,0.090837,0.145658,0.049002
0.025462,0.029568,0.029568,0.042861,0.043658,0.093135,0.10664,0.189388,0.01476
0.042656,0.054481,0.054481,0.061794,0.064229,0.091048,0.116728,0.154775,NA
0.021415,0.030937,0.030937,0.038062,0.038978,0.082384,0.094901,0.157093,0.031168
0.020915,0.03321,0.03321,0.03321,0.034208,0.068084,0.065266,0.13562,0.02829
0.046562,0.07014,0.07014,0.067439,0.069117,0.098095,0.090212,0.179593,NA
0.038123,0.049104,0.049104,0.048377,0.049164,0.081476,0.109094,0.161923,0.043468
0.038151,0.045118,0.045118,0.045118,0.04669,0.095236,0.097684,0.162739,NA
0.054151,0.069811,0.069811,0.066778,0.06808,0.094307,0.116409,0.165512,NA
0.02867,0.046546,0.046546,0.043947,0.044094,0.057576,0.066385,0.175242,0.043725
0.015478,0.027339,0.027339,0.032836,0.03402,0.07606,0.085215,0.15782,0.026757
0.054821,0.056207,0.065826,0.065826,0.066796,0.100488,0.105326,0.201923,0.045968
0.033274,0.048096,0.048096,0.048096,0.049394,0.086352,0.094341,0.173681,0.04604
0.027788,0.034046,0.034046,0.042864,0.04379,0.076452,0.095071,0.153271,0.0217
0.028035,0.032648,0.032648,0.046267,0.04796,0.084445,0.088251,0.185613,0.018441
0.035075,0.051396,0.051396,0.05585,0.055561,0.093842,0.109789,0.186329,NA
0.021567,0.031648,0.031648,0.031648,0.032792,0.077244,0.080921,0.158317,0.027047
0.012433,0.025124,0.025124,0.025124,0.026639,0.071508,0.070702,0.129351,0.01386
0.020305,0.029854,0.029854,0.029854,0.031089,0.078881,0.074866,0.148267,0.023218
0.018387,0.031113,0.031113,0.031113,0.031904,0.07819,0.089301,0.157001,0.014141
0.033885,0.053994,0.053994,0.044562,0.044848,0.086998,0.080067,0.159417,0.040194
0.034499,0.048408,0.048408,0.05629,0.058625,0.091879,0.124652,0.209217,0.039451
0.02184,0.03627,0.03627,0.03627,0.037445,0.069977,0.090305,0.159014,0.010858
0.029182,0.041409,0.041409,0.049313,0.051336,0.075056,0.101899,0.145027,0.024026
0.028793,0.037993,0.037993,0.047668,0.047785,0.081244,0.089137,0.15536,0.040012
0.022836,0.034352,0.034352,0.032561,0.03246,0.064933,0.075798,0.165909,0.013194
0.02531,0.035219,0.035219,0.04002,0.039678,0.091633,0.087504,0.155257,0.028594
0.026137,0.027865,0.034099,0.034099,0.034858,0.079623,0.074706,0.129214,0.028726
0.04593,0.047794,0.053464,0.053464,0.054338,0.097316,0.100245,0.159425,0.026425
0.032579,0.036559,0.036559,0.035205,0.035091,0.077239,0.083012,0.151692,0.039124
0.030085,0.042343,0.042343,0.042343,0.043295,0.100876,0.104608,0.168722,0.03713
0.027948,0.036686,0.036686,0.042978,0.043629,0.068523,0.081,0.127433,0.021567
0.029484,0.047056,0.047056,0.045739,0.046214,0.08045,0.07211,0.153466,0.0388
0.031229,0.044944,0.044944,0.03672,0.036811,0.072137,0.081519,0.179664,0.042526
0.043681,0.047738,0.047738,0.064321,0.065092,0.076125,0.106457,0.152046,0.023106
0.017168,0.030511,0.030511,0.032272,0.032385,0.067577,0.06199,0.124866,0.031043
0.031015,0.045322,0.045322,0.049673,0.049518,0.101904,0.118524,0.189662,0.023262
0.023186,0.037323,0.037323,0.045019,0.04556,0.09136,0.089256,0.162535,0.033808
0.046702,0.059385,0.059385,0.059385,0.061825,0.082591,0.104023,0.178527,NA
0.026528,0.032898,0.032898,0.037322,0.038246,0.075629,0.102387,0.150921,0.03535
0.026366,0.037777,0.037777,0.037777,0.038823,0.085818,0.082153,0.162707,0.032478
0.019378,0.02785,0.032251,0.032251,0.032059,0.056805,0.074557,0.141587,0.022581
0.02122,0.035092,0.035092,0.039341,0.040519,0.106146,0.109892,0.176319,0.030083
0.023215,0.03675,0.03675,0.044508,0.045331,0.089947,0.105359,0.140027,NA
0.013206,0.025732,0.025732,0.024869,0.024899,0.055646,0.059802,0.1435,0.007704
0.018727,0.022645,0.022645,0.022645,0.023447,0.061358,0.063171,0.141322,0.022981
0.025725,0.037828,0.037828,0.045001,0.04608,0.099453,0.114675,0.167575,0.010952
0.023862,0.037057,0.037057,0.044962,0.045239,0.076041,0.08726,0.155767,0.020034
0.040436,0.055392,0.055392,0.069638,0.069488,0.100766,0.121288,0.16534,NA
0.025772,0.032328,0.032328,0.029787,0.030417,0.061943,0.074059,0.134306,0.024333
0.046802,0.048674,0.055562,0.050778,0.051151,0.093685,0.103561,0.156714,NA
0.022114,0.033191,0.033191,0.04037,0.042321,0.097994,0.091126,0.170385,0.029139
0.033475,0.048912,0.048912,0.048912,0.050906,0.090456,0.126769,0.16608,0.017325
0.01804,0.022198,0.022198,0.032393,0.033627,0.061022,0.086532,0.135966,0.012469
0.027255,0.030681,0.02925,0.029025,0.029921,0.062575,0.064028,0.156716,0.031631
0.026534,0.041241,0.041241,0.041241,0.042714,0.077726,0.092182,0.165568,0.02412
0.030722,0.037112,0.045888,0.043875,0.045204,0.103999,0.089358,0.164741,0.039863
0.01304,0.0224,0.0224,0.020718,0.020756,0.04276,0.055134,0.108406,0.011526
0.034476,0.03922,0.03922,0.05306,0.053901,0.098496,0.099783,0.16738,0.036075
0.014445,0.026873,0.026873,0.026006,0.026633,0.072023,0.07975,0.150676,0.022519
0.025597,0.039816,0.039816,0.047755,0.048169,0.112867,0.121899,0.199884,0.017594
0.027456,0.042463,0.042463,0.042463,0.04298,0.078459,0.077261,0.16559,0.017635
0.049414,0.052133,0.064677,0.063554,0.064964,0.099575,0.100397,0.171078,NA
0.017575,0.033064,0.033064,0.033064,0.034478,0.064794,0.087648,0.176109,0.016047
0.029772,0.039021,0.039021,0.039021,0.040567,0.07052,0.091059,0.170581,0.03375
0.055626,0.076532,0.076532,0.076532,0.078166,0.093043,0.097838,0.165158,0.040312
0.01998,0.029254,0.029254,0.040592,0.041269,0.076282,0.11125,0.150423,NA
0.044354,0.052418,0.052418,0.062384,0.062796,0.098904,0.107875,0.162384,0.037231
0.032047,0.043127,0.043127,0.048982,0.050944,0.100684,0.105574,0.21033,0.033688
0.024612,0.040944,0.040944,0.040944,0.042516,0.083481,0.089537,0.125341,NA
0.047235,0.050237,0.050237,0.065987,0.067103,0.102737,0.112732,0.183475,0.053091
0.020296,0.040298,0.040298,0.040298,0.040451,0.092926,0.095385,0.178177,0.035747
0.021547,0.034308,0.034308,0.040159,0.041277,0.10022,0.095639,0.206048,0.033884
0.033478,0.04815,0.04815,0.041826,0.042903,0.094152,0.116609,0.162644,0.014223
0.031185,0.048242,0.048242,0.044823,0.045094,0.095181,0.104298,0.146156,0.035046
0.030774,0.037723,0.037723,0.044536,0.045016,0.086576,0.09138,0.150631,0.034996
0.022479,0.036411,0.036411,0.040563,0.041751,0.089546,0.074238,0.159979,0.036696
0.016822,0.02641,0.033214,0.029448,0.030452,0.065029,0.072585,0.149863,0.019944
0.033373,0.050143,0.050143,0.050143,0.051716,0.086842,0.085046,0.143683,0.04445
0.045968,0.058476,0.058476,0.057863,0.058665,0.10368,0.11114,0.198613,0.044598
0.053481,0.064353,0.064353,0.0593,0.060047,0.078752,0.092923,0.178382,0.030429
0.018638,0.027119,0.027119,0.038499,0.038524,0.096781,0.103376,0.177621,0.01645
0.025225,0.036743,0.036743,0.036743,0.037709,0.085672,0.086298,0.15865,0.0318
0.026578,0.047312,0.047312,0.047312,0.047283,0.099576,0.086612,0.157527,0.044839
0.04575,0.049835,0.05799,0.05799,0.057795,0.100448,0.095425,0.20338,0.032316
0.022852,0.035622,0.035622,0.034598,0.035665,0.072084,0.088358,0.170004,0.013521
0.040249,0.055217,0.055217,0.063039,0.065266,0.124197,0.116366,0.167606,NA
0.028949,0.038864,0.038864,0.044444,0.045637,0.099013,0.100958,0.166801,0.019153
0.037126,0.040708,0.05387,0.05029,0.051202,0.09472,0.096155,0.168973,0.041393
0.028998,0.040013,0.040013,0.046616,0.047904,0.084617,0.102299,0.162626,0.038206
0.061378,0.065415,0.065415,0.063468,0.064323,0.091719,0.089582,0.145099,NA
0.025073,0.036288,0.036288,0.03453,0.034576,0.070315,0.083542,0.137123,0.022936
0.02005,0.027237,0.027237,0.027237,0.028726,0.068122,0.056082,0.143574,0.027892
0.044028,0.045242,0.055915,0.055064,0.055983,0.069236,0.106099,0.16296,0.022998
0.038633,0.048793,0.048793,0.048793,0.050312,0.106064,0.091865,0.186957,0.037712
0.04816,0.071708,0.071708,0.068473,0.069501,0.100168,0.086424,0.223375,NA
0.0275,0.036741,0.036741,0.036741,0.037857,0.07008,0.089472,0.169201,0.030452
0.02617,0.040176,0.040176,0.036759,0.036819,0.080834,0.09841,0.163537,0.032918
0.030414,0.035085,0.035085,0.044984,0.045228,0.101666,0.110144,0.188668,NA
0.035997,0.045348,0.045348,0.045348,0.0476,0.078233,0.081636,0.118321,0.037362
0.035607,0.037653,0.046346,0.046004,0.047101,0.091593,0.083585,0.17934,0.032235
0.025597,0.044211,0.044211,0.038628,0.03874,0.079733,0.080679,0.177707,NA
0.028597,0.042666,0.042666,0.0356,0.035775,0.06833,0.068674,0.156517,0.043127
0.037322,0.049595,0.049595,0.049595,0.05064,0.08934,0.09313,0.146651,NA
0.038075,0.043018,0.053406,0.053406,0.055291,0.091498,0.119809,0.162746,0.015721
0.039922,0.060484,0.060484,0.059373,0.060767,0.091844,0.109391,0.152042,0.028618
0.029786,0.031145,0.040477,0.039068,0.038911,0.067918,0.092942,0.142246,0.017602
0.046162,0.056798,0.056798,0.056798,0.058976,0.115302,0.106463,0.166189,0.031282
0.022659,0.043922,0.043922,0.041465,0.042754,0.111297,0.091455,0.172543,0.042276
0.026609,0.032617,0.042178,0.042178,0.043197,0.090683,0.091675,0.156803,NA
0.04269,0.052452,0.052452,0.067878,0.069717,0.09741,0.113061,0.181805,0.037524
0.03709,0.040736,0.044539,0.044539,0.045917,0.080885,0.091655,0.179818,0.039625
0.046419,0.065644,0.065644,0.065644,0.065872,0.110069,0.102176,0.174345,0.040286
0.015957,0.025722,0.025722,0.025722,0.027217,0.055686,0.073578,0.127438,0.011842
0.030664,0.044718,0.044718,0.05153,0.053325,0.091525,0.117334,0.191026,0.034891
0.040615,0.05949,0.05949,0.05949,0.060366,0.077182,0.077556,0.141299,0.043579
0.02729,0.036647,0.048875,0.048875,0.049178,0.099105,0.101503,0.189192,0.018697
