PCA,regsubsetss.fwd.indiv,stepBIC,Lasso,PLSR,stepAIC,MARS,SVM.default,SVM+tuning,RandomForest
0.4458,0.5643,0.5546,0.5578,0.5853,0.593,0.6347,0.6641,0.6873,0.6865
0.4372,0.5359,0.5358,0.5459,0.547,0.5583,0.5978,0.6298,0.6448,0.6408
0.4256,0.5315,0.5551,0.5501,0.5484,0.5611,0.6015,0.6342,0.6526,0.6471
0.4325,0.5561,0.5736,0.5513,0.575,0.5864,0.6135,0.6515,0.6624,0.667
0.4662,0.5581,0.5581,0.5836,0.584,0.5873,0.6207,0.6608,0.6625,0.6832
0.429,0.5485,0.5553,0.5509,0.5707,0.5633,0.617,0.6402,0.6629,0.6823
0.4828,0.5464,0.5413,0.5631,0.5637,0.5763,0.6075,0.6485,0.6417,0.6786
0.4686,0.5711,0.5618,0.5775,0.5918,0.5941,0.6258,0.678,0.6918,0.7
0.4633,0.544,0.5648,0.5629,0.5773,0.5821,0.5925,0.6481,0.6532,0.6629
0.4817,0.5788,0.5917,0.572,0.5936,0.6004,0.6371,0.67,0.6809,0.6855
0.4131,0.5163,0.5354,0.5279,0.5396,0.5559,0.5837,0.6251,0.6423,0.6488
0.5013,0.579,0.5805,0.5985,0.5999,0.5964,0.6172,0.6698,0.6872,0.6851
0.4638,0.565,0.5683,0.5686,0.5579,0.5736,0.6248,0.6424,0.6646,0.6895
0.4346,0.5329,0.5389,0.5578,0.5529,0.5587,0.592,0.6272,0.6531,0.6663
0.4638,0.5631,0.5585,0.5699,0.5663,0.5943,0.6186,0.6558,0.6855,0.6803
0.4649,0.5739,0.5739,0.5735,0.5844,0.6016,0.5819,0.644,0.6536,0.6551
0.4665,0.5524,0.576,0.5707,0.5754,0.5847,0.5741,0.6357,0.6588,0.6521
0.4527,0.5542,0.5679,0.5624,0.5867,0.5938,0.6323,0.6734,0.7029,0.6916
0.4535,0.5575,0.5837,0.5729,0.5813,0.5864,0.6233,0.6436,0.6615,0.6652
0.4353,0.5276,0.5235,0.5387,0.5332,0.5453,0.6018,0.618,0.6454,0.6499
0.4465,0.5577,0.5765,0.5476,0.5742,0.602,0.6255,0.6617,0.6807,0.6596
0.4366,0.5395,0.5457,0.5485,0.5478,0.5635,0.5891,0.631,0.6414,0.6311
0.4508,0.5214,0.5233,0.5524,0.5522,0.5532,0.5886,0.6392,0.6483,0.6756
0.484,0.5652,0.5774,0.5704,0.5764,0.5938,0.6273,0.6636,0.6816,0.6872
0.4345,0.5334,0.5529,0.5496,0.5606,0.558,0.6115,0.632,0.6359,0.6422
0.4595,0.5684,0.5725,0.5943,0.5972,0.5909,0.6291,0.668,0.6688,0.6804
0.4374,0.5305,0.5232,0.5419,0.5382,0.5488,0.6125,0.644,0.663,0.6703
0.4678,0.5738,0.5775,0.5839,0.5923,0.6032,0.6023,0.6484,0.6631,0.6555
0.4564,0.5507,0.5507,0.5612,0.5605,0.5876,0.5659,0.6338,0.6621,0.6391
0.4872,0.5512,0.5494,0.5685,0.561,0.5723,0.6035,0.6363,0.6542,0.6803
0.4431,0.5416,0.5416,0.5531,0.5569,0.5728,0.5696,0.6448,0.6701,0.6596
0.4401,0.526,0.5555,0.554,0.5554,0.5635,0.6092,0.6205,0.6453,0.6594
0.4081,0.4951,0.4968,0.515,0.5201,0.5203,0.5851,0.603,0.6329,0.6405
0.4532,0.5325,0.5481,0.5392,0.5461,0.5616,0.5945,0.6303,0.6594,0.668
0.4723,0.5688,0.5804,0.5757,0.5823,0.597,0.6223,0.6484,0.6802,0.6801
0.451,0.5397,0.5396,0.5723,0.5641,0.5784,0.5993,0.6411,0.6766,0.6575
0.4932,0.5657,0.56,0.5762,0.5815,0.5939,0.624,0.6704,0.6821,0.6773
0.437,0.5474,0.5726,0.5609,0.5774,0.5869,0.6154,0.646,0.6699,0.6607
0.4372,0.5517,0.5503,0.5764,0.5859,0.5832,0.6052,0.6396,0.6532,0.6526
0.4632,0.5744,0.574,0.5899,0.5906,0.5944,0.6074,0.6516,0.6689,0.6633
0.4294,0.5208,0.5243,0.5385,0.5402,0.5432,0.6054,0.6237,0.63,0.6461
0.4673,0.5781,0.5909,0.5857,0.5951,0.6042,0.633,0.654,0.6431,0.6722
0.4236,0.5191,0.5529,0.5322,0.5401,0.5606,0.5973,0.6289,0.6473,0.6564
0.5137,0.6084,0.5947,0.6261,0.6193,0.6317,0.6355,0.6879,0.6765,0.7009
0.4628,0.5519,0.5551,0.5783,0.583,0.5856,0.6151,0.6562,0.6794,0.6895
0.4365,0.5315,0.5455,0.5474,0.5531,0.5618,0.6121,0.6339,0.6603,0.6779
0.4333,0.5387,0.5542,0.5569,0.5558,0.5576,0.6002,0.6308,0.6526,0.6554
0.4551,0.5598,0.5692,0.5549,0.5756,0.5771,0.5772,0.6433,0.6702,0.6685
0.4409,0.5379,0.5306,0.5448,0.5485,0.5524,0.5978,0.632,0.6494,0.6712
0.4578,0.5621,0.5754,0.5668,0.5703,0.5903,0.6045,0.6455,0.648,0.6459
0.4437,0.5686,0.5685,0.5675,0.5875,0.5952,0.6171,0.6513,0.6716,0.6625
0.4532,0.5613,0.5718,0.5717,0.5758,0.5868,0.6077,0.6434,0.6516,0.6582
0.4368,0.5505,0.5807,0.5573,0.5715,0.594,0.6333,0.6624,0.6801,0.6919
0.4634,0.5514,0.5622,0.5601,0.5515,0.5626,0.5938,0.6271,0.6435,0.665
0.428,0.5342,0.5536,0.5553,0.5617,0.5623,0.6152,0.6317,0.652,0.6683
0.4277,0.5455,0.5511,0.5388,0.5667,0.59,0.6029,0.6475,0.6749,0.6669
0.4635,0.5779,0.5895,0.5737,0.598,0.6043,0.6254,0.6802,0.6801,0.6897
0.4752,0.5822,0.5968,0.5927,0.6039,0.6184,0.6322,0.667,0.6869,0.682
0.4758,0.5604,0.5813,0.5736,0.5804,0.5866,0.5916,0.6392,0.6613,0.6684
0.4846,0.5857,0.5927,0.5958,0.6061,0.6081,0.6296,0.6782,0.6864,0.7027
0.4531,0.539,0.5547,0.5495,0.5521,0.5685,0.5973,0.652,0.6828,0.6791
0.4638,0.555,0.5649,0.5807,0.596,0.5922,0.625,0.6673,0.6854,0.6844
0.44,0.538,0.5352,0.5471,0.5541,0.5552,0.6147,0.6373,0.6472,0.6637
0.4263,0.5088,0.4903,0.5132,0.5298,0.5398,0.5379,0.5998,0.6003,0.59
0.4147,0.526,0.5412,0.5363,0.5408,0.5566,0.5946,0.6251,0.6495,0.6553
0.4395,0.5384,0.5384,0.5468,0.5522,0.5669,0.6084,0.6466,0.65,0.6584
0.4743,0.5714,0.5743,0.5735,0.5727,0.5822,0.6534,0.6594,0.6833,0.7037
0.44,0.5573,0.56,0.5676,0.5606,0.586,0.6222,0.653,0.6809,0.6674
0.4742,0.5553,0.5555,0.5724,0.563,0.5758,0.5993,0.6463,0.6522,0.6618
0.4366,0.539,0.5419,0.5338,0.554,0.5483,0.5808,0.6128,0.6433,0.6425
0.4396,0.5232,0.5411,0.5465,0.5405,0.5457,0.5862,0.6149,0.6416,0.6352
0.4579,0.5631,0.5756,0.5701,0.5784,0.5785,0.617,0.6456,0.6569,0.6608
0.469,0.5786,0.5764,0.5878,0.6098,0.6151,0.6299,0.6776,0.6882,0.6902
0.4689,0.5806,0.5997,0.5927,0.6029,0.5997,0.6158,0.6691,0.6795,0.6716
0.4485,0.5503,0.5496,0.57,0.5737,0.5802,0.6165,0.6448,0.6885,0.6703
0.4478,0.5501,0.5679,0.5521,0.567,0.5815,0.6005,0.6361,0.6658,0.6611
0.4542,0.5617,0.5725,0.5644,0.5851,0.5849,0.6216,0.6435,0.6363,0.6552
0.4233,0.5349,0.5556,0.543,0.5448,0.5668,0.5979,0.6362,0.6479,0.6895
0.4187,0.5063,0.5174,0.516,0.5272,0.5317,0.583,0.6139,0.6271,0.6501
0.4888,0.5916,0.5891,0.6099,0.594,0.609,0.6554,0.6844,0.6813,0.6918
0.4325,0.5394,0.5394,0.5459,0.5509,0.5598,0.5864,0.631,0.6564,0.6414
0.4414,0.5285,0.5187,0.5549,0.5448,0.5588,0.5933,0.6296,0.6403,0.6465
0.4565,0.5695,0.595,0.5739,0.5891,0.6035,0.6116,0.6635,0.6739,0.6731
0.4553,0.5485,0.5769,0.5645,0.5706,0.5764,0.6309,0.658,0.6782,0.6831
0.4287,0.5453,0.5486,0.5467,0.5599,0.5773,0.5889,0.6494,0.6826,0.6762
0.4211,0.5251,0.5222,0.5424,0.5539,0.5733,0.6134,0.6464,0.6496,0.6755
0.4613,0.5519,0.561,0.5666,0.5755,0.5815,0.6083,0.667,0.6805,0.6804
0.4853,0.573,0.593,0.5891,0.5919,0.59,0.6381,0.6577,0.6598,0.6852
0.4553,0.5657,0.5822,0.5832,0.5851,0.5964,0.6088,0.6434,0.6639,0.6353
0.4319,0.5455,0.5614,0.5486,0.554,0.5689,0.5887,0.6343,0.6456,0.653
0.4486,0.5607,0.5855,0.5655,0.5791,0.5929,0.5897,0.6556,0.666,0.6503
0.4576,0.5528,0.5656,0.5674,0.5785,0.5829,0.6245,0.6439,0.6618,0.6714
0.4524,0.5492,0.5481,0.549,0.5738,0.59,0.5938,0.6342,0.641,0.6472
0.4279,0.5262,0.5343,0.5298,0.5358,0.5559,0.6172,0.6425,0.6765,0.6941
0.4299,0.5442,0.5555,0.5637,0.5667,0.5697,0.6031,0.6364,0.6534,0.6604
0.4493,0.5318,0.5349,0.5474,0.5555,0.5477,0.6061,0.6373,0.6648,0.6579
0.4445,0.5445,0.5608,0.5457,0.5522,0.5604,0.6122,0.6398,0.6743,0.6782
0.4245,0.5422,0.562,0.5506,0.5622,0.5633,0.6191,0.6448,0.6632,0.6658
0.4529,0.5416,0.5472,0.5591,0.5766,0.583,0.6139,0.6567,0.6641,0.6669
0.4769,0.5713,0.5831,0.5681,0.5786,0.6015,0.6072,0.6585,0.6678,0.6648
0.4491,0.5743,0.5723,0.5834,0.5878,0.5929,0.6397,0.673,0.6962,0.701
0.482,0.5859,0.5648,0.5916,0.5884,0.614,0.6199,0.6711,0.6888,0.6814
0.4523,0.5503,0.564,0.5464,0.5732,0.582,0.6049,0.6407,0.6671,0.6677
0.4681,0.5688,0.5696,0.575,0.5901,0.6033,0.6257,0.6626,0.6885,0.6837
0.4617,0.5758,0.5674,0.5777,0.5914,0.6005,0.643,0.6711,0.688,0.6748
0.4719,0.5699,0.5699,0.583,0.587,0.5895,0.6377,0.6563,0.6785,0.6978
0.4369,0.5335,0.5335,0.5587,0.5505,0.569,0.5915,0.6433,0.6695,0.6655
0.4887,0.5889,0.5932,0.5819,0.6082,0.6117,0.6439,0.6662,0.6785,0.6848
0.4467,0.5662,0.57,0.5765,0.581,0.5899,0.613,0.6452,0.6731,0.6822
0.4678,0.5657,0.5771,0.5656,0.5706,0.5897,0.6198,0.6521,0.6708,0.6888
0.4944,0.5775,0.58,0.5981,0.5981,0.609,0.628,0.6792,0.6829,0.6877
0.457,0.5648,0.5648,0.5817,0.5824,0.5994,0.5991,0.6532,0.6647,0.6723
0.4751,0.5693,0.5824,0.5645,0.5754,0.5897,0.6116,0.6528,0.6704,0.6687
0.4326,0.5537,0.5749,0.562,0.5767,0.5848,0.5911,0.6466,0.6562,0.651
0.4469,0.5653,0.5686,0.5826,0.5891,0.598,0.609,0.6527,0.6651,0.6657
0.3965,0.4746,0.5068,0.475,0.4924,0.5169,0.5285,0.5759,0.6034,0.6086
0.4458,0.541,0.5587,0.5555,0.5776,0.5694,0.6007,0.643,0.6565,0.6609
0.4646,0.5459,0.5588,0.5522,0.5487,0.5638,0.5998,0.632,0.6484,0.6673
0.4546,0.5679,0.5804,0.5796,0.5891,0.5851,0.6034,0.6369,0.6376,0.6353
0.4063,0.5105,0.5107,0.5219,0.5476,0.5571,0.5927,0.6207,0.6502,0.6511
0.5029,0.6019,0.6003,0.6057,0.6064,0.6135,0.6208,0.6766,0.6778,0.6992
0.4172,0.5001,0.5014,0.5115,0.5099,0.5256,0.5549,0.5986,0.636,0.6514
0.4316,0.5387,0.5565,0.5425,0.5501,0.5742,0.6036,0.6519,0.6851,0.6762
0.4594,0.5621,0.5613,0.5613,0.5848,0.5857,0.601,0.6592,0.6657,0.6813
0.4642,0.5614,0.5554,0.5622,0.5676,0.5857,0.6157,0.6286,0.6407,0.6511
0.4959,0.5819,0.5842,0.5922,0.5854,0.5948,0.6342,0.6813,0.6769,0.7025
0.493,0.5578,0.5578,0.5848,0.5785,0.5791,0.6141,0.6481,0.6452,0.6599
0.4569,0.5577,0.5683,0.5573,0.5692,0.5843,0.6118,0.6458,0.6875,0.6883
0.4184,0.5277,0.5572,0.5456,0.5532,0.5624,0.5818,0.6103,0.61,0.6206
0.4166,0.5278,0.5481,0.5323,0.5419,0.5595,0.5992,0.6209,0.6517,0.674
0.4232,0.5329,0.5329,0.5346,0.5484,0.5674,0.6067,0.6445,0.6653,0.651
0.4755,0.561,0.5763,0.5711,0.5801,0.58,0.639,0.6565,0.68,0.6714
0.3921,0.4816,0.4857,0.4779,0.5005,0.5239,0.5887,0.5968,0.6352,0.639
0.4694,0.5472,0.5637,0.5642,0.5621,0.5776,0.6187,0.6454,0.6447,0.6684
0.486,0.5703,0.5703,0.5789,0.5796,0.5886,0.6291,0.6772,0.6907,0.6965
0.4755,0.5549,0.5462,0.5724,0.5734,0.5697,0.6025,0.6351,0.6293,0.6403
0.4922,0.5647,0.5683,0.5785,0.5873,0.5879,0.635,0.6563,0.6644,0.6595
0.4511,0.5315,0.5336,0.552,0.5481,0.5652,0.5987,0.6338,0.6458,0.6662
0.4765,0.566,0.5955,0.5912,0.5884,0.5972,0.6226,0.6489,0.6709,0.6777
0.4622,0.5828,0.6032,0.5858,0.5956,0.6127,0.628,0.6623,0.6696,0.6787
0.4655,0.574,0.5758,0.5865,0.5852,0.593,0.6139,0.6535,0.6725,0.691
0.4651,0.5691,0.5676,0.5779,0.578,0.5942,0.634,0.6577,0.6671,0.6749
0.4513,0.5645,0.558,0.565,0.5903,0.589,0.5985,0.6525,0.6645,0.6738
0.4389,0.5661,0.5523,0.5566,0.5767,0.5909,0.6225,0.6476,0.6769,0.6682
0.4443,0.5523,0.5571,0.5595,0.5627,0.582,0.6104,0.6536,0.671,0.6969
0.4457,0.5412,0.5643,0.5669,0.5703,0.5735,0.6164,0.6431,0.6557,0.6772
0.4566,0.5795,0.5815,0.5817,0.5959,0.6014,0.6229,0.6816,0.6835,0.6688
0.5074,0.585,0.608,0.6016,0.605,0.6093,0.6195,0.6612,0.6711,0.6925
0.4391,0.5347,0.5691,0.5627,0.5602,0.5721,0.6203,0.6385,0.6577,0.6797
0.4538,0.5742,0.5779,0.5876,0.5925,0.6025,0.6163,0.6475,0.6495,0.6557
0.4715,0.5508,0.5614,0.5513,0.5591,0.5741,0.5928,0.6401,0.6682,0.6623
0.4281,0.5414,0.5309,0.5442,0.5643,0.5726,0.6056,0.6331,0.6735,0.6808
0.4714,0.5812,0.5949,0.5936,0.5967,0.5984,0.6182,0.6577,0.6489,0.6714
0.4302,0.5333,0.5469,0.5476,0.5514,0.5525,0.6177,0.6285,0.6433,0.6806
0.4363,0.5436,0.5523,0.5638,0.5587,0.5774,0.6249,0.6659,0.6956,0.6917
0.4996,0.559,0.5752,0.5721,0.5798,0.5817,0.6059,0.6424,0.631,0.6731
0.4506,0.5287,0.5592,0.5438,0.5516,0.5582,0.6203,0.6286,0.662,0.6926
0.4634,0.5705,0.565,0.5855,0.5773,0.5912,0.6435,0.6664,0.6862,0.7059
0.4529,0.5664,0.5789,0.5677,0.5775,0.5797,0.6153,0.6428,0.6676,0.6584
0.4453,0.5791,0.5818,0.5809,0.6056,0.6081,0.6125,0.6698,0.6762,0.6784
0.4351,0.5409,0.5338,0.5384,0.5676,0.5809,0.6013,0.6435,0.6681,0.6609
0.438,0.5691,0.5595,0.5618,0.5793,0.5965,0.6256,0.6502,0.6653,0.6765
0.4205,0.5354,0.5441,0.5506,0.5569,0.5543,0.5791,0.6299,0.6554,0.6563
0.4577,0.555,0.5596,0.5517,0.5587,0.5693,0.6013,0.6437,0.6663,0.6638
0.4522,0.5445,0.5362,0.5608,0.5699,0.5831,0.6075,0.6525,0.676,0.6839
0.4529,0.5316,0.5315,0.5539,0.5632,0.5735,0.593,0.6392,0.6673,0.6661
0.4353,0.5465,0.5757,0.5689,0.5815,0.587,0.6035,0.6519,0.664,0.6743
0.4711,0.5455,0.5455,0.5571,0.5687,0.5669,0.5864,0.6422,0.6555,0.6472
0.4588,0.5414,0.5555,0.5527,0.5599,0.5643,0.5764,0.6281,0.6436,0.6395
0.4489,0.5552,0.574,0.5771,0.5761,0.5829,0.6032,0.6485,0.6747,0.6656
0.4362,0.5367,0.5532,0.5463,0.5539,0.5599,0.6085,0.6396,0.6572,0.6812
0.433,0.5546,0.5748,0.5687,0.5814,0.5985,0.6274,0.656,0.6805,0.6725
0.4444,0.5648,0.5694,0.5685,0.5687,0.5869,0.608,0.6484,0.6515,0.643
0.4405,0.5257,0.5157,0.5482,0.5398,0.5563,0.6001,0.6276,0.6315,0.6355
0.4742,0.5647,0.5635,0.5576,0.5739,0.5824,0.6082,0.6555,0.6799,0.6833
0.4484,0.5326,0.5418,0.551,0.5621,0.5694,0.5866,0.6327,0.6631,0.6507
0.4486,0.5356,0.5341,0.5341,0.5332,0.5468,0.5984,0.6154,0.6378,0.6552
0.4421,0.559,0.5501,0.5711,0.5728,0.5857,0.625,0.6526,0.6871,0.6912
0.4096,0.542,0.5706,0.5556,0.5639,0.5762,0.6202,0.6431,0.6809,0.675
0.4489,0.5675,0.5583,0.5717,0.5752,0.5853,0.6054,0.6506,0.67,0.6687
0.4631,0.5584,0.5695,0.578,0.582,0.584,0.633,0.6633,0.6791,0.684
0.4214,0.5346,0.552,0.5545,0.5644,0.5722,0.616,0.6368,0.6734,0.664
0.4652,0.5482,0.569,0.5569,0.5741,0.5707,0.6067,0.6383,0.664,0.6691
0.4264,0.5468,0.5658,0.5511,0.569,0.5827,0.6068,0.6517,0.6597,0.6429
0.4477,0.5496,0.5493,0.5538,0.5612,0.5551,0.6054,0.6507,0.6676,0.6838
0.4902,0.5753,0.5865,0.5946,0.5959,0.5981,0.6322,0.6619,0.6675,0.6774
0.478,0.5725,0.5912,0.5913,0.5954,0.5999,0.6579,0.6777,0.6927,0.7048
0.4031,0.5109,0.5141,0.5112,0.538,0.5452,0.5953,0.6239,0.6557,0.6538
0.4198,0.5076,0.5076,0.5288,0.5444,0.5608,0.5839,0.6167,0.6498,0.6532
0.4871,0.5631,0.5712,0.5807,0.5811,0.5821,0.6182,0.6576,0.667,0.6667
0.4996,0.5568,0.5568,0.5824,0.5879,0.6104,0.6263,0.6717,0.6909,0.6942
0.4608,0.5761,0.5866,0.5889,0.6006,0.605,0.6259,0.653,0.6675,0.6665
0.4617,0.5541,0.5665,0.5569,0.5714,0.5883,0.5912,0.6407,0.6363,0.6675
0.4477,0.5721,0.5852,0.5619,0.5856,0.593,0.634,0.6514,0.6767,0.6867
0.4298,0.5458,0.5607,0.5503,0.5632,0.5774,0.6061,0.6449,0.6759,0.6802
0.4044,0.5165,0.532,0.5188,0.536,0.5491,0.5813,0.6285,0.6614,0.6473
0.4709,0.5397,0.5336,0.5522,0.5669,0.5792,0.5967,0.6442,0.6504,0.6717
0.456,0.5458,0.5458,0.5553,0.5701,0.5849,0.6067,0.6502,0.6646,0.6748
0.4187,0.494,0.498,0.5152,0.5134,0.5208,0.5737,0.5964,0.6275,0.6364
0.4426,0.5426,0.5534,0.5386,0.5584,0.5577,0.6094,0.6439,0.6557,0.6731
0.4227,0.5222,0.5303,0.538,0.5397,0.5522,0.5736,0.6206,0.6429,0.6357
0.4215,0.5139,0.5121,0.5095,0.523,0.5411,0.5977,0.6106,0.6441,0.655
0.494,0.5599,0.5689,0.5783,0.5737,0.5802,0.6042,0.6487,0.6699,0.656
0.4634,0.5658,0.5738,0.5741,0.5701,0.5804,0.6158,0.6544,0.6749,0.6903
0.4458,0.5536,0.563,0.5646,0.565,0.5755,0.6052,0.6437,0.6677,0.6547
0.4523,0.5513,0.5512,0.572,0.5863,0.5821,0.6419,0.6658,0.6717,0.7008
0.4855,0.5865,0.5787,0.575,0.6054,0.6208,0.6275,0.6655,0.6777,0.68
0.4378,0.5525,0.555,0.5643,0.5633,0.5666,0.5904,0.6289,0.6631,0.6735
0.4771,0.5746,0.5811,0.5664,0.5823,0.599,0.6265,0.6573,0.6712,0.6604
0.4723,0.587,0.5866,0.5828,0.602,0.605,0.6296,0.6704,0.6895,0.7012
0.4557,0.5496,0.5635,0.5562,0.5705,0.5774,0.612,0.651,0.6606,0.6444
0.4527,0.5468,0.5567,0.5787,0.5758,0.588,0.6229,0.655,0.6523,0.6689
0.4057,0.5286,0.5365,0.5347,0.5508,0.5476,0.6054,0.6272,0.6673,0.665
0.4638,0.5667,0.5635,0.5771,0.5759,0.6044,0.6241,0.6609,0.6763,0.6792
0.4535,0.5774,0.5677,0.5875,0.5993,0.5959,0.6438,0.6668,0.6776,0.6725
0.4705,0.5603,0.5835,0.582,0.5864,0.597,0.6034,0.657,0.667,0.6828
0.4499,0.5611,0.561,0.572,0.567,0.5789,0.6085,0.6337,0.6563,0.6753
0.4517,0.5409,0.5291,0.5515,0.5602,0.5739,0.6106,0.6408,0.6601,0.6597
0.4396,0.5186,0.5173,0.5316,0.5488,0.5667,0.6004,0.6355,0.6525,0.6604
0.4798,0.5974,0.5815,0.6025,0.6058,0.6154,0.6369,0.6745,0.6787,0.7022
0.4612,0.5517,0.5496,0.5628,0.5695,0.5888,0.623,0.6537,0.6737,0.6631
0.4509,0.5398,0.5605,0.5445,0.5577,0.5671,0.5902,0.6229,0.647,0.6525
0.4805,0.5646,0.5563,0.5778,0.5784,0.5908,0.6177,0.6504,0.6893,0.6825
0.4509,0.5375,0.5251,0.5425,0.5652,0.5855,0.5934,0.6421,0.6632,0.6556
0.4384,0.54,0.5661,0.5444,0.5538,0.5746,0.616,0.6439,0.6685,0.6941
0.4505,0.5478,0.527,0.5525,0.5542,0.5693,0.5894,0.6267,0.6331,0.646
0.4166,0.5392,0.5438,0.5314,0.5503,0.5546,0.6107,0.641,0.6682,0.6766
0.4515,0.5526,0.5711,0.5711,0.5686,0.5756,0.6248,0.6407,0.6613,0.6807
0.4469,0.5753,0.5845,0.5826,0.5792,0.5985,0.6275,0.6602,0.6858,0.7104
0.4228,0.5176,0.5304,0.5341,0.5404,0.548,0.5973,0.6241,0.6504,0.6638
0.4674,0.5701,0.5868,0.5777,0.6044,0.6042,0.646,0.6681,0.6908,0.6928
0.4354,0.5243,0.5401,0.533,0.5445,0.5551,0.5756,0.6172,0.6381,0.6354
0.4727,0.5559,0.5441,0.5616,0.5696,0.5849,0.6266,0.642,0.6599,0.6837
0.4448,0.546,0.5644,0.5575,0.5623,0.5697,0.617,0.6379,0.6528,0.6612
0.4797,0.5591,0.5781,0.5741,0.5854,0.5882,0.6179,0.6457,0.6638,0.6632
0.4459,0.5332,0.5577,0.5502,0.5735,0.5757,0.62,0.6508,0.6686,0.6826
0.4172,0.53,0.5405,0.5276,0.5457,0.5482,0.5873,0.6298,0.651,0.6483
0.4764,0.5794,0.5898,0.6005,0.6104,0.6027,0.6335,0.6704,0.6878,0.6684
0.4608,0.5498,0.5752,0.5749,0.5731,0.5819,0.6082,0.6468,0.6619,0.6557
0.4552,0.5617,0.5851,0.5664,0.5804,0.5941,0.6342,0.6633,0.6745,0.6871
0.4624,0.5535,0.5607,0.5638,0.5764,0.5849,0.6329,0.6584,0.6704,0.6849
0.4405,0.5457,0.5646,0.5608,0.5674,0.5758,0.6007,0.6475,0.6659,0.6609
0.411,0.5291,0.5478,0.551,0.5587,0.5647,0.6102,0.6283,0.6464,0.6599
0.4233,0.5403,0.552,0.5429,0.5586,0.5637,0.5979,0.6373,0.6424,0.6535
0.4715,0.5732,0.5729,0.5836,0.5806,0.6071,0.6268,0.6745,0.6925,0.6989
0.4427,0.5496,0.5411,0.556,0.5772,0.5801,0.6234,0.6365,0.6664,0.6843
0.4356,0.5322,0.5322,0.5693,0.5671,0.5816,0.6066,0.6487,0.668,0.6536
0.4622,0.5543,0.5554,0.5772,0.5671,0.588,0.5678,0.6428,0.6313,0.6549
0.4623,0.5645,0.5717,0.5869,0.5968,0.5906,0.6103,0.6713,0.6854,0.6879
0.4548,0.5255,0.5457,0.5501,0.5466,0.5487,0.5798,0.6234,0.646,0.644
0.4487,0.5285,0.5402,0.5481,0.553,0.5568,0.6014,0.6385,0.6574,0.6633
0.4865,0.5696,0.5722,0.5907,0.5992,0.5927,0.6385,0.6666,0.6748,0.6807
0.4636,0.5741,0.5721,0.5838,0.5952,0.6053,0.6241,0.658,0.6704,0.6732
0.4477,0.5501,0.5501,0.5585,0.5668,0.5713,0.6035,0.6458,0.6537,0.6599
0.4421,0.5412,0.5586,0.546,0.562,0.5649,0.6023,0.6337,0.639,0.6553
0.4378,0.5279,0.545,0.5495,0.5418,0.5543,0.5852,0.6163,0.6349,0.6327
0.472,0.5547,0.5507,0.5824,0.5903,0.5955,0.6128,0.6636,0.6702,0.6688
0.4565,0.5496,0.5524,0.572,0.5954,0.5869,0.6321,0.6463,0.6556,0.6572
0.4396,0.5235,0.5102,0.531,0.5535,0.568,0.5996,0.6305,0.6557,0.6458
0.4505,0.5494,0.5527,0.5612,0.5651,0.5788,0.6153,0.6379,0.6609,0.6584
0.4427,0.5333,0.5301,0.5544,0.567,0.5617,0.5994,0.6357,0.656,0.6649
0.4181,0.5039,0.5096,0.5245,0.5292,0.5455,0.6056,0.6088,0.6436,0.6559
0.4288,0.5193,0.5246,0.5388,0.5462,0.5569,0.5918,0.6277,0.6433,0.6425
0.4076,0.5391,0.5446,0.5625,0.5596,0.5799,0.605,0.6406,0.66,0.6496
0.437,0.5587,0.5752,0.562,0.5714,0.5805,0.6122,0.6418,0.6671,0.6756
0.4799,0.5816,0.5559,0.584,0.5816,0.6026,0.6406,0.6644,0.6999,0.697
0.4751,0.5664,0.5775,0.5774,0.5837,0.5869,0.6223,0.6574,0.6484,0.6669
0.4356,0.5264,0.5604,0.5371,0.5608,0.5699,0.6,0.6377,0.6698,0.6774
0.4629,0.5585,0.5587,0.575,0.5735,0.593,0.6224,0.6616,0.6837,0.6829
0.4618,0.5581,0.5586,0.576,0.5794,0.5605,0.6117,0.6519,0.6722,0.6717
0.4611,0.5761,0.5584,0.5669,0.5864,0.5937,0.6024,0.6455,0.6492,0.662
0.4934,0.5812,0.5812,0.5951,0.6108,0.6224,0.6238,0.6717,0.6866,0.6878
0.482,0.5525,0.5525,0.5718,0.5874,0.5974,0.6235,0.6581,0.6853,0.6856
0.4783,0.5575,0.5642,0.5821,0.5934,0.5814,0.621,0.6625,0.6608,0.6824
0.4652,0.5641,0.5653,0.5784,0.5884,0.5883,0.6193,0.6481,0.6518,0.6801
0.4254,0.5416,0.5418,0.5439,0.5509,0.5756,0.5909,0.6449,0.662,0.6619
0.4833,0.5963,0.6165,0.596,0.6145,0.6208,0.6227,0.6806,0.6953,0.6955
0.4369,0.5662,0.5795,0.5711,0.5796,0.5905,0.6362,0.6452,0.6614,0.6749
0.4646,0.5553,0.5649,0.5759,0.5687,0.5878,0.6254,0.6639,0.6746,0.6835
0.4552,0.5375,0.5331,0.5594,0.5617,0.5652,0.6134,0.6368,0.6562,0.6758
0.4335,0.5575,0.5506,0.5743,0.5828,0.5902,0.6154,0.6511,0.6658,0.6581
0.4339,0.5306,0.5487,0.525,0.5484,0.5592,0.5826,0.6286,0.655,0.6474
0.4912,0.5894,0.5964,0.5996,0.6048,0.599,0.6229,0.6811,0.6966,0.6942
0.4713,0.5637,0.5616,0.5898,0.5917,0.6042,0.6291,0.6636,0.6931,0.6795
0.4622,0.5615,0.5796,0.5784,0.5743,0.5944,0.6333,0.6517,0.6793,0.671
0.4216,0.5055,0.5123,0.5268,0.5285,0.5214,0.5887,0.6215,0.6424,0.652
0.4153,0.5409,0.5213,0.5284,0.5644,0.5674,0.5931,0.6451,0.6507,0.6724
0.4375,0.5462,0.5631,0.5639,0.5695,0.5837,0.6249,0.6517,0.6612,0.6587
0.4615,0.5689,0.5733,0.5691,0.5782,0.5947,0.6208,0.6663,0.6917,0.6872
0.4558,0.5563,0.5552,0.5601,0.5601,0.5744,0.602,0.6355,0.6516,0.656
0.4403,0.558,0.5475,0.5643,0.5722,0.5901,0.6149,0.6402,0.6533,0.6512
0.4796,0.5763,0.5988,0.5878,0.5963,0.6074,0.6052,0.656,0.6713,0.6851
0.4435,0.5305,0.5468,0.5499,0.5556,0.5639,0.5885,0.6189,0.6358,0.6529
0.4854,0.5883,0.5853,0.5976,0.5959,0.6015,0.6417,0.6658,0.6678,0.6899
0.4757,0.5666,0.5669,0.5796,0.5801,0.585,0.5948,0.648,0.6624,0.6679
0.4548,0.5446,0.5541,0.5519,0.5646,0.5701,0.5982,0.6376,0.665,0.6814
0.4177,0.5138,0.5248,0.5268,0.542,0.5513,0.5719,0.6194,0.6496,0.6574
0.4531,0.5484,0.5741,0.5587,0.5784,0.5817,0.6213,0.6571,0.6586,0.6668
0.4683,0.5569,0.5432,0.5729,0.579,0.5864,0.608,0.6514,0.6676,0.6701
0.4349,0.5453,0.5628,0.559,0.567,0.5707,0.5843,0.641,0.6545,0.6763
0.4289,0.5216,0.5155,0.5215,0.5492,0.5713,0.5893,0.6218,0.6335,0.612
0.4053,0.5288,0.5545,0.5293,0.5551,0.5639,0.6121,0.6349,0.6554,0.6683
0.4783,0.5783,0.5833,0.584,0.5961,0.5959,0.6329,0.6717,0.6812,0.6833
0.4416,0.5216,0.5216,0.5339,0.5488,0.5643,0.6125,0.6304,0.6462,0.6701
0.4534,0.5478,0.5489,0.5545,0.5565,0.5648,0.6006,0.639,0.6615,0.6666
0.4436,0.5592,0.5708,0.5692,0.5683,0.5851,0.596,0.6429,0.6572,0.6451
0.437,0.5382,0.5382,0.5555,0.5631,0.5824,0.6043,0.6409,0.668,0.669
0.4501,0.5458,0.5593,0.5523,0.5808,0.587,0.6069,0.6489,0.6715,0.6824
0.4116,0.5223,0.5278,0.5313,0.5233,0.5464,0.5846,0.6172,0.6477,0.6399
0.4864,0.5754,0.5717,0.592,0.6091,0.6267,0.6185,0.6753,0.6869,0.6789
0.4954,0.597,0.614,0.5961,0.6143,0.6305,0.6597,0.689,0.7015,0.703
0.4777,0.5919,0.6074,0.61,0.6092,0.6192,0.6423,0.6767,0.6866,0.6971
0.45,0.5436,0.5527,0.5604,0.5704,0.5748,0.6169,0.6456,0.663,0.6809
0.4893,0.5803,0.5839,0.5892,0.5976,0.5963,0.6317,0.6713,0.6893,0.6913
0.434,0.5322,0.5368,0.5184,0.5531,0.562,0.5848,0.6387,0.6647,0.6499
0.4141,0.5097,0.5288,0.5268,0.5354,0.5503,0.5732,0.6126,0.6493,0.6358
0.4236,0.5466,0.5605,0.533,0.5581,0.5743,0.5911,0.6369,0.6562,0.6649
0.4259,0.5465,0.5465,0.5336,0.5614,0.5757,0.6035,0.6381,0.6772,0.6716
0.476,0.5527,0.5732,0.5601,0.5694,0.5793,0.6083,0.6443,0.6605,0.6607
0.4151,0.5191,0.5211,0.5344,0.5539,0.5566,0.6037,0.6328,0.658,0.6689
0.4276,0.5407,0.5423,0.5392,0.5581,0.5606,0.6028,0.6393,0.6527,0.6598
0.4351,0.534,0.5374,0.5307,0.5487,0.5691,0.6142,0.6332,0.6533,0.674
0.5026,0.5883,0.6015,0.6075,0.6059,0.6222,0.6323,0.6765,0.6834,0.6883
0.4333,0.5231,0.527,0.5388,0.5366,0.5613,0.6133,0.6226,0.6617,0.6791
0.4322,0.5461,0.5383,0.5658,0.5704,0.5826,0.5912,0.6404,0.6592,0.6635
0.4741,0.5714,0.5791,0.5735,0.5861,0.6046,0.6334,0.6596,0.6862,0.6782
0.4543,0.5466,0.5492,0.5672,0.5702,0.5805,0.6002,0.6381,0.6432,0.6712
0.4516,0.5432,0.5335,0.553,0.5621,0.5751,0.6136,0.6465,0.6728,0.6683
0.4478,0.556,0.5713,0.5556,0.575,0.5862,0.6083,0.6444,0.6569,0.663
0.4407,0.5591,0.5499,0.5482,0.5611,0.5744,0.6258,0.6541,0.6919,0.7025
0.4691,0.5708,0.5795,0.5887,0.5923,0.5916,0.6202,0.6564,0.6625,0.6594
0.3795,0.5123,0.5123,0.5134,0.5467,0.5588,0.5812,0.6095,0.6418,0.6268
0.4518,0.5495,0.556,0.5488,0.5544,0.5666,0.5968,0.6525,0.6766,0.6675
0.5003,0.5992,0.6055,0.6106,0.6177,0.6276,0.6539,0.7002,0.7215,0.701
0.3982,0.5224,0.5189,0.512,0.5354,0.5521,0.5772,0.6109,0.6326,0.6205
0.4395,0.5613,0.5701,0.5552,0.5607,0.5858,0.6263,0.6466,0.6625,0.6824
0.4278,0.5611,0.5469,0.5613,0.5768,0.5884,0.6107,0.6516,0.6615,0.6725
0.4427,0.5409,0.5399,0.5505,0.5697,0.5654,0.5916,0.6465,0.6423,0.6621
0.4356,0.5463,0.5763,0.5761,0.573,0.578,0.5815,0.6416,0.6525,0.6476
0.3965,0.515,0.5058,0.5169,0.5248,0.5288,0.5727,0.6011,0.6294,0.6379
0.5057,0.5945,0.6107,0.626,0.6233,0.6293,0.6591,0.6872,0.6866,0.702
0.3991,0.5132,0.535,0.5146,0.5291,0.5477,0.563,0.6102,0.6404,0.6314
0.489,0.5646,0.5836,0.589,0.5809,0.6019,0.6379,0.67,0.6946,0.7104
0.4719,0.5941,0.6046,0.5958,0.5948,0.6074,0.6385,0.6727,0.6714,0.6913
0.453,0.5391,0.5478,0.5446,0.5542,0.5596,0.6024,0.6359,0.6738,0.6761
0.3977,0.5103,0.5102,0.521,0.5269,0.5391,0.574,0.5949,0.6331,0.6124
0.4602,0.5733,0.5467,0.5794,0.596,0.6054,0.6027,0.6616,0.6865,0.6826
0.46,0.5445,0.5361,0.5517,0.5682,0.582,0.6108,0.6353,0.6558,0.6379
0.4433,0.5403,0.5388,0.5572,0.5585,0.5621,0.6199,0.6355,0.6665,0.6604
0.4446,0.5331,0.5625,0.5481,0.5655,0.5723,0.6057,0.6311,0.6493,0.6687
0.4853,0.5712,0.5918,0.5817,0.5932,0.5918,0.6244,0.6556,0.6691,0.672
0.4763,0.5427,0.5384,0.5649,0.5713,0.5839,0.6163,0.6438,0.6691,0.6719
0.4451,0.561,0.5679,0.5707,0.5729,0.5751,0.6182,0.6449,0.6536,0.6755
0.4211,0.5283,0.5278,0.5401,0.5564,0.5609,0.6225,0.6356,0.6683,0.6853
0.4712,0.5846,0.5924,0.5763,0.5998,0.6082,0.5847,0.6694,0.6799,0.6728
0.4775,0.5776,0.5863,0.5751,0.5854,0.5892,0.6246,0.6689,0.6778,0.6759
0.4323,0.535,0.5393,0.5309,0.5381,0.5578,0.5988,0.6188,0.6416,0.6592
0.4185,0.53,0.5388,0.546,0.5557,0.5372,0.5927,0.6238,0.6429,0.6683
0.4788,0.5683,0.5878,0.5923,0.5926,0.6065,0.623,0.6735,0.6696,0.686
0.4614,0.5833,0.5706,0.5902,0.5889,0.6041,0.6391,0.6705,0.6894,0.6887
0.4398,0.5463,0.5382,0.5599,0.5681,0.5766,0.6289,0.6559,0.6713,0.678
0.4404,0.5741,0.5947,0.5818,0.5983,0.5978,0.6328,0.6674,0.68,0.691
0.4318,0.5561,0.5561,0.5553,0.5749,0.5821,0.6258,0.6441,0.6731,0.6811
0.4515,0.5404,0.5295,0.5534,0.5753,0.5783,0.5661,0.6383,0.6507,0.6491
0.4681,0.5388,0.5385,0.5659,0.5646,0.5668,0.6095,0.6537,0.6789,0.6762
0.4457,0.5341,0.5285,0.554,0.5576,0.5596,0.5826,0.6284,0.6217,0.6339
0.4988,0.5855,0.5855,0.6011,0.603,0.6038,0.6229,0.6696,0.6881,0.6902
0.4155,0.5322,0.5609,0.5413,0.5521,0.5604,0.5959,0.6262,0.6486,0.6599
0.4899,0.563,0.5827,0.5829,0.581,0.5854,0.6217,0.6613,0.6861,0.683
0.4741,0.55,0.5542,0.5641,0.5641,0.5761,0.6098,0.6507,0.6579,0.6781
0.4548,0.5611,0.5805,0.5734,0.5772,0.5857,0.5943,0.6421,0.6665,0.6618
0.4335,0.5385,0.559,0.5596,0.5667,0.5735,0.5921,0.6334,0.6489,0.6497
0.4903,0.5599,0.5658,0.5713,0.5736,0.5846,0.6034,0.6482,0.6731,0.6705
0.4557,0.54,0.5283,0.5464,0.5579,0.5718,0.604,0.6366,0.6607,0.6653
0.4433,0.576,0.6013,0.574,0.5949,0.6111,0.6435,0.6688,0.7025,0.702
0.3908,0.5231,0.5356,0.526,0.5393,0.5523,0.5868,0.6122,0.6402,0.6361
0.426,0.5225,0.549,0.5454,0.543,0.558,0.6014,0.6304,0.6419,0.6679
0.4411,0.5311,0.5417,0.5421,0.5354,0.5586,0.5965,0.631,0.6527,0.6703
0.4418,0.5437,0.538,0.5542,0.5768,0.5966,0.6074,0.6539,0.6734,0.6767
0.4733,0.544,0.5468,0.5605,0.5627,0.5662,0.5888,0.6417,0.6596,0.656
0.4521,0.5378,0.55,0.5508,0.5507,0.5571,0.6047,0.6359,0.6706,0.6717
0.4399,0.5422,0.5783,0.5469,0.5541,0.5815,0.6406,0.6656,0.6955,0.694
0.4154,0.5484,0.5619,0.5555,0.5708,0.5728,0.6106,0.6382,0.6622,0.6559
0.4538,0.5607,0.5705,0.5716,0.5827,0.5969,0.6237,0.6615,0.6896,0.6986
0.4834,0.5657,0.5675,0.569,0.5716,0.583,0.623,0.6528,0.6883,0.6993
0.4694,0.5651,0.5583,0.5797,0.5816,0.592,0.5862,0.6503,0.6764,0.6599
0.4791,0.549,0.5426,0.5636,0.5682,0.578,0.6014,0.6412,0.6633,0.6667
0.4631,0.559,0.5848,0.588,0.5887,0.5923,0.6165,0.6502,0.6597,0.659
0.4344,0.5623,0.5741,0.5661,0.5931,0.5852,0.6,0.6489,0.6644,0.657
0.4468,0.53,0.5482,0.5432,0.5511,0.5511,0.5814,0.6268,0.6576,0.6563
0.4396,0.5349,0.5539,0.5455,0.545,0.5626,0.5936,0.631,0.6501,0.6567
0.4424,0.539,0.5657,0.5521,0.5641,0.5765,0.6288,0.6505,0.6711,0.6618
0.4243,0.52,0.502,0.5239,0.547,0.5521,0.5836,0.6281,0.6579,0.6585
0.4575,0.5627,0.5708,0.5749,0.5721,0.5862,0.612,0.6565,0.6614,0.67
0.4608,0.5746,0.5845,0.5804,0.587,0.5932,0.6159,0.655,0.6737,0.6687
0.4625,0.5547,0.5547,0.5722,0.5793,0.591,0.6264,0.65,0.6677,0.6672
0.4971,0.5954,0.5865,0.6041,0.6052,0.6063,0.6588,0.6702,0.6804,0.701
0.4381,0.551,0.5558,0.5499,0.5574,0.5731,0.6207,0.6388,0.6595,0.6694
0.5098,0.6177,0.6121,0.637,0.6313,0.6377,0.6852,0.7,0.7036,0.7109
0.4787,0.5563,0.5529,0.5784,0.5877,0.5902,0.6362,0.6539,0.6772,0.6858
0.4722,0.5329,0.5498,0.5615,0.5523,0.5697,0.5947,0.6348,0.6514,0.6589
0.4477,0.5305,0.5407,0.5586,0.5688,0.5771,0.5963,0.6388,0.6485,0.6549
0.4545,0.5583,0.5788,0.5768,0.5778,0.5872,0.6143,0.6473,0.668,0.6691
0.431,0.5384,0.5538,0.5408,0.5467,0.5685,0.6077,0.6319,0.6462,0.6579
0.436,0.5296,0.5555,0.5555,0.5524,0.5641,0.5934,0.6266,0.6538,0.6495
0.478,0.5551,0.5461,0.5714,0.5704,0.5835,0.6159,0.6574,0.6722,0.6835
0.4213,0.513,0.5457,0.518,0.534,0.5578,0.5998,0.6346,0.6655,0.6721
0.4558,0.5451,0.5568,0.5518,0.541,0.5647,0.6111,0.6341,0.6434,0.6642
0.4903,0.5823,0.5823,0.5926,0.5925,0.5965,0.6356,0.6645,0.6638,0.6828
0.4829,0.5634,0.5812,0.5836,0.5841,0.5952,0.626,0.6521,0.6808,0.6839
0.4636,0.5628,0.5741,0.5772,0.5778,0.5839,0.5959,0.6569,0.6611,0.6602
0.4766,0.567,0.5656,0.5863,0.5902,0.5977,0.6057,0.671,0.6944,0.6735
0.4614,0.5741,0.5814,0.5921,0.586,0.596,0.6311,0.6577,0.6729,0.6843
0.4528,0.5505,0.5534,0.5485,0.5647,0.566,0.6181,0.6271,0.66,0.6643
0.4587,0.5443,0.5391,0.5535,0.573,0.5818,0.6109,0.6442,0.6725,0.6693
0.4315,0.514,0.5265,0.5215,0.5339,0.5484,0.5982,0.6294,0.6545,0.6548
0.4438,0.5354,0.5349,0.5551,0.55,0.5774,0.593,0.6416,0.681,0.6634
0.4579,0.5553,0.5667,0.5598,0.5707,0.5775,0.6155,0.6537,0.6792,0.6612
0.4503,0.5529,0.5584,0.5642,0.5704,0.5801,0.592,0.6347,0.6337,0.6419
0.4575,0.5529,0.5772,0.5566,0.5755,0.59,0.5895,0.6562,0.6603,0.6606
0.4433,0.5461,0.5434,0.5605,0.5669,0.581,0.6082,0.636,0.6363,0.662
0.4725,0.57,0.5719,0.5765,0.5624,0.5913,0.6006,0.6546,0.6814,0.6795
0.4175,0.5391,0.5369,0.5361,0.5372,0.5425,0.595,0.6295,0.6509,0.6425
0.4272,0.539,0.5551,0.5602,0.5644,0.5801,0.6082,0.6538,0.6879,0.6847
0.4489,0.5783,0.5822,0.5649,0.5997,0.5982,0.61,0.6631,0.6908,0.6702
0.4739,0.5982,0.5719,0.6088,0.6235,0.6328,0.6241,0.6759,0.6984,0.6875
0.4319,0.5314,0.5314,0.5268,0.5492,0.5621,0.578,0.6166,0.6247,0.6489
0.441,0.5344,0.5471,0.549,0.553,0.5425,0.6103,0.6231,0.6539,0.671
0.4745,0.5552,0.5839,0.5678,0.5736,0.585,0.6315,0.6699,0.6934,0.7002
0.4431,0.5633,0.5812,0.5714,0.5845,0.5843,0.6291,0.6574,0.6756,0.682
0.4106,0.5084,0.5314,0.5186,0.5353,0.5395,0.5827,0.6132,0.623,0.6401
0.4062,0.4906,0.5185,0.518,0.5302,0.5409,0.5917,0.6148,0.6484,0.6595
0.4701,0.5372,0.5529,0.5566,0.558,0.5565,0.6039,0.6311,0.6252,0.662
0.4904,0.5914,0.5741,0.5956,0.6031,0.6138,0.628,0.6717,0.6941,0.7015
0.4514,0.5523,0.5632,0.5542,0.5656,0.5718,0.6073,0.6355,0.6521,0.6541
0.4448,0.546,0.5408,0.5619,0.5709,0.5697,0.609,0.636,0.6573,0.6681
0.4493,0.5577,0.5761,0.5732,0.572,0.5815,0.6175,0.6358,0.6735,0.6705
0.4076,0.5148,0.5071,0.5166,0.5369,0.5419,0.5802,0.6139,0.6346,0.6346
0.4481,0.5534,0.5587,0.5535,0.5562,0.568,0.6024,0.6197,0.6503,0.6365
0.4598,0.564,0.5653,0.5684,0.5802,0.5992,0.606,0.6522,0.6561,0.6718
0.4975,0.5725,0.5855,0.5892,0.5988,0.6093,0.6295,0.674,0.6799,0.6899
0.4212,0.5215,0.5215,0.5216,0.5402,0.5542,0.593,0.6278,0.6585,0.6407
0.46,0.5824,0.5836,0.5802,0.5913,0.6021,0.6394,0.673,0.6868,0.6928
0.4351,0.519,0.5313,0.5238,0.5326,0.5411,0.599,0.6292,0.6585,0.6494
0.4351,0.5615,0.5707,0.5685,0.5775,0.5906,0.6181,0.6491,0.6534,0.6749
0.4084,0.5111,0.54,0.5407,0.5249,0.561,0.5785,0.636,0.6624,0.6275
0.4727,0.5733,0.5733,0.582,0.5949,0.5982,0.622,0.6558,0.6661,0.6736
0.4564,0.5631,0.5851,0.5755,0.5763,0.5935,0.6182,0.6508,0.663,0.663
0.4237,0.5197,0.5092,0.5168,0.5452,0.5502,0.603,0.6203,0.6609,0.6497
0.4613,0.563,0.5765,0.5804,0.577,0.5893,0.624,0.6485,0.6433,0.6705
0.4188,0.5116,0.5128,0.519,0.5353,0.5436,0.5729,0.6165,0.6392,0.6601
0.4577,0.5725,0.5755,0.5908,0.5909,0.5965,0.6332,0.6705,0.6913,0.6725
0.4293,0.5361,0.5377,0.5514,0.5483,0.5583,0.6095,0.6196,0.6491,0.6566
0.4948,0.5607,0.5682,0.566,0.5743,0.5834,0.606,0.657,0.6723,0.6857
0.4676,0.5512,0.5656,0.5751,0.5679,0.5867,0.6197,0.6555,0.6583,0.6776
0.4516,0.5567,0.5467,0.5643,0.5734,0.5891,0.611,0.6581,0.6719,0.6839
0.4706,0.5524,0.5679,0.5593,0.5775,0.5892,0.609,0.6421,0.6582,0.6706
0.4837,0.5578,0.571,0.5727,0.5762,0.5792,0.6161,0.6539,0.6744,0.6797
0.4868,0.5864,0.5919,0.5967,0.599,0.6126,0.6208,0.6711,0.6937,0.684
0.465,0.5631,0.5692,0.5765,0.5847,0.5909,0.5976,0.6418,0.6678,0.6708
0.4369,0.5361,0.5458,0.5388,0.5495,0.5485,0.5857,0.6204,0.6357,0.6478
0.4699,0.5769,0.5784,0.5851,0.5827,0.5915,0.6287,0.6584,0.6845,0.6839
0.4372,0.5511,0.5684,0.5557,0.5637,0.5764,0.611,0.6431,0.6642,0.6725
0.41,0.5097,0.5033,0.5173,0.5479,0.5688,0.6002,0.6275,0.6467,0.6519
0.4646,0.5602,0.5894,0.5802,0.5995,0.6053,0.6381,0.6711,0.6829,0.6823
0.4541,0.5371,0.5377,0.5457,0.5514,0.5595,0.5843,0.6277,0.6545,0.6614
0.4884,0.5477,0.5494,0.5734,0.5751,0.5758,0.617,0.6575,0.6715,0.6893
0.4483,0.547,0.5377,0.5509,0.5813,0.5935,0.606,0.6573,0.6866,0.6695
0.4733,0.5835,0.5991,0.5879,0.6015,0.6148,0.6426,0.6822,0.7034,0.696
0.5022,0.5774,0.5651,0.5874,0.5914,0.603,0.6287,0.6672,0.6781,0.69
0.4617,0.5402,0.533,0.5488,0.5621,0.5685,0.5848,0.6238,0.6443,0.6402
0.4274,0.5357,0.5167,0.5432,0.5429,0.5635,0.5803,0.6182,0.6503,0.647
0.495,0.5671,0.5671,0.5886,0.581,0.5926,0.6089,0.6435,0.6641,0.669
0.4887,0.5463,0.56,0.5609,0.5708,0.5874,0.5984,0.6282,0.639,0.6445
0.466,0.5606,0.5698,0.5697,0.574,0.5844,0.6157,0.6615,0.6824,0.6783
0.4624,0.5576,0.5744,0.5664,0.587,0.5938,0.6093,0.6587,0.6825,0.6879
0.4546,0.5515,0.559,0.5688,0.5706,0.5862,0.588,0.6358,0.6099,0.6268
0.4554,0.5544,0.5584,0.5724,0.5658,0.5804,0.6002,0.6432,0.6627,0.6694
0.4596,0.5607,0.5703,0.5562,0.5704,0.5757,0.614,0.6486,0.6556,0.6794
0.483,0.5931,0.5931,0.597,0.6062,0.6012,0.6282,0.6736,0.6772,0.6791
0.462,0.5632,0.5859,0.58,0.5985,0.5995,0.6479,0.6636,0.6693,0.6817
0.4648,0.5618,0.5549,0.5647,0.5829,0.5902,0.6151,0.6515,0.6708,0.6652
0.449,0.551,0.5561,0.5562,0.5808,0.5782,0.6109,0.6557,0.6649,0.6889
0.436,0.5621,0.5612,0.5737,0.5773,0.5779,0.6201,0.6565,0.677,0.7018
0.4227,0.5248,0.5501,0.5262,0.5605,0.5739,0.6051,0.6372,0.6672,0.6564
0.4549,0.5384,0.5498,0.5504,0.5603,0.5734,0.585,0.6274,0.6344,0.6656
0.4446,0.5476,0.5692,0.5494,0.5801,0.5801,0.6263,0.6649,0.6691,0.6864
0.4558,0.5531,0.5515,0.5668,0.5571,0.5713,0.6218,0.66,0.6979,0.702
0.4582,0.5511,0.5584,0.5403,0.5651,0.5704,0.6009,0.6249,0.6529,0.6514
0.4449,0.5415,0.5415,0.5527,0.5777,0.5826,0.5895,0.6586,0.6742,0.6668
0.4565,0.5693,0.5695,0.5769,0.5881,0.5875,0.6207,0.6536,0.6707,0.6701
0.4596,0.5441,0.5335,0.5533,0.557,0.5683,0.6044,0.6363,0.6427,0.655
0.4418,0.5307,0.5082,0.5416,0.5417,0.5551,0.5982,0.6295,0.6581,0.6583
0.4242,0.5612,0.5644,0.5661,0.5651,0.5717,0.6152,0.6431,0.6761,0.6749
0.4512,0.5358,0.543,0.5603,0.5604,0.5653,0.5917,0.6354,0.6632,0.663
0.4979,0.5583,0.5711,0.5827,0.5792,0.5925,0.5855,0.6548,0.6689,0.6527
0.4627,0.5535,0.5804,0.5759,0.5785,0.5851,0.6327,0.6528,0.6663,0.6974
0.4356,0.5357,0.5197,0.5459,0.5532,0.5692,0.587,0.6222,0.6443,0.6465
0.4109,0.5253,0.515,0.5344,0.5437,0.5547,0.5767,0.6068,0.6426,0.6524
0.4712,0.5705,0.5931,0.5669,0.5768,0.5939,0.6154,0.6618,0.6689,0.67
0.4769,0.5652,0.5609,0.5759,0.591,0.5951,0.6247,0.6513,0.6697,0.6784
0.431,0.508,0.5105,0.5331,0.5322,0.5442,0.5826,0.6139,0.6398,0.6412
0.4169,0.5204,0.5144,0.5335,0.5414,0.5581,0.5887,0.6276,0.6526,0.6513
0.4522,0.5383,0.5663,0.5589,0.5673,0.5746,0.6029,0.6401,0.6534,0.649
0.482,0.564,0.5844,0.5816,0.5864,0.5904,0.6292,0.6611,0.6822,0.6877
0.4483,0.5251,0.5251,0.5515,0.5559,0.5606,0.6199,0.6378,0.6509,0.6745
0.4608,0.544,0.5396,0.5609,0.5619,0.5737,0.5971,0.6367,0.6492,0.6511
0.4354,0.541,0.5386,0.5549,0.5566,0.575,0.6078,0.6466,0.6691,0.6644
0.4691,0.5667,0.5865,0.579,0.5878,0.5964,0.6097,0.6463,0.6594,0.6583
0.3803,0.4861,0.4861,0.4851,0.5238,0.5468,0.5768,0.6103,0.6487,0.6546
0.4765,0.5605,0.5823,0.5675,0.5739,0.5882,0.598,0.6523,0.6637,0.6567
0.4041,0.5133,0.5148,0.5213,0.5214,0.5325,0.5418,0.5926,0.6105,0.6131
0.466,0.5469,0.5486,0.5521,0.558,0.5699,0.6089,0.649,0.6691,0.6738
0.4577,0.5626,0.5622,0.5793,0.58,0.5831,0.625,0.6527,0.6446,0.6805
0.4924,0.5859,0.5839,0.5857,0.602,0.6169,0.6356,0.6796,0.7075,0.691
0.4444,0.5611,0.5817,0.5737,0.585,0.5961,0.6262,0.6521,0.6742,0.6772
0.4657,0.5419,0.558,0.5559,0.5657,0.5717,0.607,0.6478,0.6634,0.6746
0.4723,0.5494,0.5372,0.5548,0.5641,0.5721,0.6203,0.6428,0.6734,0.6856
0.4487,0.5545,0.5628,0.5562,0.5557,0.5683,0.6071,0.6504,0.6785,0.6581
0.4644,0.5491,0.5421,0.5755,0.5732,0.5843,0.6024,0.6437,0.6387,0.6472
0.4679,0.5392,0.5483,0.576,0.5812,0.5837,0.6075,0.6533,0.6721,0.6784
0.4844,0.5935,0.6115,0.6087,0.6142,0.6132,0.627,0.6649,0.6572,0.6866
0.4192,0.5288,0.5148,0.5186,0.5487,0.5644,0.6035,0.6261,0.6463,0.6582
0.4508,0.57,0.5731,0.5602,0.5891,0.594,0.612,0.6649,0.684,0.6571
0.4628,0.5617,0.5831,0.5846,0.5935,0.5968,0.6117,0.6487,0.6617,0.6679
0.4479,0.5547,0.5511,0.5742,0.5735,0.5902,0.6104,0.6426,0.6504,0.6699
0.4491,0.5609,0.5603,0.5603,0.5679,0.5756,0.6147,0.6467,0.6738,0.6856
0.4515,0.5532,0.5583,0.5659,0.5599,0.5774,0.5971,0.6428,0.6624,0.6655
0.4709,0.5742,0.5787,0.5815,0.5881,0.5964,0.6441,0.668,0.682,0.6954
0.4604,0.5592,0.5603,0.5749,0.591,0.5932,0.625,0.651,0.6433,0.682
0.4612,0.5633,0.5735,0.5787,0.5787,0.588,0.6286,0.6521,0.6734,0.687
0.4621,0.5605,0.5877,0.5838,0.58,0.5938,0.6042,0.6464,0.6568,0.6644
0.463,0.5468,0.5322,0.5487,0.5704,0.5823,0.6136,0.6469,0.6529,0.6692
0.4317,0.5175,0.5175,0.5335,0.5231,0.5392,0.6183,0.6348,0.649,0.6733
0.4786,0.5777,0.5862,0.5869,0.5869,0.5956,0.6273,0.6547,0.6661,0.6786
0.4323,0.5414,0.5301,0.5439,0.5567,0.5693,0.6005,0.6359,0.6634,0.6437
0.4192,0.5052,0.5257,0.5119,0.5248,0.5345,0.5785,0.604,0.6316,0.6439
0.4841,0.5579,0.554,0.5734,0.5742,0.5849,0.6298,0.6532,0.6649,0.6753
0.4383,0.5599,0.5615,0.5605,0.5863,0.5782,0.6171,0.6635,0.6893,0.68
0.4919,0.5676,0.5887,0.5943,0.5846,0.59,0.6206,0.6615,0.6658,0.671
0.4284,0.5285,0.5436,0.5457,0.5433,0.5527,0.6127,0.6274,0.6591,0.6679
0.4557,0.5262,0.5227,0.5285,0.5481,0.5626,0.571,0.6149,0.6138,0.6435
0.4304,0.5462,0.5356,0.5425,0.5597,0.5816,0.6137,0.6571,0.6733,0.6913
0.4595,0.5415,0.5463,0.5512,0.5697,0.5839,0.6318,0.6499,0.6693,0.6859
0.4353,0.545,0.538,0.5612,0.5582,0.5626,0.5864,0.6319,0.639,0.6353
0.4342,0.5364,0.5339,0.5481,0.5545,0.5637,0.5706,0.6194,0.6357,0.6241
0.456,0.5803,0.5712,0.5785,0.5884,0.6064,0.6222,0.6624,0.6727,0.6679
0.4013,0.5176,0.5137,0.5401,0.5595,0.5604,0.5926,0.6313,0.6652,0.6512
0.4303,0.5464,0.53,0.5441,0.5577,0.5686,0.5851,0.6373,0.6598,0.6661
0.4757,0.5567,0.5679,0.5768,0.5886,0.5956,0.6248,0.6643,0.6779,0.6935
0.42,0.5036,0.5376,0.5153,0.5289,0.5482,0.6007,0.6237,0.6686,0.6709
0.4606,0.546,0.5397,0.5576,0.5606,0.571,0.603,0.6526,0.6636,0.6728
0.4681,0.5525,0.5631,0.5732,0.5741,0.5865,0.6157,0.6423,0.6503,0.6773
0.4185,0.5334,0.552,0.5489,0.5621,0.5732,0.6318,0.6473,0.6749,0.674
0.4648,0.5676,0.5836,0.5551,0.5837,0.5916,0.632,0.6582,0.6687,0.6679
0.4105,0.511,0.5263,0.5276,0.5264,0.5422,0.574,0.6051,0.6359,0.6285
0.4701,0.5442,0.5642,0.5667,0.5749,0.586,0.6198,0.6523,0.6936,0.6872
0.4104,0.5086,0.5329,0.5197,0.5397,0.5474,0.5803,0.6152,0.6145,0.6292
0.4348,0.534,0.5361,0.54,0.542,0.5597,0.5948,0.6205,0.6443,0.6384
0.4489,0.5552,0.5673,0.562,0.5824,0.5831,0.6206,0.6432,0.6788,0.6694
0.4706,0.5634,0.5562,0.5716,0.5844,0.5855,0.623,0.652,0.6738,0.6948
0.4379,0.5333,0.5515,0.5496,0.5531,0.5641,0.5957,0.6219,0.6494,0.6416
0.4682,0.5874,0.5948,0.6038,0.615,0.6081,0.638,0.6799,0.6849,0.6951
0.4633,0.5588,0.5758,0.5689,0.555,0.5775,0.6256,0.656,0.6715,0.7027
0.4505,0.5399,0.5433,0.5538,0.5552,0.5632,0.5888,0.6243,0.6345,0.649
0.4535,0.5479,0.5695,0.5731,0.5745,0.591,0.6042,0.6567,0.691,0.6897
0.4481,0.5504,0.553,0.561,0.5628,0.5664,0.6077,0.6317,0.6648,0.6655
0.4512,0.5441,0.5419,0.5665,0.5679,0.5699,0.6284,0.657,0.6736,0.6931
0.4492,0.5408,0.5708,0.5625,0.5722,0.5783,0.5992,0.6412,0.656,0.6761
0.4585,0.5551,0.553,0.5658,0.5878,0.5884,0.6064,0.6439,0.671,0.6455
0.449,0.5503,0.5663,0.5706,0.5668,0.588,0.6224,0.6497,0.6555,0.6848
0.4542,0.5363,0.5437,0.5472,0.5441,0.5526,0.5809,0.6077,0.617,0.6348
0.4308,0.5182,0.5086,0.5345,0.5389,0.5549,0.577,0.6194,0.611,0.648
0.4411,0.536,0.5309,0.5468,0.5466,0.5599,0.5997,0.6273,0.6434,0.6591
0.428,0.5396,0.5598,0.5504,0.5657,0.5771,0.6174,0.6513,0.6703,0.6654
0.4058,0.5311,0.5463,0.555,0.5575,0.5658,0.6027,0.6304,0.6445,0.6692
0.4464,0.5608,0.5752,0.5603,0.5681,0.5839,0.6103,0.6508,0.6835,0.6819
0.4507,0.5597,0.553,0.567,0.5697,0.5683,0.6152,0.6484,0.6577,0.6538
0.4595,0.5521,0.5674,0.5707,0.5729,0.5858,0.6042,0.636,0.6378,0.6565
0.4554,0.5582,0.5732,0.575,0.5785,0.5816,0.6142,0.6392,0.6619,0.6697
0.4437,0.5262,0.5297,0.5358,0.5466,0.5608,0.5801,0.6224,0.6579,0.6572
0.4423,0.5412,0.5643,0.5686,0.5609,0.5584,0.6232,0.6358,0.637,0.6653
0.4752,0.5593,0.5635,0.5771,0.5808,0.5856,0.6342,0.6542,0.67,0.6834
0.4384,0.5311,0.5241,0.5575,0.5664,0.5782,0.6119,0.641,0.6552,0.6608
0.4484,0.5755,0.5562,0.5708,0.5846,0.5959,0.5929,0.6584,0.6858,0.6747
0.4553,0.5536,0.5524,0.5647,0.5637,0.5664,0.6088,0.6455,0.6618,0.682
0.4752,0.5922,0.5708,0.5933,0.6017,0.6165,0.6257,0.6738,0.7017,0.707
0.5,0.5559,0.5719,0.5756,0.576,0.5815,0.6049,0.6539,0.67,0.6753
0.463,0.5476,0.5476,0.5616,0.5656,0.5693,0.6156,0.6377,0.6559,0.6591
0.4223,0.5324,0.5421,0.5406,0.5595,0.5567,0.6043,0.6243,0.6369,0.6592
0.4508,0.5407,0.5548,0.5581,0.5531,0.5659,0.6016,0.6346,0.6552,0.6744
0.4553,0.542,0.5652,0.5579,0.5584,0.5691,0.6023,0.6406,0.6603,0.6679
0.4193,0.5428,0.5603,0.557,0.5596,0.5668,0.6028,0.6392,0.6587,0.6533
0.4773,0.576,0.5742,0.5836,0.593,0.6044,0.6192,0.6541,0.6671,0.6677
0.4446,0.5604,0.5606,0.5575,0.5871,0.597,0.6326,0.6593,0.6706,0.6661
0.4521,0.5611,0.5689,0.5674,0.5705,0.5964,0.6189,0.654,0.6937,0.6921
0.4582,0.5884,0.5962,0.5882,0.6043,0.6041,0.6209,0.6549,0.6659,0.6814
0.4543,0.5856,0.6018,0.5937,0.5993,0.5991,0.6233,0.6728,0.6724,0.6654
0.4522,0.5456,0.5539,0.5616,0.5639,0.5759,0.6318,0.6471,0.6595,0.6844
0.4329,0.5508,0.5714,0.566,0.5652,0.5836,0.5845,0.6389,0.644,0.6456
0.4622,0.57,0.5805,0.5785,0.5761,0.586,0.6116,0.6457,0.6569,0.6595
0.4551,0.5694,0.5789,0.5668,0.5691,0.5933,0.6319,0.655,0.6547,0.6675
0.4182,0.5455,0.5627,0.5454,0.5587,0.5672,0.5958,0.6435,0.6435,0.6519
0.4582,0.5544,0.5714,0.5657,0.5759,0.5862,0.6166,0.6417,0.6638,0.6742
0.4504,0.5839,0.5863,0.5765,0.5914,0.6112,0.6125,0.6646,0.6906,0.6772
0.4415,0.574,0.5742,0.572,0.5818,0.5883,0.6295,0.6569,0.6796,0.6891
0.4581,0.5668,0.5806,0.5851,0.5937,0.5976,0.6386,0.6647,0.676,0.6923
0.4846,0.5653,0.5895,0.5738,0.5854,0.5997,0.6392,0.6666,0.6907,0.6783
0.3914,0.5047,0.4983,0.5243,0.5233,0.5182,0.5658,0.5902,0.6096,0.6236
0.4646,0.5872,0.5831,0.5695,0.5729,0.5861,0.6232,0.6511,0.6685,0.6859
0.458,0.5486,0.5721,0.5588,0.5681,0.5733,0.6181,0.6366,0.6677,0.6735
0.4536,0.5511,0.5511,0.5597,0.5638,0.5775,0.5824,0.6405,0.6552,0.6553
0.4397,0.5436,0.5471,0.5537,0.5755,0.5781,0.6269,0.645,0.6647,0.6862
0.4851,0.5883,0.5995,0.6112,0.6257,0.6203,0.6354,0.6892,0.701,0.7108
0.5168,0.6084,0.6084,0.6259,0.6246,0.6371,0.6307,0.6975,0.7088,0.6959
0.4639,0.5719,0.595,0.5969,0.5872,0.597,0.6377,0.6694,0.6722,0.6578
0.4936,0.5823,0.5704,0.5933,0.5907,0.5984,0.6021,0.6492,0.6731,0.6665
0.4337,0.5492,0.557,0.557,0.5615,0.5656,0.6093,0.6376,0.6579,0.658
0.4652,0.5799,0.5533,0.5954,0.5933,0.5974,0.617,0.6612,0.6665,0.6631
0.4117,0.4983,0.5066,0.5109,0.5355,0.5446,0.5837,0.6184,0.6443,0.6524
0.4499,0.5739,0.6079,0.5827,0.5965,0.6043,0.6339,0.6785,0.6914,0.6774
0.451,0.5551,0.5504,0.5714,0.5783,0.5895,0.6185,0.6478,0.6647,0.6675
0.406,0.5353,0.5143,0.5416,0.5533,0.5595,0.5881,0.6251,0.6515,0.653
0.4743,0.5813,0.603,0.5907,0.6063,0.6187,0.6102,0.6627,0.6784,0.6828
0.4578,0.5657,0.5727,0.5683,0.5707,0.5841,0.6331,0.6572,0.6687,0.6744
0.4706,0.5371,0.5547,0.5604,0.5637,0.5586,0.5971,0.6385,0.6405,0.6644
0.4415,0.5472,0.548,0.5516,0.5751,0.5742,0.6078,0.6507,0.6666,0.669
0.4754,0.5571,0.574,0.5859,0.5787,0.588,0.6262,0.6617,0.6774,0.663
0.4481,0.5356,0.5512,0.5633,0.5588,0.5651,0.5907,0.6335,0.6692,0.6715
0.4556,0.577,0.5911,0.5885,0.591,0.6102,0.6191,0.6627,0.6687,0.6609
0.4882,0.574,0.5769,0.5846,0.582,0.5916,0.6337,0.6576,0.6615,0.6795
0.4692,0.5713,0.5782,0.5848,0.5786,0.5946,0.6123,0.6567,0.6649,0.6761
0.4975,0.5757,0.5694,0.595,0.5987,0.5983,0.6222,0.6628,0.6564,0.6894
0.4481,0.5654,0.5669,0.577,0.5915,0.5934,0.6155,0.6356,0.6448,0.6608
0.4694,0.5638,0.5724,0.5749,0.5753,0.5648,0.6151,0.658,0.6526,0.6762
0.4759,0.5703,0.5933,0.5903,0.5949,0.5992,0.6285,0.6573,0.6723,0.6899
0.4161,0.513,0.5174,0.527,0.5338,0.5294,0.5904,0.6185,0.6481,0.6791
0.4686,0.54,0.5637,0.5653,0.5715,0.5845,0.6109,0.6424,0.6573,0.6745
0.4558,0.5605,0.565,0.5764,0.5908,0.5933,0.6224,0.653,0.6689,0.6604
0.4411,0.5447,0.557,0.5516,0.558,0.5654,0.5929,0.637,0.6483,0.6379
0.436,0.5416,0.5715,0.5518,0.5618,0.5663,0.5807,0.6328,0.6528,0.6499
0.4239,0.5224,0.5435,0.5401,0.5526,0.5538,0.5826,0.6273,0.6392,0.6602
0.4625,0.5378,0.5229,0.5518,0.5609,0.5687,0.5914,0.6265,0.6367,0.6667
0.4361,0.5412,0.546,0.5388,0.5601,0.5734,0.6088,0.6478,0.6794,0.6805
0.4582,0.5269,0.5269,0.5484,0.5556,0.5616,0.594,0.6321,0.6573,0.6647
0.4582,0.5544,0.5555,0.5791,0.5846,0.5922,0.6266,0.6559,0.6692,0.6815
0.4415,0.5477,0.5514,0.5588,0.5598,0.5701,0.5987,0.6363,0.6401,0.6543
0.4422,0.5372,0.5424,0.5472,0.5686,0.5826,0.6227,0.6478,0.6696,0.685
0.4604,0.5839,0.5872,0.603,0.6025,0.6156,0.6349,0.6694,0.6832,0.6633
0.4438,0.5668,0.5613,0.5774,0.5871,0.5822,0.6192,0.6536,0.668,0.6753
0.4398,0.5387,0.5387,0.5574,0.566,0.5677,0.6024,0.6444,0.6596,0.6534
0.4684,0.5877,0.5877,0.5974,0.6159,0.601,0.6342,0.6644,0.6458,0.6807
0.4542,0.5314,0.5306,0.5397,0.5634,0.5744,0.6105,0.6391,0.66,0.662
0.4998,0.577,0.5761,0.5861,0.5986,0.6054,0.6156,0.679,0.6947,0.6754
0.4307,0.5494,0.5541,0.5578,0.5819,0.5816,0.6233,0.6489,0.6677,0.6575
0.4457,0.5275,0.538,0.5544,0.5607,0.5681,0.6191,0.6448,0.6609,0.6909
0.4719,0.5717,0.5657,0.5885,0.5811,0.5808,0.615,0.6446,0.651,0.6579
0.4606,0.5588,0.5652,0.5791,0.5748,0.5771,0.6323,0.6595,0.6856,0.6949
0.4753,0.5732,0.5631,0.579,0.5862,0.5913,0.6302,0.6656,0.6923,0.6883
0.4439,0.5243,0.5167,0.5387,0.5354,0.5445,0.5749,0.6153,0.6428,0.6391
0.4111,0.5313,0.5315,0.5337,0.5542,0.5606,0.5935,0.6291,0.6552,0.6559
0.448,0.5561,0.5768,0.5629,0.5873,0.5911,0.6156,0.6463,0.6434,0.6489
0.4286,0.5439,0.5495,0.5501,0.5779,0.5749,0.6055,0.6398,0.6634,0.6661
0.4318,0.5279,0.5343,0.54,0.54,0.5567,0.5852,0.6322,0.6615,0.659
0.4626,0.5669,0.575,0.5695,0.5664,0.5913,0.6226,0.6519,0.6566,0.6723
0.4479,0.5449,0.5449,0.554,0.5695,0.5723,0.5898,0.6438,0.658,0.667
0.4769,0.5751,0.5735,0.5785,0.5879,0.5953,0.6422,0.6658,0.6629,0.6947
0.4938,0.5689,0.5648,0.5751,0.5882,0.5962,0.5896,0.6491,0.6399,0.6683
0.4069,0.5311,0.5323,0.5375,0.544,0.5617,0.5759,0.6137,0.6208,0.6158
0.4929,0.5804,0.5878,0.583,0.5735,0.5926,0.6158,0.6521,0.6716,0.6853
0.4186,0.5424,0.5608,0.5634,0.5707,0.5692,0.6059,0.6355,0.6654,0.6638
0.463,0.5604,0.5774,0.5665,0.5845,0.5961,0.6239,0.6432,0.6587,0.6781
0.4335,0.5337,0.5611,0.5502,0.5627,0.572,0.5858,0.6283,0.66,0.6501
0.4862,0.5768,0.5942,0.5944,0.5942,0.5987,0.6175,0.6575,0.6525,0.6903
0.4032,0.5006,0.514,0.5133,0.525,0.5332,0.5753,0.6075,0.6366,0.6655
0.4777,0.5663,0.5902,0.5828,0.5772,0.5899,0.6305,0.6618,0.6825,0.6937
0.4281,0.5199,0.5311,0.5401,0.5498,0.5612,0.5992,0.6348,0.6645,0.6782
0.4522,0.549,0.5348,0.558,0.5698,0.5775,0.6096,0.6575,0.6726,0.6908
0.4824,0.5561,0.5556,0.5672,0.5757,0.5867,0.6168,0.6411,0.6617,0.6691
0.4951,0.5944,0.5856,0.6048,0.6046,0.6084,0.6425,0.6746,0.6806,0.6747
0.4596,0.5457,0.5671,0.5524,0.5665,0.5768,0.6147,0.6561,0.6676,0.6933
0.5076,0.59,0.589,0.5926,0.59,0.602,0.6344,0.6681,0.6864,0.6843
0.461,0.5706,0.5504,0.5768,0.5725,0.5937,0.6206,0.6614,0.6808,0.6804
0.4871,0.5603,0.553,0.587,0.5781,0.5899,0.6036,0.6468,0.6552,0.6656
0.445,0.5456,0.5366,0.5629,0.5543,0.5717,0.6229,0.6531,0.6755,0.6808
0.424,0.52,0.5236,0.5322,0.533,0.5585,0.584,0.6147,0.6442,0.651
0.46,0.5673,0.5673,0.5797,0.5808,0.5955,0.6074,0.6608,0.6893,0.6942
0.4596,0.5529,0.5716,0.575,0.5787,0.5768,0.6041,0.6353,0.6683,0.6632
0.4813,0.5917,0.5893,0.5938,0.598,0.5962,0.6261,0.6633,0.6863,0.6988
0.4622,0.5775,0.5824,0.5809,0.5932,0.5961,0.6243,0.652,0.665,0.6852
0.4534,0.5395,0.5468,0.5666,0.5638,0.5741,0.6041,0.6367,0.6544,0.6712
0.4691,0.5709,0.5799,0.5665,0.5853,0.5951,0.6058,0.6543,0.6566,0.6697
0.4288,0.5209,0.5209,0.5289,0.5439,0.555,0.5946,0.6202,0.6575,0.6304
0.4929,0.5883,0.5966,0.5872,0.5983,0.6113,0.6444,0.6809,0.6982,0.6909
0.4706,0.5645,0.5679,0.5722,0.5732,0.5812,0.6057,0.652,0.6716,0.6814
0.4755,0.5547,0.5648,0.5771,0.579,0.576,0.5913,0.6381,0.6493,0.6553
0.4086,0.5377,0.5444,0.5449,0.5595,0.5601,0.5976,0.6191,0.6479,0.6615
0.4481,0.5377,0.5315,0.5491,0.5657,0.579,0.5955,0.6541,0.6757,0.6708
0.4334,0.5314,0.5499,0.5346,0.5361,0.5517,0.5876,0.6213,0.6462,0.6529
0.4471,0.5684,0.5724,0.5676,0.5768,0.5928,0.599,0.651,0.6691,0.672
0.4119,0.539,0.5543,0.5402,0.5574,0.5641,0.599,0.6348,0.6632,0.6556
0.4551,0.5286,0.5472,0.5481,0.5561,0.5588,0.5806,0.6184,0.6296,0.6526
0.5051,0.5848,0.6046,0.6126,0.6066,0.6117,0.6411,0.6798,0.678,0.7004
0.4651,0.564,0.5817,0.583,0.589,0.5925,0.6205,0.6587,0.6799,0.6749
0.4496,0.55,0.5576,0.5577,0.5534,0.5724,0.5785,0.624,0.6257,0.6607
0.4255,0.4976,0.5282,0.5207,0.5376,0.5304,0.568,0.6154,0.6402,0.6514
0.467,0.5465,0.5508,0.5627,0.5731,0.5702,0.6168,0.6582,0.6717,0.6947
0.4358,0.544,0.5541,0.5515,0.5656,0.5714,0.6027,0.6452,0.6645,0.6644
0.447,0.5538,0.5565,0.5614,0.5807,0.5826,0.6217,0.6426,0.6482,0.6761
0.4711,0.5908,0.5891,0.5923,0.5944,0.6078,0.6365,0.663,0.6888,0.6972
0.4668,0.5499,0.5728,0.5683,0.5681,0.5756,0.5949,0.6368,0.6599,0.6465
0.4615,0.5626,0.57,0.5817,0.5731,0.587,0.6153,0.6458,0.6652,0.6736
0.4453,0.5572,0.5572,0.5705,0.5805,0.5867,0.6357,0.6561,0.6707,0.6911
0.4468,0.5673,0.5446,0.5709,0.5701,0.5815,0.6172,0.6504,0.6769,0.674
0.4592,0.5674,0.5785,0.5684,0.5761,0.5954,0.6076,0.6577,0.6865,0.6946
0.4383,0.5575,0.5653,0.567,0.5809,0.5872,0.6234,0.6526,0.684,0.6669
0.4641,0.5797,0.5841,0.5889,0.5936,0.6022,0.6088,0.6503,0.674,0.6489
0.427,0.5254,0.5425,0.5327,0.5445,0.5568,0.5726,0.6288,0.6521,0.6638
0.484,0.5646,0.5694,0.5709,0.5732,0.5893,0.6107,0.6449,0.6656,0.6674
0.4488,0.5462,0.5495,0.5558,0.5702,0.5667,0.5876,0.632,0.6291,0.6526
0.4624,0.5595,0.5849,0.5687,0.5882,0.5962,0.6013,0.6474,0.654,0.6676
0.4499,0.5556,0.5457,0.5725,0.58,0.5946,0.6219,0.6465,0.6589,0.6458
0.4576,0.579,0.6016,0.5655,0.5972,0.6132,0.6476,0.682,0.6939,0.694
0.4434,0.522,0.5358,0.5389,0.5434,0.5396,0.5971,0.6285,0.6526,0.6729
0.4208,0.5189,0.5096,0.5108,0.5399,0.549,0.5978,0.6234,0.6486,0.6519
0.4361,0.5301,0.5561,0.5427,0.5481,0.564,0.5957,0.6331,0.656,0.6587
0.4603,0.572,0.5767,0.5676,0.5735,0.5829,0.6315,0.6533,0.6614,0.6789
0.4593,0.5701,0.5734,0.5933,0.589,0.588,0.6145,0.6644,0.6723,0.6753
0.4837,0.5886,0.6025,0.5922,0.5962,0.6166,0.6387,0.6779,0.6949,0.701
0.4099,0.5111,0.519,0.5246,0.5265,0.5469,0.5662,0.6157,0.65,0.6456
0.4648,0.5767,0.5992,0.5797,0.5897,0.6074,0.6216,0.6748,0.6922,0.6883
0.4653,0.528,0.5478,0.5443,0.5378,0.5396,0.5586,0.6037,0.6119,0.6243
0.4294,0.528,0.5372,0.5505,0.5585,0.5488,0.58,0.6196,0.6388,0.6413
0.4323,0.5054,0.5006,0.5121,0.5382,0.5478,0.5708,0.6172,0.6447,0.6427
0.403,0.5138,0.5065,0.5185,0.529,0.5422,0.5748,0.6026,0.6147,0.6396
0.4489,0.5531,0.5531,0.5619,0.5635,0.5713,0.6062,0.643,0.6521,0.6595
0.4415,0.5549,0.5327,0.5482,0.5712,0.5854,0.6193,0.6557,0.6731,0.68
0.4504,0.5553,0.5556,0.5682,0.5803,0.5833,0.596,0.6473,0.6664,0.6491
0.4759,0.5513,0.5513,0.5568,0.582,0.5897,0.6253,0.6529,0.6761,0.6913
0.4639,0.5524,0.5629,0.5572,0.5798,0.5927,0.5998,0.6412,0.6575,0.6562
0.4824,0.5737,0.5779,0.5922,0.602,0.6146,0.6315,0.678,0.6791,0.6944
0.4443,0.5423,0.526,0.5509,0.5674,0.5801,0.5945,0.6606,0.6805,0.6865
0.4526,0.5433,0.5422,0.5482,0.5471,0.5759,0.5929,0.6388,0.638,0.674
0.4108,0.524,0.5287,0.533,0.545,0.5597,0.5978,0.6333,0.655,0.6534
0.4677,0.5318,0.5309,0.5589,0.5557,0.5731,0.6132,0.6404,0.6757,0.6953
0.4447,0.5637,0.5606,0.577,0.5845,0.5976,0.63,0.6737,0.6902,0.6898
0.4552,0.575,0.5865,0.5765,0.5816,0.5905,0.6152,0.6574,0.6761,0.6879
0.4449,0.5639,0.559,0.5572,0.5844,0.5993,0.6234,0.6479,0.6718,0.6898
0.4406,0.5341,0.5462,0.5401,0.5506,0.5628,0.5864,0.6226,0.648,0.6588
0.47,0.5561,0.5634,0.5763,0.5698,0.5738,0.6036,0.6462,0.673,0.6641
0.4244,0.526,0.5547,0.5412,0.5642,0.5618,0.6269,0.6398,0.6529,0.6747
0.4613,0.5599,0.5719,0.5628,0.5723,0.5692,0.6323,0.6377,0.6465,0.6606
0.4764,0.563,0.5792,0.5786,0.5899,0.5921,0.6219,0.669,0.6827,0.6758
0.4772,0.5765,0.6022,0.5936,0.5919,0.6098,0.6372,0.6751,0.6797,0.695
0.4542,0.5678,0.5754,0.578,0.5787,0.5826,0.6237,0.6499,0.6825,0.6704
0.463,0.5579,0.544,0.5671,0.5607,0.5757,0.6046,0.6444,0.6619,0.6663
0.455,0.5409,0.544,0.5615,0.5604,0.5675,0.6162,0.6397,0.6662,0.6693
0.4672,0.5519,0.5519,0.5608,0.5715,0.5789,0.6063,0.6428,0.6521,0.6634
0.4512,0.5603,0.5603,0.5612,0.5864,0.5962,0.6039,0.6507,0.6723,0.6884
0.4325,0.5294,0.545,0.5475,0.5685,0.5716,0.6255,0.6481,0.6688,0.6803
0.4857,0.5654,0.5654,0.5849,0.5878,0.5859,0.6238,0.6723,0.6709,0.6716
0.4346,0.5484,0.5661,0.5569,0.5654,0.5745,0.6089,0.6519,0.6784,0.6698
0.452,0.5551,0.5456,0.5702,0.5675,0.5778,0.6309,0.6482,0.6577,0.6867
0.4631,0.5676,0.5704,0.575,0.5719,0.5865,0.6136,0.6443,0.6593,0.6708
0.445,0.5814,0.5863,0.5877,0.5915,0.6034,0.6366,0.6734,0.6967,0.6778
0.4318,0.5481,0.5701,0.5545,0.5693,0.5741,0.6202,0.642,0.664,0.6623
0.4385,0.5628,0.5696,0.5564,0.5661,0.5862,0.6242,0.6579,0.6871,0.6735
0.4346,0.5247,0.5269,0.5415,0.5389,0.5478,0.5892,0.6249,0.6334,0.6276
0.4627,0.5699,0.5593,0.5605,0.5829,0.5933,0.6085,0.6605,0.6805,0.6464
0.4109,0.5204,0.53,0.5343,0.5369,0.559,0.573,0.6296,0.6378,0.6382
0.4657,0.5448,0.556,0.5461,0.5505,0.5703,0.584,0.6397,0.6581,0.6542
0.4712,0.5658,0.5594,0.5695,0.5891,0.6042,0.6256,0.6648,0.675,0.6836
0.4431,0.5358,0.5372,0.5451,0.5428,0.565,0.6116,0.6323,0.6607,0.6733
0.4666,0.5695,0.5643,0.5869,0.5889,0.5916,0.6301,0.6609,0.6672,0.6876
0.4432,0.5534,0.5738,0.5607,0.5679,0.5794,0.5997,0.6359,0.6509,0.645
0.4423,0.5298,0.5467,0.5353,0.546,0.558,0.5992,0.6242,0.6571,0.6457
0.4299,0.5612,0.5781,0.5764,0.584,0.582,0.6346,0.6692,0.6806,0.6961
0.4657,0.5506,0.5707,0.5572,0.564,0.5715,0.6196,0.648,0.6747,0.6904
0.444,0.5216,0.5378,0.5543,0.5534,0.5592,0.6059,0.6267,0.6556,0.6684
0.4165,0.5033,0.502,0.5113,0.5166,0.5281,0.5653,0.5936,0.6102,0.6266
0.4706,0.5515,0.5578,0.5601,0.573,0.5883,0.6137,0.6594,0.6784,0.686
0.4522,0.5695,0.5812,0.575,0.5832,0.6053,0.6539,0.6811,0.7028,0.7285
0.4444,0.5341,0.5549,0.5368,0.5358,0.5558,0.6044,0.6296,0.6445,0.6694
0.4469,0.5516,0.5485,0.5448,0.5495,0.5645,0.6065,0.6293,0.6592,0.6623
0.4199,0.5116,0.5292,0.5222,0.5408,0.557,0.6099,0.6231,0.6607,0.6813
0.4432,0.5573,0.555,0.5681,0.5715,0.5934,0.6197,0.6597,0.6725,0.6788
0.451,0.5711,0.5856,0.577,0.5848,0.5927,0.6184,0.6565,0.6729,0.6813
0.4319,0.5386,0.5487,0.5493,0.5584,0.5725,0.6103,0.6428,0.6635,0.6691
0.4321,0.5378,0.5603,0.5449,0.5586,0.5676,0.5879,0.6213,0.6464,0.6457
0.4547,0.5789,0.5934,0.583,0.5973,0.5996,0.6359,0.6669,0.6909,0.6877
0.4527,0.5495,0.5553,0.5507,0.5494,0.5647,0.6062,0.6361,0.6405,0.6551
0.4343,0.537,0.5412,0.5496,0.567,0.5667,0.5938,0.635,0.6636,0.6589
0.4506,0.5635,0.568,0.5689,0.5766,0.5941,0.5949,0.6662,0.6859,0.6758
0.4271,0.5222,0.5158,0.5413,0.5582,0.5729,0.5872,0.6332,0.65,0.6157
0.419,0.5249,0.5447,0.5314,0.5434,0.5623,0.592,0.6215,0.6312,0.6478
0.4262,0.5301,0.5312,0.5481,0.5526,0.558,0.5945,0.6301,0.6384,0.6282
0.4234,0.5414,0.5555,0.5574,0.5675,0.5692,0.5959,0.6252,0.6464,0.6565
0.4747,0.5743,0.5786,0.5891,0.5993,0.6035,0.6234,0.6561,0.6782,0.6844
0.4559,0.5363,0.5473,0.539,0.5514,0.5492,0.6109,0.6375,0.659,0.6646
0.4535,0.5488,0.559,0.5612,0.5659,0.5751,0.6095,0.6387,0.6547,0.6667
0.4343,0.5369,0.5477,0.5369,0.5469,0.5657,0.577,0.62,0.6441,0.6517
0.4381,0.5124,0.5232,0.5388,0.5302,0.5526,0.5694,0.6152,0.6111,0.6242
0.4887,0.5608,0.5608,0.5741,0.5919,0.6033,0.6228,0.66,0.6828,0.6887
0.4201,0.5201,0.5201,0.5485,0.5534,0.5605,0.6114,0.6339,0.6477,0.6712
0.4921,0.5746,0.5829,0.5907,0.6163,0.6249,0.6309,0.6765,0.6726,0.6706
0.4568,0.5627,0.5686,0.5814,0.5806,0.5867,0.6289,0.6583,0.6703,0.6885
0.435,0.5464,0.554,0.5379,0.5605,0.569,0.5835,0.6323,0.6469,0.6351
0.4524,0.5461,0.5405,0.5646,0.5627,0.5767,0.6212,0.6479,0.6743,0.671
0.4624,0.5712,0.5806,0.5885,0.5926,0.5991,0.6302,0.6674,0.6898,0.6762
0.4714,0.5498,0.5759,0.5706,0.5776,0.5856,0.6261,0.6439,0.6766,0.6853
0.475,0.5654,0.5447,0.5733,0.5732,0.5956,0.6275,0.6567,0.6701,0.6781
0.4141,0.5077,0.5337,0.5229,0.537,0.5431,0.5853,0.6194,0.6452,0.6384
0.4459,0.545,0.5356,0.5521,0.5658,0.5707,0.5988,0.6394,0.6498,0.665
0.4591,0.5632,0.5731,0.5622,0.5741,0.5823,0.6038,0.6323,0.6321,0.6591
0.4104,0.5023,0.4982,0.5261,0.52,0.5356,0.5869,0.622,0.6366,0.6358
0.4595,0.5515,0.5528,0.5766,0.5957,0.5976,0.6219,0.6687,0.6758,0.6734
0.4796,0.5789,0.564,0.5629,0.5869,0.598,0.6145,0.6678,0.6984,0.6646
0.4233,0.5581,0.5581,0.5512,0.5683,0.5739,0.6028,0.6376,0.6497,0.6575
0.4583,0.5456,0.553,0.5655,0.5823,0.5793,0.5985,0.6437,0.6605,0.6601
0.439,0.5361,0.5361,0.5524,0.5592,0.5726,0.6023,0.6359,0.6458,0.6371
0.4965,0.5886,0.5938,0.5929,0.5992,0.6134,0.6236,0.6646,0.6734,0.6779
0.447,0.5501,0.5433,0.5405,0.5689,0.5737,0.6024,0.6354,0.6579,0.6355
0.4525,0.5633,0.5647,0.5684,0.5692,0.584,0.609,0.6422,0.6749,0.68
0.4533,0.5683,0.5582,0.5578,0.5764,0.589,0.6104,0.6476,0.6793,0.6767
0.4671,0.5549,0.5748,0.5645,0.5698,0.5809,0.5813,0.6381,0.6645,0.6639
0.48,0.5496,0.5588,0.5656,0.5761,0.5799,0.6087,0.6454,0.6639,0.6622
0.4404,0.5148,0.5165,0.5391,0.5396,0.5476,0.5828,0.6153,0.633,0.6473
0.4694,0.5482,0.5584,0.5702,0.5695,0.5808,0.6373,0.6684,0.6799,0.7214
0.4206,0.5381,0.5493,0.5314,0.563,0.5679,0.5683,0.6354,0.6584,0.6386
0.4574,0.5555,0.5692,0.5621,0.5721,0.5862,0.6214,0.6437,0.6686,0.6552
0.4269,0.5554,0.5407,0.5475,0.5817,0.5834,0.6125,0.6424,0.6627,0.6789
0.4736,0.5767,0.5934,0.561,0.5941,0.6009,0.631,0.6627,0.6832,0.6736
0.4314,0.5541,0.577,0.5541,0.5724,0.5835,0.5935,0.635,0.6547,0.6338
0.477,0.5803,0.599,0.5911,0.5986,0.6141,0.6207,0.6642,0.6797,0.666
0.4346,0.5463,0.5286,0.5478,0.5561,0.5692,0.6211,0.6425,0.6758,0.6718
0.4748,0.5462,0.5604,0.5652,0.5608,0.5675,0.6159,0.6476,0.6799,0.675
0.4058,0.5158,0.5229,0.517,0.5313,0.551,0.5746,0.603,0.6439,0.6153
0.4816,0.559,0.5576,0.5758,0.5833,0.5861,0.6204,0.6622,0.6844,0.6796
0.4722,0.5574,0.555,0.5688,0.5786,0.5902,0.6101,0.6487,0.6673,0.6824
0.4873,0.5745,0.5788,0.5834,0.5776,0.5922,0.6033,0.6571,0.6738,0.6825
0.4404,0.5339,0.5499,0.5472,0.5581,0.5623,0.5979,0.634,0.6649,0.6675
0.4654,0.5462,0.5538,0.5597,0.5553,0.563,0.6023,0.6546,0.6705,0.6734
0.4314,0.5464,0.5478,0.5509,0.5544,0.5762,0.6156,0.6369,0.6624,0.6536
0.4715,0.5421,0.5299,0.555,0.5819,0.5831,0.6347,0.6485,0.6715,0.6796
0.43,0.5427,0.5423,0.5376,0.546,0.5539,0.5826,0.6282,0.6539,0.6565
0.4309,0.5582,0.5739,0.5631,0.5719,0.5856,0.6228,0.6581,0.6848,0.6889
0.4674,0.5716,0.573,0.5751,0.5846,0.605,0.6112,0.6584,0.6724,0.6605
0.4481,0.5569,0.558,0.5646,0.5693,0.5692,0.6303,0.6485,0.6618,0.6765
0.4514,0.5512,0.562,0.566,0.5764,0.5824,0.616,0.6498,0.6654,0.6667
0.4777,0.5775,0.5901,0.5889,0.6124,0.6195,0.6147,0.6771,0.6598,0.6785
0.4446,0.5332,0.5551,0.5381,0.5484,0.5569,0.6046,0.6462,0.6745,0.658
0.434,0.5327,0.5459,0.5524,0.5573,0.5678,0.5989,0.6394,0.6459,0.6748
0.4451,0.5317,0.5464,0.5468,0.5484,0.5542,0.5878,0.6224,0.6558,0.6533
0.4551,0.5771,0.5578,0.5636,0.5862,0.5882,0.6308,0.6583,0.6648,0.6656
0.4531,0.5502,0.5686,0.57,0.5656,0.5774,0.6225,0.6418,0.6646,0.6689
0.4267,0.5481,0.5571,0.5427,0.5626,0.5836,0.6123,0.6338,0.6569,0.6565
0.4528,0.5452,0.5571,0.5618,0.5636,0.5719,0.6019,0.6406,0.6534,0.6593
0.4249,0.5204,0.5361,0.5212,0.5374,0.5413,0.5968,0.62,0.648,0.6806
0.4658,0.5615,0.5701,0.5786,0.5774,0.5921,0.6204,0.6622,0.6956,0.6876
0.4535,0.5531,0.5682,0.5613,0.5731,0.5754,0.6138,0.6408,0.6536,0.6638
0.4306,0.5209,0.5063,0.5279,0.5437,0.5471,0.6002,0.6284,0.6515,0.6552
0.4409,0.5537,0.5607,0.5475,0.5688,0.5745,0.6115,0.6466,0.6621,0.6763
0.4782,0.5724,0.5817,0.5974,0.5977,0.5967,0.6105,0.644,0.6496,0.6472
0.4679,0.5466,0.571,0.5754,0.5777,0.5817,0.613,0.6427,0.6602,0.6636
0.4735,0.5502,0.5437,0.5653,0.5595,0.5875,0.59,0.6389,0.668,0.6562
0.4477,0.5382,0.547,0.5568,0.5631,0.5625,0.592,0.6304,0.6476,0.6535
0.432,0.5374,0.5556,0.5182,0.5447,0.5633,0.5812,0.6334,0.6666,0.6652
0.4773,0.5648,0.5619,0.5755,0.5786,0.5901,0.6119,0.6563,0.666,0.6648
0.4823,0.5835,0.5912,0.5827,0.6051,0.6172,0.6138,0.6761,0.6966,0.6886
0.4397,0.5268,0.5285,0.5405,0.5593,0.5662,0.5974,0.6304,0.6321,0.6453
0.4326,0.5499,0.5539,0.553,0.5696,0.5798,0.6207,0.6503,0.6742,0.6701
0.454,0.555,0.555,0.5603,0.5697,0.5774,0.6213,0.6476,0.6624,0.7012
0.4426,0.5509,0.5686,0.5696,0.5691,0.578,0.626,0.6524,0.673,0.6711
0.4917,0.597,0.5924,0.6033,0.6138,0.6186,0.6383,0.6805,0.6763,0.7048
0.4168,0.5088,0.5291,0.5338,0.5216,0.5358,0.5757,0.6019,0.6271,0.624
0.4624,0.5361,0.5237,0.5415,0.5454,0.5594,0.6003,0.6215,0.6487,0.6574
0.4317,0.5451,0.5534,0.5552,0.5661,0.5806,0.5953,0.6316,0.6511,0.6443
0.439,0.5567,0.5675,0.5674,0.5762,0.5803,0.6292,0.6439,0.6649,0.6498
0.4303,0.553,0.5584,0.5447,0.5643,0.5599,0.6119,0.634,0.6605,0.6509
0.456,0.5474,0.5499,0.5554,0.5549,0.5682,0.5937,0.6286,0.6532,0.6458
0.4318,0.5428,0.5419,0.5445,0.5478,0.562,0.6329,0.6459,0.6804,0.687
0.4417,0.5379,0.5469,0.5487,0.5694,0.5698,0.602,0.6418,0.6623,0.6711
0.4566,0.5736,0.591,0.5851,0.5883,0.5943,0.6396,0.6554,0.6727,0.6857
0.465,0.5576,0.5723,0.5697,0.5791,0.578,0.6143,0.6488,0.6622,0.6558
0.4781,0.6017,0.6199,0.6045,0.6368,0.6358,0.6623,0.6828,0.6946,0.697
0.4765,0.5568,0.551,0.5749,0.5682,0.5786,0.5875,0.6549,0.6539,0.6699
0.4561,0.5684,0.5804,0.5743,0.5835,0.5822,0.618,0.6497,0.6683,0.6752
0.4742,0.5737,0.5737,0.5887,0.5899,0.5944,0.6276,0.659,0.6802,0.6892
0.4828,0.5813,0.5885,0.593,0.6077,0.6002,0.6336,0.6771,0.6707,0.6767
0.5191,0.5903,0.5862,0.6087,0.6162,0.6139,0.6485,0.6907,0.693,0.7085
0.5036,0.5958,0.5926,0.6034,0.5926,0.6053,0.6534,0.6721,0.6869,0.7043
0.4609,0.5496,0.5633,0.573,0.5743,0.5672,0.6189,0.6537,0.6571,0.6832
0.4861,0.5764,0.5648,0.5843,0.5869,0.6003,0.606,0.6539,0.652,0.6617
0.4288,0.5192,0.5185,0.546,0.5638,0.5697,0.6138,0.6387,0.6739,0.6663
0.4734,0.5838,0.5887,0.5937,0.593,0.5945,0.6184,0.6593,0.6669,0.6721
0.474,0.5398,0.5433,0.5612,0.5652,0.5704,0.616,0.6461,0.6672,0.6766
0.4699,0.5923,0.6106,0.6079,0.6181,0.6243,0.6502,0.6751,0.6838,0.6894
0.4136,0.5372,0.554,0.55,0.5538,0.5616,0.5886,0.6278,0.6522,0.6372
0.4466,0.5377,0.5682,0.5513,0.557,0.5793,0.6081,0.6357,0.6589,0.6585
0.4213,0.53,0.5389,0.5452,0.552,0.5559,0.585,0.6116,0.6323,0.6366
0.4245,0.5444,0.5653,0.5603,0.5641,0.575,0.6166,0.6403,0.6554,0.6535
0.469,0.585,0.5777,0.5797,0.5972,0.6103,0.634,0.676,0.6742,0.6811
0.4641,0.5493,0.5667,0.5736,0.558,0.5798,0.6061,0.6554,0.6582,0.6806
0.4657,0.5713,0.5735,0.5764,0.5956,0.604,0.6273,0.6555,0.6643,0.6716
0.4245,0.5146,0.5421,0.5361,0.5414,0.549,0.5907,0.628,0.6465,0.6755
0.4361,0.5551,0.5574,0.5658,0.5672,0.5717,0.6067,0.6404,0.6595,0.6748
0.4685,0.5437,0.5592,0.562,0.563,0.5691,0.5835,0.6325,0.644,0.6462
0.4587,0.552,0.5706,0.5707,0.5784,0.5885,0.6027,0.6345,0.6564,0.649
0.4411,0.5506,0.5581,0.5617,0.5476,0.5698,0.6031,0.6242,0.6246,0.6603
0.4618,0.573,0.5769,0.5727,0.5797,0.5911,0.6258,0.6473,0.65,0.6589
0.4323,0.537,0.5427,0.5526,0.554,0.5543,0.591,0.6314,0.6611,0.6549
0.4818,0.5576,0.5521,0.563,0.5638,0.5878,0.6297,0.6498,0.6662,0.6951
0.4717,0.5721,0.5721,0.5787,0.5871,0.6013,0.6326,0.6796,0.6992,0.6975
0.4268,0.505,0.5007,0.5183,0.5301,0.5481,0.5958,0.6233,0.6482,0.6609
0.4375,0.5387,0.5514,0.5421,0.5565,0.5744,0.5712,0.6223,0.646,0.6326
0.443,0.5257,0.5452,0.5407,0.5479,0.5472,0.6014,0.6187,0.6507,0.6492
0.456,0.5553,0.5637,0.5652,0.5767,0.5789,0.6106,0.6536,0.6594,0.6699
0.4356,0.5566,0.5481,0.5691,0.5869,0.5852,0.5951,0.6378,0.6602,0.6495
0.4525,0.5442,0.5433,0.5481,0.5486,0.559,0.5971,0.63,0.6605,0.6511
0.4566,0.5575,0.5515,0.5747,0.5813,0.5906,0.6251,0.664,0.666,0.6947
0.4778,0.5693,0.5617,0.5861,0.595,0.5945,0.6044,0.6575,0.6676,0.6636
0.4661,0.562,0.5627,0.5676,0.5711,0.5788,0.6366,0.6577,0.6694,0.6858
0.4619,0.5661,0.5716,0.5717,0.5765,0.5846,0.6032,0.6543,0.6557,0.6646
0.4353,0.5457,0.5367,0.5404,0.5569,0.5725,0.6109,0.6232,0.6601,0.6558
0.4365,0.5478,0.5661,0.5575,0.5566,0.5752,0.5904,0.6374,0.6463,0.6362
0.4187,0.5067,0.5044,0.5166,0.5311,0.5406,0.5947,0.6136,0.6444,0.6751
0.4865,0.5902,0.5834,0.5994,0.6065,0.6043,0.6413,0.6691,0.6769,0.6982
0.399,0.4978,0.5334,0.5097,0.5102,0.5319,0.5749,0.6086,0.6281,0.6457
0.4438,0.5505,0.553,0.5389,0.5552,0.576,0.5998,0.626,0.6526,0.6531
0.4652,0.5706,0.5996,0.5794,0.5855,0.6019,0.6135,0.6714,0.6809,0.6758
0.4476,0.5341,0.5582,0.5459,0.5505,0.5741,0.5995,0.6376,0.6536,0.6606
0.4663,0.5679,0.5696,0.5719,0.5771,0.5872,0.6302,0.6532,0.6811,0.6835
0.4609,0.5707,0.5701,0.5821,0.581,0.5865,0.6023,0.6598,0.6755,0.667
0.4445,0.5573,0.5731,0.5529,0.5696,0.574,0.6079,0.6425,0.6717,0.6554
0.48,0.5675,0.5917,0.5888,0.5883,0.6002,0.6385,0.6559,0.6743,0.6886
0.4721,0.5606,0.5567,0.5688,0.579,0.5948,0.6328,0.6655,0.6964,0.6913
0.4196,0.5606,0.5759,0.5506,0.5661,0.5782,0.5903,0.6399,0.6341,0.6469
0.4526,0.5464,0.5579,0.5568,0.5649,0.5852,0.5957,0.6444,0.6629,0.6544
0.4183,0.5087,0.5157,0.5201,0.5234,0.5475,0.5583,0.6093,0.6323,0.6161
0.4013,0.5211,0.5427,0.5284,0.5457,0.5565,0.5903,0.6199,0.6233,0.6483
0.4213,0.5219,0.5124,0.5404,0.5495,0.575,0.579,0.6316,0.6366,0.6319
0.4546,0.5532,0.5636,0.5656,0.5605,0.5702,0.5956,0.6518,0.6667,0.6615
0.4769,0.5788,0.5889,0.5807,0.5917,0.606,0.6184,0.6636,0.6758,0.6833
0.4446,0.5553,0.5709,0.5557,0.5609,0.5699,0.6175,0.653,0.6845,0.682
0.4704,0.5735,0.578,0.5843,0.5921,0.6028,0.6247,0.6652,0.681,0.6725
0.4554,0.5528,0.5468,0.5558,0.579,0.5857,0.5883,0.6386,0.6709,0.6622
0.4626,0.5551,0.5618,0.5666,0.5561,0.5734,0.6094,0.6481,0.6664,0.6809
0.4572,0.5568,0.5568,0.5625,0.5746,0.5828,0.6166,0.6403,0.6465,0.667
0.4677,0.5752,0.5877,0.5828,0.5917,0.5988,0.599,0.6567,0.668,0.6582
0.4853,0.5793,0.5851,0.5885,0.5936,0.61,0.6294,0.6729,0.6931,0.7021
0.4426,0.5524,0.5524,0.556,0.5775,0.5855,0.6214,0.6372,0.6608,0.6727
0.4898,0.5765,0.5742,0.5882,0.5967,0.6039,0.6322,0.6652,0.6715,0.6858
0.4372,0.5351,0.5395,0.5454,0.5661,0.5765,0.6079,0.6473,0.6735,0.6607
0.46,0.5648,0.5648,0.5621,0.5839,0.5976,0.6251,0.6575,0.6737,0.6769
0.4723,0.5646,0.5718,0.564,0.58,0.5979,0.6284,0.653,0.6788,0.6752
0.4751,0.567,0.5661,0.5971,0.6003,0.6057,0.6243,0.674,0.6939,0.6983
0.4636,0.5654,0.5904,0.5793,0.5925,0.5911,0.626,0.664,0.688,0.6873
0.4643,0.564,0.5534,0.5752,0.5707,0.587,0.6213,0.6521,0.6543,0.6711
0.5109,0.5992,0.6012,0.6097,0.6284,0.6265,0.6394,0.6759,0.6687,0.692
0.4508,0.5539,0.5667,0.5697,0.5703,0.5833,0.6123,0.6393,0.6523,0.674
0.4562,0.5453,0.534,0.5634,0.5758,0.5859,0.607,0.649,0.6726,0.6583
0.4286,0.5251,0.5449,0.5322,0.5419,0.5607,0.5946,0.6231,0.658,0.6548
0.4423,0.5421,0.5509,0.5512,0.5686,0.5876,0.6106,0.6546,0.674,0.6787
0.5036,0.5714,0.5882,0.5988,0.59,0.5981,0.6319,0.673,0.6776,0.7015
0.4108,0.5282,0.5529,0.5377,0.5437,0.5612,0.6118,0.6315,0.671,0.6631
0.426,0.5344,0.5278,0.5376,0.5507,0.5809,0.6051,0.6333,0.6514,0.6645
0.4766,0.5573,0.5573,0.5639,0.5785,0.5928,0.63,0.6479,0.6632,0.6864
0.4572,0.5619,0.5617,0.5737,0.5697,0.5758,0.6114,0.6535,0.6889,0.6804
0.4682,0.5652,0.5684,0.5672,0.5786,0.5851,0.6134,0.6481,0.6613,0.6551
0.4962,0.5879,0.5851,0.5895,0.6024,0.6101,0.6346,0.6789,0.6914,0.6976
0.4514,0.5441,0.544,0.5559,0.5719,0.5889,0.6149,0.6561,0.6723,0.6811
0.4641,0.5638,0.5415,0.577,0.5801,0.5961,0.6288,0.6495,0.6625,0.6658
0.4471,0.5555,0.5721,0.5579,0.5756,0.5782,0.608,0.6455,0.6764,0.6868
0.4625,0.5713,0.5948,0.5856,0.5931,0.6001,0.6293,0.6744,0.6797,0.6893
0.4608,0.5697,0.5728,0.5812,0.5863,0.5961,0.6337,0.6568,0.6666,0.6744
0.4838,0.5424,0.5602,0.5616,0.5558,0.5655,0.5901,0.6284,0.627,0.6285
0.4053,0.5158,0.5283,0.5231,0.5353,0.5331,0.567,0.6062,0.6329,0.6315
0.4555,0.542,0.559,0.555,0.5577,0.5673,0.6119,0.6532,0.68,0.7025
0.4332,0.534,0.5358,0.5444,0.549,0.5546,0.5879,0.6236,0.655,0.6561
0.4605,0.5519,0.5851,0.5646,0.5755,0.5866,0.6324,0.6527,0.6577,0.6727
0.4219,0.5414,0.5583,0.5465,0.5628,0.5633,0.5971,0.6442,0.6547,0.6593
0.4335,0.5514,0.537,0.5638,0.5667,0.5762,0.5882,0.6405,0.6543,0.6482
0.4634,0.5423,0.5664,0.5715,0.5716,0.5778,0.5971,0.6389,0.6346,0.6458
0.4418,0.5541,0.5451,0.5503,0.5621,0.561,0.5952,0.6392,0.6524,0.6566
0.4668,0.5565,0.5723,0.5648,0.584,0.5925,0.5986,0.6433,0.6554,0.67
0.4582,0.5547,0.5467,0.5661,0.5658,0.5843,0.6115,0.6598,0.691,0.6868
0.5144,0.5865,0.588,0.6036,0.6054,0.6242,0.6399,0.6863,0.6951,0.7199
0.4661,0.5635,0.5723,0.5697,0.5764,0.5759,0.6317,0.6515,0.6658,0.6751
0.4394,0.5413,0.5449,0.559,0.5566,0.5649,0.6041,0.6309,0.6763,0.6647
0.4404,0.5461,0.5539,0.5441,0.569,0.5862,0.608,0.6384,0.644,0.6557
0.4622,0.5687,0.5748,0.5846,0.5832,0.5924,0.6248,0.6638,0.6682,0.6768
0.4571,0.5632,0.5796,0.5658,0.5787,0.5836,0.6321,0.6487,0.6619,0.6918
0.4839,0.5664,0.5845,0.5808,0.5697,0.5864,0.6294,0.6675,0.6996,0.7055
0.4419,0.5499,0.5521,0.5581,0.567,0.5767,0.6109,0.6525,0.6565,0.6641
0.4185,0.5283,0.5344,0.5334,0.5472,0.5431,0.604,0.6278,0.6618,0.6637
0.4881,0.5853,0.5977,0.5938,0.5993,0.6175,0.6347,0.6581,0.6466,0.6784
0.4285,0.533,0.5373,0.544,0.5377,0.5528,0.5942,0.623,0.6471,0.6574
0.4414,0.5345,0.5314,0.5413,0.5558,0.558,0.6182,0.631,0.6721,0.6696
0.4512,0.539,0.5422,0.5572,0.5845,0.586,0.5913,0.6573,0.6679,0.6692
0.448,0.5243,0.5475,0.541,0.5396,0.5537,0.5814,0.6168,0.6484,0.6674
