AARD_B1_crRNA0223:223-249	4786
AARD_B2_crRNA0188:188-214	5014
AARD_B3_crRNA0327:339-365	5650
AARD_T1_crRNA0163:163-189	5219
AARD_T2_crRNA0653:720-746	3970
AARD_T3_crRNA0296:308-334	5109
ARCN1_B1_crRNA0543:669-695	4584
ARCN1_B2_crRNA0071:71-97	4025
ARCN1_B3_crRNA0603:729-755	5963
ARCN1_T1_crRNA1248:1451-1477	4880
ARCN1_T2_crRNA1188:1368-1394	1973
ARCN1_T3_crRNA0814:940-966	3145
CCT7_B1_crRNA0464:510-536	4970
CCT7_B2_crRNA1585:1775-1801	4257
CCT7_B3_crRNA1541:1708-1734	4123
CCT7_T1_crRNA0982:1075-1101	2013
CCT7_T2_crRNA0203:226-252	3387
CCT7_T3_crRNA0509:555-581	363
CDKN2A_B1_crRNA228:321-347	4361
CDKN2A_B2_crRNA324:417-443	3141
CDKN2A_B3_crRNA158:228-254	5235
CDKN2A_T1_crRNA255:348-374	4563
CDKN2A_T2_crRNA103:149-175	3679
CDKN2A_T3_crRNA208:301-327	5333
CHEK2_B1_crRNA1276:1663-1689	4239
CHEK2_B2_crRNA0226:226-252	4602
CHEK2_B3_crRNA0331:331-357	4444
CHEK2_T1_crRNA0726:850-876	5413
CHEK2_T2_crRNA0632:756-782	5414
CHEK2_T3_crRNA0942:1280-1306	4889
EIF3B_B1_crRNA0269:287-313	4110
EIF3B_B2_crRNA0464:505-531	4105
EIF3B_B3_crRNA0125:125-151	4655
EIF3B_T1_crRNA1359:1719-1745	1438
EIF3B_T2_crRNA0778:936-962	609
EIF3B_T3_crRNA0608:718-744	4131
MESDC1_B1_crRNA0705:820-846	4815
MESDC1_B2_crRNA0619:734-760	4680
MESDC1_B3_crRNA1588:1804-1830	6000
MESDC1_T1_crRNA1719:1959-1985	5087
MESDC1_T2_crRNA1775:2015-2041	4000
MESDC1_T3_crRNA1215:1404-1430	4849
NF1_B1_crRNA0277:423-449	4712
NF1_B2_crRNA2347:2955-2981	4671
NF1_B3_crRNA6472:7913-7939	3938
NF1_T1_crRNA2932:3633-3659	4805
NF1_T2_crRNA4425:5509-5535	3200
NF1_T3_crRNA2072:2657-2683	4767
NF2_B1_crRNA0205:205-231	4565
NF2_B2_crRNA0067:67-93	4993
NF2_B3_crRNA1676:1865-1891	3947
NF2_T1_crRNA1422:1611-1637	5004
NF2_T2_crRNA0884:1027-1053	4764
NF2_T3_crRNA0825:968-994	5887
NT_rc_000038	3564
NT_rc_000341	2945
NT_rc_000358	3427
NUP133_B1_crRNA0093:93-119	4901
NUP133_B2_crRNA0203:203-229	4832
NUP133_B3_crRNA1694:2067-2093	5001
NUP133_T1_crRNA1793:2191-2217	3227
NUP133_T2_crRNA0828:914-940	2092
NUP133_T3_crRNA0428:428-454	6290
PRPF19_B1_crRNA0375:398-424	4550
PRPF19_B2_crRNA0854:877-903	5484
PRPF19_B3_crRNA1287:1367-1393	5077
PRPF19_T1_crRNA1017:1097-1123	5153
PRPF19_T2_crRNA0275:298-324	4380
PRPF19_T3_crRNA0736:759-785	3728
PSMB2_B1_crRNA0164:238-264	3794
PSMB2_B2_crRNA1253:1634-1660	3567
PSMB2_B3_crRNA0379:453-479	4818
PSMB2_T1_crRNA0744:865-891	1569
PSMB2_T2_crRNA0630:727-753	3317
PSMB2_T3_crRNA0269:343-369	4618
PSMB6_B1_crRNA121:144-170	983
PSMB6_B2_crRNA291:375-401	4453
PSMB6_B3_crRNA610:742-768	2852
PSMB6_T1_crRNA471:579-605	2230
PSMB6_T2_crRNA570:678-704	1451
PSMB6_T3_crRNA348:432-458	1378
PTCD1_B1_crRNA1336:1521-1547	5395
PTCD1_B2_crRNA1628:1896-1922	4819
PTCD1_B3_crRNA0374:397-423	5523
PTCD1_T1_crRNA1794:2085-2111	5589
PTCD1_T2_crRNA1414:1659-1685	6355
PTCD1_T3_crRNA0401:424-450	4640
PTEN_B1_crRNA0241:264-290	3990
PTEN_B2_crRNA0854:1120-1146	5225
PTEN_B3_crRNA0293:352-378	4176
PTEN_T1_crRNA0603:757-783	5221
PTEN_T2_crRNA1411:1817-1843	3210
PTEN_T3_crRNA1568:1997-2023	5156
RB1_B1_crRNA0137:247-273	4624
RB1_B2_crRNA0060:92-118	3712
RB1_B3_crRNA1470:2029-2055	4612
RB1_T1_crRNA0649:895-921	4267
RB1_T2_crRNA0999:1440-1466	5068
RB1_T3_crRNA2041:2773-2799	7153
SFPQ_B1_crRNA0348:393-419	4020
SFPQ_B2_crRNA0482:550-576	3420
SFPQ_B3_crRNA0533:601-627	3808
SFPQ_T1_crRNA1163:1313-1339	3725
SFPQ_T2_crRNA1843:2136-2162	4267
SFPQ_T3_crRNA1599:1892-1918	2053
SNRNP200_B1_crRNA1708:1874-1900	4403
SNRNP200_B2_crRNA2069:2329-2355	4280
SNRNP200_B3_crRNA0751:774-800	2668
SNRNP200_T1_crRNA0891:962-988	3658
SNRNP200_T2_crRNA1423:1543-1569	1204
SNRNP200_T3_crRNA2305:2613-2639	534
SUPT5H_B1_crRNA2474:2707-2733	3834
SUPT5H_B2_crRNA2671:2980-3006	4255
SUPT5H_B3_crRNA2590:2876-2902	3787
SUPT5H_T1_crRNA0902:973-999	6078
SUPT5H_T2_crRNA1128:1199-1225	1932
SUPT5H_T3_crRNA0404:452-478	5937
TSC2_B1_crRNA0493:540-566	4441
TSC2_B2_crRNA1407:1477-1503	4366
TSC2_B3_crRNA1243:1313-1339	4766
TSC2_T1_crRNA0762:832-858	5779
TSC2_T2_crRNA0110:133-159	6510
TSC2_T3_crRNA0902:972-998	6101
