AARD_B1_crRNA0223:223-249	4186
AARD_B2_crRNA0188:188-214	4769
AARD_B3_crRNA0327:339-365	5150
AARD_T1_crRNA0163:163-189	4794
AARD_T2_crRNA0653:720-746	3392
AARD_T3_crRNA0296:308-334	4612
ARCN1_B1_crRNA0543:669-695	4453
ARCN1_B2_crRNA0071:71-97	3872
ARCN1_B3_crRNA0603:729-755	5506
ARCN1_T1_crRNA1248:1451-1477	4589
ARCN1_T2_crRNA1188:1368-1394	1628
ARCN1_T3_crRNA0814:940-966	2756
CCT7_B1_crRNA0464:510-536	4712
CCT7_B2_crRNA1585:1775-1801	3935
CCT7_B3_crRNA1541:1708-1734	3869
CCT7_T1_crRNA0982:1075-1101	1542
CCT7_T2_crRNA0203:226-252	2720
CCT7_T3_crRNA0509:555-581	222
CDKN2A_B1_crRNA228:321-347	3951
CDKN2A_B2_crRNA324:417-443	3006
CDKN2A_B3_crRNA158:228-254	4973
CDKN2A_T1_crRNA255:348-374	4282
CDKN2A_T2_crRNA103:149-175	3556
CDKN2A_T3_crRNA208:301-327	4732
CHEK2_B1_crRNA1276:1663-1689	3803
CHEK2_B2_crRNA0226:226-252	4257
CHEK2_B3_crRNA0331:331-357	4137
CHEK2_T1_crRNA0726:850-876	5061
CHEK2_T2_crRNA0632:756-782	5002
CHEK2_T3_crRNA0942:1280-1306	4621
EIF3B_B1_crRNA0269:287-313	3571
EIF3B_B2_crRNA0464:505-531	3677
EIF3B_B3_crRNA0125:125-151	4318
EIF3B_T1_crRNA1359:1719-1745	1231
EIF3B_T2_crRNA0778:936-962	506
EIF3B_T3_crRNA0608:718-744	3970
MESDC1_B1_crRNA0705:820-846	4474
MESDC1_B2_crRNA0619:734-760	4341
MESDC1_B3_crRNA1588:1804-1830	5430
MESDC1_T1_crRNA1719:1959-1985	4694
MESDC1_T2_crRNA1775:2015-2041	3499
MESDC1_T3_crRNA1215:1404-1430	4359
NF1_B1_crRNA0277:423-449	4317
NF1_B2_crRNA2347:2955-2981	4460
NF1_B3_crRNA6472:7913-7939	4076
NF1_T1_crRNA2932:3633-3659	4470
NF1_T2_crRNA4425:5509-5535	3149
NF1_T3_crRNA2072:2657-2683	4259
NF2_B1_crRNA0205:205-231	4139
NF2_B2_crRNA0067:67-93	4630
NF2_B3_crRNA1676:1865-1891	3778
NF2_T1_crRNA1422:1611-1637	4663
NF2_T2_crRNA0884:1027-1053	4331
NF2_T3_crRNA0825:968-994	5727
NT_rc_000038	3134
NT_rc_000341	2904
NT_rc_000358	3041
NUP133_B1_crRNA0093:93-119	4743
NUP133_B2_crRNA0203:203-229	4558
NUP133_B3_crRNA1694:2067-2093	4439
NUP133_T1_crRNA1793:2191-2217	2861
NUP133_T2_crRNA0828:914-940	1707
NUP133_T3_crRNA0428:428-454	5887
PRPF19_B1_crRNA0375:398-424	4108
PRPF19_B2_crRNA0854:877-903	5210
PRPF19_B3_crRNA1287:1367-1393	4594
PRPF19_T1_crRNA1017:1097-1123	4489
PRPF19_T2_crRNA0275:298-324	3893
PRPF19_T3_crRNA0736:759-785	3380
PSMB2_B1_crRNA0164:238-264	3547
PSMB2_B2_crRNA1253:1634-1660	3094
PSMB2_B3_crRNA0379:453-479	4768
PSMB2_T1_crRNA0744:865-891	1288
PSMB2_T2_crRNA0630:727-753	2851
PSMB2_T3_crRNA0269:343-369	4264
PSMB6_B1_crRNA121:144-170	823
PSMB6_B2_crRNA291:375-401	4228
PSMB6_B3_crRNA610:742-768	2706
PSMB6_T1_crRNA471:579-605	1902
PSMB6_T2_crRNA570:678-704	1220
PSMB6_T3_crRNA348:432-458	1194
PTCD1_B1_crRNA1336:1521-1547	4970
PTCD1_B2_crRNA1628:1896-1922	4485
PTCD1_B3_crRNA0374:397-423	4745
PTCD1_T1_crRNA1794:2085-2111	5282
PTCD1_T2_crRNA1414:1659-1685	5958
PTCD1_T3_crRNA0401:424-450	4474
PTEN_B1_crRNA0241:264-290	3467
PTEN_B2_crRNA0854:1120-1146	4859
PTEN_B3_crRNA0293:352-378	3933
PTEN_T1_crRNA0603:757-783	4718
PTEN_T2_crRNA1411:1817-1843	2810
PTEN_T3_crRNA1568:1997-2023	4854
RB1_B1_crRNA0137:247-273	4292
RB1_B2_crRNA0060:92-118	3488
RB1_B3_crRNA1470:2029-2055	4375
RB1_T1_crRNA0649:895-921	3733
RB1_T2_crRNA0999:1440-1466	4538
RB1_T3_crRNA2041:2773-2799	6827
SFPQ_B1_crRNA0348:393-419	3913
SFPQ_B2_crRNA0482:550-576	3267
SFPQ_B3_crRNA0533:601-627	3681
SFPQ_T1_crRNA1163:1313-1339	3267
SFPQ_T2_crRNA1843:2136-2162	3653
SFPQ_T3_crRNA1599:1892-1918	1772
SNRNP200_B1_crRNA1708:1874-1900	4185
SNRNP200_B2_crRNA2069:2329-2355	4045
SNRNP200_B3_crRNA0751:774-800	2097
SNRNP200_T1_crRNA0891:962-988	3270
SNRNP200_T2_crRNA1423:1543-1569	919
SNRNP200_T3_crRNA2305:2613-2639	361
SUPT5H_B1_crRNA2474:2707-2733	3419
SUPT5H_B2_crRNA2671:2980-3006	4101
SUPT5H_B3_crRNA2590:2876-2902	3580
SUPT5H_T1_crRNA0902:973-999	5534
SUPT5H_T2_crRNA1128:1199-1225	1817
SUPT5H_T3_crRNA0404:452-478	5998
TSC2_B1_crRNA0493:540-566	4074
TSC2_B2_crRNA1407:1477-1503	4036
TSC2_B3_crRNA1243:1313-1339	4532
TSC2_T1_crRNA0762:832-858	5012
TSC2_T2_crRNA0110:133-159	5865
TSC2_T3_crRNA0902:972-998	5455
