R1_D0,R2_D0,R3_D0,R1_D7,R2_D7,R3_D7,R1_D14,R2_D14,R3_D14,R1_D21,R2_D21,R3_D21,R1_D27,R2_D27,R3_D27
AARD_B1_crRNA0223:223-249,1776,1817,1662,2213,2293,2518,4296,4792,5007,5573,5493,4786,4428,4665,4186
AARD_B2_crRNA0188:188-214,1841,1951,1865,2488,2634,2897,4587,5264,4923,5810,5802,5014,4555,5210,4769
AARD_B3_crRNA0327:339-365,2013,2043,2033,2715,2754,3124,4986,5596,5620,6508,6092,5650,5549,5553,5150
AARD_T1_crRNA0163:163-189,1805,1931,1759,2460,2523,2737,4546,5060,5423,5760,5562,5219,4928,4740,4794
AARD_T2_crRNA0653:720-746,2016,2006,2047,2520,2391,2795,4124,4374,4240,4723,4370,3970,3604,3781,3392
AARD_T3_crRNA0296:308-334,1873,1861,1874,2382,2562,2753,4528,5137,5145,5326,5581,5109,4500,4665,4612
ARCN1_B1_crRNA0543:669-695,1619,1603,1592,2103,2222,2464,3809,4211,4143,4957,4700,4584,4001,4174,4453
ARCN1_B2_crRNA0071:71-97,1341,1463,1412,2036,2069,2302,3512,3800,4550,4108,4385,4025,3546,3709,3872
ARCN1_B3_crRNA0603:729-755,2340,2339,2118,2848,2849,3429,5448,5757,6216,6440,6333,5963,5378,5240,5506
ARCN1_T1_crRNA1248:1451-1477,1967,2048,1982,2392,2696,2922,4305,4998,4511,5732,5450,4880,4582,4711,4589
ARCN1_T2_crRNA1188:1368-1394,1712,1843,1711,1590,1645,1922,2301,2640,2355,2283,2352,1973,1797,1947,1628
ARCN1_T3_crRNA0814:940-966,1662,1822,1724,1885,1938,2367,3125,3342,3256,3465,3304,3145,2578,2652,2756
CCT7_B1_crRNA0464:510-536,1762,1802,1741,2372,2351,2702,4332,4776,4504,5888,5348,4970,4830,4450,4712
CCT7_B2_crRNA1585:1775-1801,1661,1656,1701,2312,2237,2553,4377,4529,4808,5128,4795,4257,4262,4327,3935
CCT7_B3_crRNA1541:1708-1734,1686,1710,1671,1995,2175,2452,3833,4095,3856,4478,4399,4123,3657,4001,3869
CCT7_T1_crRNA0982:1075-1101,2023,2075,2113,1657,1884,2200,2152,2578,2609,2089,2090,2013,1576,1688,1542
CCT7_T2_crRNA0203:226-252,1988,1972,2125,2421,2488,2702,3402,4093,3253,3770,3558,3387,2672,2794,2720
CCT7_T3_crRNA0509:555-581,1944,2054,1940,612,730,841,543,644,653,347,403,363,171,254,222
CDKN2A_B1_crRNA228:321-347,1737,1822,1727,2321,2360,2516,4372,4742,4119,5533,5170,4361,4402,4617,3951
CDKN2A_B2_crRNA324:417-443,1216,1336,1171,1630,1642,1875,3177,3690,3182,3909,4030,3141,3165,3767,3006
CDKN2A_B3_crRNA158:228-254,2023,2386,1878,2770,2828,3101,5281,5593,5421,6479,6317,5235,5517,5274,4973
CDKN2A_T1_crRNA255:348-374,1842,1922,1735,2293,2337,2848,4332,4434,5217,5021,5076,4563,4337,4300,4282
CDKN2A_T2_crRNA103:149-175,1340,1294,1224,1801,1777,1951,3564,3818,4061,4210,4237,3679,3575,3651,3556
CDKN2A_T3_crRNA208:301-327,1852,1940,1952,2677,2760,3527,4752,5516,5334,6179,6099,5333,5253,5504,4732
CHEK2_B1_crRNA1276:1663-1689,1548,1553,1544,2095,1919,2434,4048,4181,4389,4834,4312,4239,4039,3766,3803
CHEK2_B2_crRNA0226:226-252,1635,1780,1743,2195,2468,2591,4223,4658,4302,5197,5311,4602,4109,4656,4257
CHEK2_B3_crRNA0331:331-357,1477,1656,1589,2153,2115,2364,3761,4261,3946,4797,4662,4444,3703,4060,4137
CHEK2_T1_crRNA0726:850-876,2095,2052,2093,2663,2885,3201,5061,5441,5056,6414,6334,5413,5076,5421,5061
CHEK2_T2_crRNA0632:756-782,2014,2058,2127,2895,2848,3114,5115,5490,5014,6464,6488,5414,5380,5675,5002
CHEK2_T3_crRNA0942:1280-1306,2030,2062,1931,2564,2637,2841,4528,4957,4811,5517,5314,4889,4605,4897,4621
EIF3B_B1_crRNA0269:287-313,1585,1630,1579,2095,2290,2396,3694,4430,4177,4500,4551,4110,3678,4166,3571
EIF3B_B2_crRNA0464:505-531,1539,1663,1581,2083,2120,2512,3859,4171,4171,4635,4595,4105,3825,3979,3677
EIF3B_B3_crRNA0125:125-151,1758,1825,1729,2364,2660,2835,6159,4958,4578,5526,5343,4655,4620,4591,4318
EIF3B_T1_crRNA1359:1719-1745,1799,1985,1941,1230,1389,1626,1671,1902,1498,1582,1544,1438,1186,1219,1231
EIF3B_T2_crRNA0778:936-962,1525,1720,1765,591,607,716,787,884,934,624,648,609,381,473,506
EIF3B_T3_crRNA0608:718-744,1831,1824,1676,2182,2288,2640,3686,4335,3069,5061,4811,4131,3867,4241,3970
MESDC1_B1_crRNA0705:820-846,1849,1868,1843,2334,2474,3006,4473,5102,4997,5337,5474,4815,4290,4556,4474
MESDC1_B2_crRNA0619:734-760,1712,1743,1690,2330,2396,2626,4523,4742,5337,5536,5251,4680,4826,4745,4341
MESDC1_B3_crRNA1588:1804-1830,2235,2166,2317,3113,3003,3351,5603,6077,7247,6713,6790,6000,5513,6070,5430
MESDC1_T1_crRNA1719:1959-1985,2053,2251,2147,2729,2822,3197,4863,5463,5470,5513,5675,5087,4475,4835,4694
MESDC1_T2_crRNA1775:2015-2041,1460,1447,1453,1921,2026,2209,3635,4135,4244,4271,4057,4000,3796,3587,3499
MESDC1_T3_crRNA1215:1404-1430,1798,2017,1907,2602,2650,2839,4684,5197,5416,5695,5541,4849,4637,4627,4359
NF1_B1_crRNA0277:423-449,1519,1648,1716,2172,2279,2625,4015,4557,4524,5233,4937,4712,4343,4281,4317
NF1_B2_crRNA2347:2955-2981,1780,1739,1772,2302,2279,2776,4075,4636,4049,5449,4871,4671,4209,4116,4460
NF1_B3_crRNA6472:7913-7939,1367,1503,1351,1952,2164,2294,3643,4016,3382,4618,4513,3938,3696,3933,4076
NF1_T1_crRNA2932:3633-3659,1995,2074,2039,2593,2620,3090,4488,4862,5206,5438,5050,4805,4705,4174,4470
NF1_T2_crRNA4425:5509-5535,1518,1698,1612,1915,2146,2326,3092,3685,3346,3451,3530,3200,2782,2921,3149
NF1_T3_crRNA2072:2657-2683,1797,1823,1789,2323,2419,2717,4248,4767,4823,5129,5264,4767,4215,4781,4259
NF2_B1_crRNA0205:205-231,1792,1837,1743,2260,2354,2700,3936,4336,4733,4891,4764,4565,4023,4262,4139
NF2_B2_crRNA0067:67-93,1636,1751,1743,2380,2248,2604,4286,4842,4920,5742,5428,4993,4903,4600,4630
NF2_B3_crRNA1676:1865-1891,1542,1576,1472,1997,2219,2301,3591,4355,3773,4675,4817,3947,3783,4150,3778
NF2_T1_crRNA1422:1611-1637,1809,1861,1746,2430,2469,2860,4353,4874,4733,5544,5329,5004,4525,4687,4663
NF2_T2_crRNA0884:1027-1053,1802,1872,1866,2460,2539,2873,4418,4939,4818,5876,5346,4764,4622,4580,4331
NF2_T3_crRNA0825:968-994,2399,2446,2130,3112,3053,3260,5514,6103,4359,7793,7250,5887,5863,6304,5727
NT_rc_000038,1399,1381,1342,1992,1952,1922,3712,3885,3317,4504,4357,3564,3858,3907,3134
NT_rc_000341,1168,1311,1156,1462,1559,1672,2251,2944,961,3514,3248,2945,2226,2952,2904
NT_rc_000358,1250,1329,1322,1884,1785,1860,2893,3364,2275,4083,3951,3427,2829,3407,3041
NUP133_B1_crRNA0093:93-119,1893,1901,1823,2385,2511,2810,4322,5155,4157,5557,5553,4901,4532,5126,4743
NUP133_B2_crRNA0203:203-229,1916,1807,1819,2505,3289,2888,4621,5031,4422,6109,5655,4832,4848,4778,4558
NUP133_B3_crRNA1694:2067-2093,1923,2151,1816,2471,2706,2853,4718,5043,5613,5646,5562,5001,4517,4829,4439
NUP133_T1_crRNA1793:2191-2217,2016,2129,2022,2107,2321,2540,3680,3717,4022,3826,3829,3227,3091,3299,2861
NUP133_T2_crRNA0828:914-940,1822,1841,1721,1657,1662,2033,2107,2644,1950,2505,2500,2092,1613,1975,1707
NUP133_T3_crRNA0428:428-454,2305,2473,2344,3042,3105,3614,5578,6202,5568,7438,6952,6290,5830,5890,5887
PRPF19_B1_crRNA0375:398-424,1619,1701,1660,2043,2262,2485,3957,4329,4809,4788,4982,4550,3944,4104,4108
PRPF19_B2_crRNA0854:877-903,2090,2008,1965,2799,2755,3165,5134,5635,5008,6475,6051,5484,5100,5435,5210
PRPF19_B3_crRNA1287:1367-1393,1765,1868,1851,2529,2563,2818,4397,5205,5115,5596,5551,5077,4347,4923,4594
PRPF19_T1_crRNA1017:1097-1123,1987,1905,1908,2536,2650,3075,4760,5354,4415,5683,5914,5153,4928,5424,4489
PRPF19_T2_crRNA0275:298-324,2086,2079,2012,2614,2651,2973,4395,4628,4683,5181,4677,4380,3814,3871,3893
PRPF19_T3_crRNA0736:759-785,1364,1470,1426,1852,2001,2148,3387,3866,3630,4199,4436,3728,3573,4040,3380
PSMB2_B1_crRNA0164:238-264,1378,1432,1507,1808,1759,2212,3423,3661,3336,4332,4026,3794,3550,3540,3547
PSMB2_B2_crRNA1253:1634-1660,1566,1703,1512,1984,2158,2215,3647,4079,4346,4246,4237,3567,3437,3318,3094
PSMB2_B3_crRNA0379:453-479,1823,1817,1751,2485,2482,2838,4467,4934,4787,5645,5353,4818,4501,4857,4768
PSMB2_T1_crRNA0744:865-891,2190,2229,2211,1683,1709,2033,1991,2322,2250,1689,1792,1569,1201,1346,1288
PSMB2_T2_crRNA0630:727-753,2193,2139,2165,2156,2340,2784,3383,3998,4423,3307,3536,3317,2535,2733,2851
PSMB2_T3_crRNA0269:343-369,2029,1962,1825,2350,2420,2765,4459,4724,4650,5387,4950,4618,4565,4175,4264
PSMB6_B1_crRNA121:144-170,1684,1846,1717,773,1781,980,1105,1313,1163,1257,1150,983,925,902,823
PSMB6_B2_crRNA291:375-401,1709,1730,1718,2231,2258,2688,4083,4680,4693,5076,5059,4453,3990,4430,4228
PSMB6_B3_crRNA610:742-768,1349,1466,1536,1590,1752,2016,2650,3465,2876,3329,3700,2852,2697,3342,2706
PSMB6_T1_crRNA471:579-605,1305,1394,1343,1355,1426,1668,2216,2445,2320,2451,2244,2230,1892,1771,1902
PSMB6_T2_crRNA570:678-704,1893,1807,1735,1134,1234,1408,1472,1919,1611,1537,1543,1451,1105,1250,1220
PSMB6_T3_crRNA348:432-458,1660,1703,1727,1047,1194,1314,1457,1745,1473,1459,1490,1378,980,1230,1194
PTCD1_B1_crRNA1336:1521-1547,1977,2039,1935,2707,2771,3158,5048,5382,6285,6211,5888,5395,5249,5183,4970
PTCD1_B2_crRNA1628:1896-1922,1777,1857,1862,2527,2468,2930,4722,4848,4908,5972,5459,4819,4876,4575,4485
PTCD1_B3_crRNA0374:397-423,1996,2087,2053,2521,2790,3261,5008,5363,5351,5976,5806,5523,4707,4868,4745
PTCD1_T1_crRNA1794:2085-2111,2146,2236,2094,2823,2847,3196,5068,5843,5255,6384,6416,5589,4998,5510,5282
PTCD1_T2_crRNA1414:1659-1685,2291,2279,2232,3009,3116,3538,5520,5896,5861,6797,6611,6355,5672,5625,5958
PTCD1_T3_crRNA0401:424-450,1751,1864,1740,2316,2454,2689,4255,4855,4475,5382,5548,4640,4550,4917,4474
PTEN_B1_crRNA0241:264-290,1529,1609,1488,1881,1942,2454,3482,3969,6322,4446,4418,3990,3717,3798,3467
PTEN_B2_crRNA0854:1120-1146,1842,1935,1850,2557,2654,2941,4790,4941,5431,5565,5431,5225,4636,4515,4859
PTEN_B3_crRNA0293:352-378,1559,1825,1766,2188,2142,2656,4158,4606,5320,4607,4792,4176,3881,4409,3933
PTEN_T1_crRNA0603:757-783,1966,1983,1999,2660,2606,2909,4689,5175,4889,6066,5396,5221,4917,4948,4718
PTEN_T2_crRNA1411:1817-1843,1754,1747,1637,2023,1998,2392,3232,3582,2688,3983,3532,3210,2955,2993,2810
PTEN_T3_crRNA1568:1997-2023,1863,1897,1837,2610,2652,2931,4643,5065,4935,5907,5866,5156,4868,5342,4854
RB1_B1_crRNA0137:247-273,1539,1446,1460,1943,1987,2406,3676,4261,4313,4857,4687,4624,3789,4143,4292
RB1_B2_crRNA0060:92-118,1593,1641,1636,2138,2199,2441,3801,4335,4256,4495,4533,3712,3562,4065,3488
RB1_B3_crRNA1470:2029-2055,1756,1879,1706,2393,2340,2484,4420,4758,4392,5492,5159,4612,4497,4416,4375
RB1_T1_crRNA0649:895-921,1753,1712,1822,2240,2290,2695,3924,4318,3760,4680,4588,4267,3666,4271,3733
RB1_T2_crRNA0999:1440-1466,1865,1929,1728,2447,2568,2739,4611,4906,5017,6069,5742,5068,5115,4976,4538
RB1_T3_crRNA2041:2773-2799,2719,2658,2626,3561,3619,4122,6209,7081,5601,8311,7967,7153,6304,7258,6827
SFPQ_B1_crRNA0348:393-419,1325,1530,1493,1859,1835,2247,3749,4229,4092,4680,4383,4020,3876,3927,3913
SFPQ_B2_crRNA0482:550-576,1160,1423,1289,1777,1866,1989,3472,3850,3881,3965,3902,3420,3317,3364,3267
SFPQ_B3_crRNA0533:601-627,1534,1457,1485,1981,1928,2271,3415,3745,3450,4336,4004,3808,3487,3480,3681
SFPQ_T1_crRNA1163:1313-1339,1899,2004,1886,2376,2437,2854,3735,3948,3438,4375,4071,3725,3188,3264,3267
SFPQ_T2_crRNA1843:2136-2162,1765,1922,1759,2402,2331,2698,4036,4743,4126,5178,4925,4267,4116,4269,3653
SFPQ_T3_crRNA1599:1892-1918,2016,2062,2599,1792,2099,2252,2366,2779,2751,2248,2223,2053,1682,1655,1772
SNRNP200_B1_crRNA1708:1874-1900,1624,1754,1551,2164,2186,2588,4341,4453,4864,5244,4952,4403,4301,4426,4185
SNRNP200_B2_crRNA2069:2329-2355,1522,1580,1530,2049,2089,2449,3543,3937,3258,4764,4451,4280,3771,3685,4045
SNRNP200_B3_crRNA0751:774-800,2287,2375,2245,1979,1973,2235,3127,3454,3860,3080,3347,2668,2683,2723,2097
SNRNP200_T1_crRNA0891:962-988,2159,2181,2097,2234,2499,2752,3814,4457,4020,4003,4271,3658,3137,3564,3270
SNRNP200_T2_crRNA1423:1543-1569,1994,2039,2131,896,949,1041,1392,1392,1465,1420,1337,1204,1090,1043,919
SNRNP200_T3_crRNA2305:2613-2639,2200,2280,2314,512,616,667,678,837,724,531,546,534,285,346,361
SUPT5H_B1_crRNA2474:2707-2733,1277,1386,1305,1845,1787,2030,3509,3619,3158,4154,3838,3834,3204,3302,3419
SUPT5H_B2_crRNA2671:2980-3006,1490,1566,1591,2120,2165,2467,4045,4366,5043,4804,5003,4255,4016,4414,4101
SUPT5H_B3_crRNA2590:2876-2902,1404,1388,1342,1767,1831,2110,3466,3975,3486,4286,4226,3787,3430,3717,3580
SUPT5H_T1_crRNA0902:973-999,2195,2051,2449,2730,2988,3249,5008,5909,5631,6789,6743,6078,5582,5993,5534
SUPT5H_T2_crRNA1128:1199-1225,2098,2326,2123,1509,1678,1970,1975,2300,2105,2375,2152,1932,1875,1927,1817
SUPT5H_T3_crRNA0404:452-478,2050,2185,2055,2895,2951,3103,5550,5984,5822,7373,7159,5937,6288,6706,5998
TSC2_B1_crRNA0493:540-566,1734,1646,1795,2175,2368,2569,3724,4247,3646,5019,4889,4441,3766,4295,4074
TSC2_B2_crRNA1407:1477-1503,1709,1830,1685,2200,2253,2543,4007,4369,3923,5091,4848,4366,3822,4513,4036
TSC2_B3_crRNA1243:1313-1339,1623,1656,1715,2174,2272,2629,3684,4494,4536,4668,5257,4766,3915,4602,4532
TSC2_T1_crRNA0762:832-858,1936,2125,1954,2561,2746,2986,4741,5435,5356,5808,6262,5779,4723,5337,5012
TSC2_T2_crRNA0110:133-159,2172,2249,2336,3052,3098,3511,6303,6376,8110,7514,7017,6510,6481,6028,5865
TSC2_T3_crRNA0902:972-998,2086,2258,2223,2931,3048,3527,5451,5777,7230,6812,6650,6101,5874,5757,5455
