AARD_B1_crRNA0223:223-249	4296
AARD_B2_crRNA0188:188-214	4587
AARD_B3_crRNA0327:339-365	4986
AARD_T1_crRNA0163:163-189	4546
AARD_T2_crRNA0653:720-746	4124
AARD_T3_crRNA0296:308-334	4528
ARCN1_B1_crRNA0543:669-695	3809
ARCN1_B2_crRNA0071:71-97	3512
ARCN1_B3_crRNA0603:729-755	5448
ARCN1_T1_crRNA1248:1451-1477	4305
ARCN1_T2_crRNA1188:1368-1394	2301
ARCN1_T3_crRNA0814:940-966	3125
CCT7_B1_crRNA0464:510-536	4332
CCT7_B2_crRNA1585:1775-1801	4377
CCT7_B3_crRNA1541:1708-1734	3833
CCT7_T1_crRNA0982:1075-1101	2152
CCT7_T2_crRNA0203:226-252	3402
CCT7_T3_crRNA0509:555-581	543
CDKN2A_B1_crRNA228:321-347	4372
CDKN2A_B2_crRNA324:417-443	3177
CDKN2A_B3_crRNA158:228-254	5281
CDKN2A_T1_crRNA255:348-374	4332
CDKN2A_T2_crRNA103:149-175	3564
CDKN2A_T3_crRNA208:301-327	4752
CHEK2_B1_crRNA1276:1663-1689	4048
CHEK2_B2_crRNA0226:226-252	4223
CHEK2_B3_crRNA0331:331-357	3761
CHEK2_T1_crRNA0726:850-876	5061
CHEK2_T2_crRNA0632:756-782	5115
CHEK2_T3_crRNA0942:1280-1306	4528
EIF3B_B1_crRNA0269:287-313	3694
EIF3B_B2_crRNA0464:505-531	3859
EIF3B_B3_crRNA0125:125-151	6159
EIF3B_T1_crRNA1359:1719-1745	1671
EIF3B_T2_crRNA0778:936-962	787
EIF3B_T3_crRNA0608:718-744	3686
MESDC1_B1_crRNA0705:820-846	4473
MESDC1_B2_crRNA0619:734-760	4523
MESDC1_B3_crRNA1588:1804-1830	5603
MESDC1_T1_crRNA1719:1959-1985	4863
MESDC1_T2_crRNA1775:2015-2041	3635
MESDC1_T3_crRNA1215:1404-1430	4684
NF1_B1_crRNA0277:423-449	4015
NF1_B2_crRNA2347:2955-2981	4075
NF1_B3_crRNA6472:7913-7939	3643
NF1_T1_crRNA2932:3633-3659	4488
NF1_T2_crRNA4425:5509-5535	3092
NF1_T3_crRNA2072:2657-2683	4248
NF2_B1_crRNA0205:205-231	3936
NF2_B2_crRNA0067:67-93	4286
NF2_B3_crRNA1676:1865-1891	3591
NF2_T1_crRNA1422:1611-1637	4353
NF2_T2_crRNA0884:1027-1053	4418
NF2_T3_crRNA0825:968-994	5514
NT_rc_000038	3712
NT_rc_000341	2251
NT_rc_000358	2893
NUP133_B1_crRNA0093:93-119	4322
NUP133_B2_crRNA0203:203-229	4621
NUP133_B3_crRNA1694:2067-2093	4718
NUP133_T1_crRNA1793:2191-2217	3680
NUP133_T2_crRNA0828:914-940	2107
NUP133_T3_crRNA0428:428-454	5578
PRPF19_B1_crRNA0375:398-424	3957
PRPF19_B2_crRNA0854:877-903	5134
PRPF19_B3_crRNA1287:1367-1393	4397
PRPF19_T1_crRNA1017:1097-1123	4760
PRPF19_T2_crRNA0275:298-324	4395
PRPF19_T3_crRNA0736:759-785	3387
PSMB2_B1_crRNA0164:238-264	3423
PSMB2_B2_crRNA1253:1634-1660	3647
PSMB2_B3_crRNA0379:453-479	4467
PSMB2_T1_crRNA0744:865-891	1991
PSMB2_T2_crRNA0630:727-753	3383
PSMB2_T3_crRNA0269:343-369	4459
PSMB6_B1_crRNA121:144-170	1105
PSMB6_B2_crRNA291:375-401	4083
PSMB6_B3_crRNA610:742-768	2650
PSMB6_T1_crRNA471:579-605	2216
PSMB6_T2_crRNA570:678-704	1472
PSMB6_T3_crRNA348:432-458	1457
PTCD1_B1_crRNA1336:1521-1547	5048
PTCD1_B2_crRNA1628:1896-1922	4722
PTCD1_B3_crRNA0374:397-423	5008
PTCD1_T1_crRNA1794:2085-2111	5068
PTCD1_T2_crRNA1414:1659-1685	5520
PTCD1_T3_crRNA0401:424-450	4255
PTEN_B1_crRNA0241:264-290	3482
PTEN_B2_crRNA0854:1120-1146	4790
PTEN_B3_crRNA0293:352-378	4158
PTEN_T1_crRNA0603:757-783	4689
PTEN_T2_crRNA1411:1817-1843	3232
PTEN_T3_crRNA1568:1997-2023	4643
RB1_B1_crRNA0137:247-273	3676
RB1_B2_crRNA0060:92-118	3801
RB1_B3_crRNA1470:2029-2055	4420
RB1_T1_crRNA0649:895-921	3924
RB1_T2_crRNA0999:1440-1466	4611
RB1_T3_crRNA2041:2773-2799	6209
SFPQ_B1_crRNA0348:393-419	3749
SFPQ_B2_crRNA0482:550-576	3472
SFPQ_B3_crRNA0533:601-627	3415
SFPQ_T1_crRNA1163:1313-1339	3735
SFPQ_T2_crRNA1843:2136-2162	4036
SFPQ_T3_crRNA1599:1892-1918	2366
SNRNP200_B1_crRNA1708:1874-1900	4341
SNRNP200_B2_crRNA2069:2329-2355	3543
SNRNP200_B3_crRNA0751:774-800	3127
SNRNP200_T1_crRNA0891:962-988	3814
SNRNP200_T2_crRNA1423:1543-1569	1392
SNRNP200_T3_crRNA2305:2613-2639	678
SUPT5H_B1_crRNA2474:2707-2733	3509
SUPT5H_B2_crRNA2671:2980-3006	4045
SUPT5H_B3_crRNA2590:2876-2902	3466
SUPT5H_T1_crRNA0902:973-999	5008
SUPT5H_T2_crRNA1128:1199-1225	1975
SUPT5H_T3_crRNA0404:452-478	5550
TSC2_B1_crRNA0493:540-566	3724
TSC2_B2_crRNA1407:1477-1503	4007
TSC2_B3_crRNA1243:1313-1339	3684
TSC2_T1_crRNA0762:832-858	4741
TSC2_T2_crRNA0110:133-159	6303
TSC2_T3_crRNA0902:972-998	5451
