ID	Name	Cells	Selection	Guide	Replicate	Class
1	X13d_1_1	Cas13	FALSE	1	1	High
2	X13d_1_2	Cas13	FALSE	1	2	High
3	X13d_1_3	Cas13	FALSE	1	3	High
4	X13d_2_1	Cas13	FALSE	2	1	High
5	X13d_2_2	Cas13	FALSE	2	2	High
6	X13d_2_3	Cas13	FALSE	2	3	High
7	X13d_3_1	Cas13	FALSE	3	1	High
8	X13d_3_2	Cas13	FALSE	3	2	High
9	X13d_3_3	Cas13	FALSE	3	3	High
10	X13d_4_1	Cas13	FALSE	4	1	Low
11	X13d_4_2	Cas13	FALSE	4	2	Low
12	X13d_4_3	Cas13	FALSE	4	3	Low
13	X13d_5_1	Cas13	FALSE	5	1	Low
14	X13d_5_2	Cas13	FALSE	5	2	Low
15	X13d_5_3	Cas13	FALSE	5	3	Low
16	X13d_6_1	Cas13	FALSE	6	1	Low
17	X13d_6_2	Cas13	FALSE	6	2	Low
18	X13d_6_3	Cas13	FALSE	6	3	Low
19	X13d_lipo_1	Cas13	FALSE	lipo	1	WT
20	X13d_lipo_2	Cas13	FALSE	lipo	2	WT
21	X13d_lipo_3	Cas13	FALSE	lipo	3	WT
22	X13d_NT_1	Cas13	FALSE	NT	1	NT
23	X13d_NT_2	Cas13	FALSE	NT	2	NT
24	X13d_NT_3	Cas13	FALSE	NT	3	NT
25	X13Dsel_1_1	Cas13	TRUE	1	1	High
26	X13Dsel_1_2	Cas13	TRUE	1	2	High
27	X13Dsel_1_3	Cas13	TRUE	1	3	High
28	X13Dsel_4_1	Cas13	TRUE	4	1	Low
29	X13Dsel_4_2	Cas13	TRUE	4	2	Low
30	X13Dsel_4_3	Cas13	TRUE	4	3	Low
31	X13Dsel_NT_1	Cas13	TRUE	NT	1	NT
32	X13Dsel_NT_2	Cas13	TRUE	NT	2	NT
33	X13Dsel_NT_3	Cas13	TRUE	NT	3	NT
34	live_dead_CAS13DE	Cas13	FALSE	livedead	1	NA
35	live_dead_WT	WT	FALSE	livedead	1	NA
36	WT_1_1	WT	FALSE	1	1	High
37	WT_1_2	WT	FALSE	1	2	High
38	WT_1_3	WT	FALSE	1	3	High
39	WT_2_1	WT	FALSE	2	1	High
40	WT_2_2	WT	FALSE	2	2	High
41	WT_2_3	WT	FALSE	2	3	High
42	WT_3_1	WT	FALSE	3	1	High
43	WT_3_2	WT	FALSE	3	2	High
44	WT_3_3	WT	FALSE	3	3	High
45	WT_4_1	WT	FALSE	4	1	Low
46	WT_4_2	WT	FALSE	4	2	Low
47	WT_4_3	WT	FALSE	4	3	Low
48	WT_5_1	WT	FALSE	5	1	Low
49	WT_5_2	WT	FALSE	5	2	Low
50	WT_5_3	WT	FALSE	5	3	Low
51	WT_6_1	WT	FALSE	6	1	Low
52	WT_6_2	WT	FALSE	6	2	Low
53	WT_6_3	WT	FALSE	6	3	Low
54	WT_lipo_1	WT	FALSE	lipo	1	WT
55	WT_lipo_2	WT	FALSE	lipo	2	WT
56	WT_lipo_3	WT	FALSE	lipo	3	WT
57	WT_NT_1	WT	FALSE	NT	1	NT
58	WT_NT_2	WT	FALSE	NT	2	NT
59	WT_NT_3	WT	FALSE	NT	3	NT